
AF
32
C1
20
CD
CF
01
3A
67
20
0F
DA
72
08
CD
13
02
CD
CF
01
CD
B1
00
CD
D1
19
06
20
CD
FA
18
CD
18
16
CD
0A
19
CD
F3
15
CD
88
09
3A
82
20
A7
CA
EF
09
CD
BB
13
CD
35
09
CD
D8
08
CD
2C
17
CD
59
0A
CA
49
08
06
04
CD
FA
18
CD
75
17
D3
06
CD
04
18
C3
1F
08
00
00
00
11
BA
1A
CD
F3
08
06
98
DB
01
0F
0F
DA
6D
08
0F
DA
98
07
C3
7F
07
3E
01
C3
9B
07
CD
1A
02
C3
14
08
3A
08
20
47
2A
09
20
EB
C3
86
08
00
00
00
3A
67
20
67
2E
FC
C9
21
11
2B
11
70
1B
0E
0E
CD
F3
08
3A
67
20
0F
3E
1C
21
11
37
D4
FF
08
3E
B0
32
C0
20
3A
C0
20
A7
C8
E6
04
C2
BC
08
CD
CA
09
CD
31
19
C3
BD
0B
06
30
21
1C
26
3A
67
20
0F
DA
CB
08
21
1C
38
CD
CB
14
C3
A9
08
DB
02
E6
01
C3
E7
17
3A
82
20
FE
0C
D0
3E
F9
32
7E
20
C9
3A
CE
20
A7
C0
21
1C
38
06
30
C3
CB
14
0E
03
1A
D5
CD
FF
08
D1
13
0D
C2
F3
08
C9
11
00
1E
E5
26
00
6F
29
29
29
19
EB
E1
06
08
D3
06
C3
39
14
3A
09
20
FE
78
D0
2A
91
20
7D
B4
C2
29
09
21
00
06
3E
01
32
83
20
2B
22
91
20
C9
CD
11
16
2E
FF
7E
C9
CD
10
19
2B
2B
7E
A7
C8
06
50
DB
02
07
00
D2
48
09
06
30
CD
C1
13
00
00
B8
D8
CD
2E
09
34
7E
F5
21
01
25
24
24
3D
C2
58
09
06
10
11
60
1C
CD
39
14
F1
3C
CD
8B
1A
CD
10
19
2B
2B
36
00
3E
FF
32
99
20
06
10
C3
FA
18
21
A0
1D
FE
02
D8
23
FE
04
D8
23
C9
CD
CA
09
3A
F1
20
A7
C8
AF
32
F1
20
E5
2A
F2
20
EB
E1
7E
83
27
77
5F
23
7E
8A
27
77
57
23
7E
23
66
6F
C3
AD
09
7A
CD
B2
09
7B
D5
F5
0F
0F
0F
0F
E6
0F
CD
C5
09
F1
E6
0F
CD
C5
09
D1
C9
C6
1A
C3
FF
08
3A
67
20
0F
21
F8
20
D8
21
FC
20
C9
21
02
24
36
00
23
7D
E6
1F
FE
1C
DA
E8
09
11
06
00
19
7C
FE
40
DA
D9
09
C9
CD
3C
0A
AF
32
E9
20
CD
D6
09
3A
67
20
F5
CD
E4
01
F1
32
67
20
3A
67
20
67
E5
2E
FE
7E
3C
77
FE
01
CC
B3
19
CD
15
18
00
00
7E
E1
2E
FC
77
23
36
38
7C
0F
DA
33
0A
3E
21
32
98
20
CD
F5
01
CD
04
19
C3
04
08
CD
EF
01
CD
C0
01
C3
04
08
CD
59
0A
C2
52
0A
3E
30
32
C0
20
3A
C0
20
A7
C8
CD
59
0A
CA
47
0A
CD
59
0A
C2
52
0A
C9
3A
15
20
FE
FF
C9
3A
EF
20
A7
CA
7C
0A
48
06
08
CD
FA
18
41
78
CD
7C
09
7E
21
F3
20
36
00
2B
77
2B
36
01
21
62
20
C9
3E
02
32
C1
20
D3
06
3A
CB
20
A7
CA
85
0A
AF
32
C1
20
C9
D5
1A
CD
FF
08
D1
3E
07
32
C0
20
3A
C0
20
3D
C2
9E
0A
13
0D
C2
93
0A
C9
21
50
20
C3
4B
02
3E
40
C3
86
19
3E
80
C3
D7
0A
E1
C3
72
00
3A
C1
20
0F
DA
BB
0A
0F
DA
68
18
0F
DA
AB
0A
C9
00
00
00
00
00
00
00
00
32
C0
20
3A
C0
20
A7
C2
DA
0A
C9
21
C2
20
06
0C
C3
32
1A
AF
D3
03
D3
05
CD
82
19
FB
CD
B1
0A
3A
EC
20
A7
21
17
30
0E
04
C2
E8
0B
11
FA
1C
CD
93
0A
CD
B1
0A
CD
7F
0C
3A
90
1F
CD
64
0E
00
00
00
3A
EC
20
A7
C2
4A
0B
11
95
1A
CD
E2
0A
CD
80
0A
11
B0
1B
CD
E2
0A
CD
80
0A
CD
B1
0A
11
C9
1F
CD
E2
0A
CD
80
0A
CD
B1
0A
21
B7
33
06
0A
CD
CB
14
CD
B6
0A
CD
DD
0E
3A
FF
21
A7
C2
5D
0B
CD
D1
08
32
FF
21
CD
7F
1A
CD
E4
01
CD
C0
01
CD
EF
01
CD
1A
02
3E
01
32
C1
20
CD
CF
01
CD
18
16
CD
F1
0B
D3
06
CD
59
0A
CA
71
0B
AF
32
25
20
CD
59
0A
C2
83
0B
AF
32
C1
20
CD
B1
0A
CD
D6
09
0E
0C
21
11
2C
11
90
1F
CD
F3
08
3A
EC
20
FE
00
C2
AE
0B
21
11
33
3E
02
CD
FF
08
CD
2C
0C
CD
50
1F
C3
C6
0B
C5
CD
F3
08
C1
C9
CD
63
0C
CD
E4
08
C3
A9
08
3A
EC
20
FE
00
C2
DA
0B
11
D5
1F
CD
E2
0A
CD
80
0A
CD
9E
18
21
EC
20
7E
3C
E6
01
77
CD
D6
09
C3
34
0F
11
AB
1D
CD
93
0A
C3
08
0B
CD
0A
19
C3
9A
19
3E
C0
C3
D7
0A
01
18
3A
EB
20
FE
99
CA
3E
00
F5
DB
02
07
D2
14
0C
F1
C6
01
27
C3
38
00
3A
01
3E
FE
07
C2
23
0C
AF
32
01
3E
C3
0D
0C
3E
07
32
01
3E
F1
C3
3E
00
DB
02
07
D2
38
0C
11
6E
0F
C3
3B
0C
11
7E
0F
21
0F
2A
0E
10
CD
F3
08
DB
02
0F
0F
D8
21
0D
28
11
BA
10
0E
14
CD
F3
08
DB
02
07
D0
21
0D
33
11
F8
1E
06
08
C3
39
14
98
CD
1A
19
21
1C
3D
CD
75
0C
21
1C
34
CD
75
0C
21
1C
2B
11
D0
1E
06
08
D3
06
C3
39
14
11
F8
0C
21
15
2E
06
40
CD
39
14
D3
06
11
38
0D
21
14
2E
06
40
CD
39
14
CD
B1
0A
11
78
0D
21
12
2E
06
40
CD
39
14
11
B8
0D
21
11
2E
06
40
CD
39
14
CD
B1
0A
11
FA
0D
21
0F
2B
06
6A
CD
39
14
D3
06
11
73
0E
21
0E
2B
06
6A
CD
39
14
CD
B1
0A
11
F3
1F
21
0B
30
0E
04
CD
93
0A
21
09
29
11
E1
1F
0E
12
CD
93
0A
C3
B6
0A
18
26
D8
0F
13
26
F0
0F
0E
26
08
10
09
26
20
10
FF
00
3C
7E
C3
C3
C3
C3
C3
C3
71
30
00
00
00
FF
FF
00
00
00
00
00
00
FF
FF
00
00
00
FF
FF
C3
C3
C3
C3
C3
C3
7E
3C
00
00
00
FF
FF
C3
C3
C3
C3
C3
C3
C0
C0
00
00
00
FF
FF
C3
C3
C3
C3
C3
C3
7E
3C
00
00
30
38
0C
0C
0C
0C
0C
0C
F8
F0
00
00
00
F0
F8
1C
0C
0C
0C
0C
1C
F8
F0
00
00
00
FC
FC
00
00
00
00
00
00
00
00
00
00
00
FC
FC
0C
0C
0C
0C
0C
0C
0C
0C
00
00
00
FC
FC
00
00
C0
C0
30
30
0C
0C
00
00
FF
FF
C3
C3
C3
C3
C3
C3
C0
C0
00
00
00
07
1F
38
70
C0
C0
70
38
1F
07
00
00
00
FF
FF
C3
C3
C3
C3
C3
C3
7E
3C
00
00
00
C0
C0
C0
C0
FF
FF
C0
C0
C0
C0
00
00
00
FF
FF
03
03
03
03
03
03
FF
FF
00
00
FC
FC
0C
0C
0C
0C
0C
0C
0C
0C
00
00
00
FC
FC
C0
C0
C0
C0
C0
C0
FC
FC
00
00
00
FC
FC
00
00
C0
C0
30
30
0C
0C
00
00
00
00
00
00
00
FC
FC
00
00
00
00
00
00
00
FC
FC
00
00
00
00
00
00
FC
FC
00
5E
0F
00
00
00
00
00
C0
C0
C0
C0
FF
FF
C0
C0
C0
C0
00
00
00
FF
FF
0C
0C
03
03
00
00
FF
FF
00
00
00
FF
FF
00
00
00
00
00
00
FF
FF
00
00
00
07
1F
38
70
C0
C0
70
38
1F
07
00
00
00
3C
7E
C3
C3
C3
C3
C3
C3
71
30
00
00
00
C0
C0
C0
C0
FF
FF
C0
C0
C0
C0
00
00
00
3F
7F
C0
C0
C0
C0
C0
C0
7F
3F
00
00
00
FF
FF
0C
0C
03
03
00
00
FF
FF
1E
0A
2A
F8
0D
4E
1D
CA
00
18
81
23
C3
69
0E
00
00
00
00
00
0C
0C
0C
0C
FC
FC
0C
0C
0C
0C
00
00
00
FC
FC
00
00
00
00
C0
C0
FC
FC
00
00
00
C0
C0
30
30
0C
0C
30
30
C0
C0
00
00
00
FC
FC
C0
C0
C0
C0
C0
C0
FC
FC
00
00
00
30
38
0C
0C
0C
0C
0C
0C
F8
F0
00
00
00
0C
0C
0C
0C
FC
FC
0C
0C
0C
0C
00
00
00
F0
F8
0C
0C
0C
0C
0C
0C
F8
F0
00
00
00
FC
FC
00
00
00
00
C0
C0
FC
FC
CD
D6
09
21
16
28
0E
14
11
8E
0F
CD
56
0F
0E
12
21
14
29
CD
56
0F
21
12
29
CD
56
0F
21
10
29
CD
56
0F
21
0D
29
11
38
10
0E
12
CD
B7
0B
21
0B
29
CD
B7
0B
21
09
29
CD
B7
0B
21
07
29
CD
B7
0B
21
05
29
CD
B7
0B
21
05
2E
06
08
DB
02
07
00
D2
9C
1F
CD
F7
0B
C3
D6
09
01
27
18
CD
56
18
DA
43
0F
CD
44
18
C3
37
0F
01
E7
0C
CD
56
18
DA
47
14
C5
0E
18
CD
93
0A
C1
C3
46
0F
C5
CD
93
0A
C1
C9
02
0E
0C
0F
04
13
08
13
08
15
04
26
26
15
08
03
04
0E
1B
26
02
0E
08
0D
26
26
1B
26
02
11
04
03
08
13
1C
02
0E
08
0D
12
26
27
26
1B
02
11
04
03
08
13
13
00
0A
04
26
0E
15
04
11
26
02
0E
0C
0C
00
0D
03
26
0E
05
04
00
11
13
07
26
01
00
12
04
26
00
0D
03
26
14
12
04
18
0E
14
11
26
12
0A
08
0B
0B
26
13
0E
26
12
13
0E
0F
13
07
04
26
04
00
11
13
07
26
08
0D
15
00
12
08
0E
0D
26
26
12
02
0E
11
04
26
1B
1A
1A
26
0F
0E
08
0D
13
12
26
05
0E
11
26
26
26
26
12
02
0E
11
04
26
1C
1A
1A
26
0F
0E
08
0D
