
FE
6E
C8
00
21
84
20
7E
A7
CA
07
07
23
7E
A7
C0
06
01
C3
FA
18
F5
CD
D6
09
F1
21
A2
1D
06
07
23
05
C8
3D
C2
1F
18
C9
16
31
00
1C
11
31
40
1C
0C
31
20
1C
07
31
68
1D
FF
00
00
CD
56
18
D8
CD
4C
18
C3
3A
18
C5
06
10
CD
39
14
C1
C9
C5
0E
12
CD
93
0A
C1
C9
00
00
0A
FE
FF
37
C8
6F
03
0A
67
03
0A
5F
03
0A
57
03
A7
C9
21
C2
20
34
23
4E
CD
D9
01
47
3A
CA
20
B8
CA
98
18
3A
C2
20
E6
04
2A
CC
20
C2
88
18
11
30
00
19
22
C7
20
21
C5
20
CD
3B
1A
EB
C3
69
14
00
00
00
3E
01
32
CB
20
C9
21
50
20
11
C0
1B
06
10
CD
32
1A
3E
02
32
80
20
3E
FF
32
7E
20
3E
04
32
C1
20
3A
55
20
E6
01
CA
B8
18
3A
55
20
E6
01
C2
C0
18
21
11
33
3E
26
00
CD
FF
08
C3
B6
0A
31
00
24
06
00
CD
E6
01
CD
99
1C
3E
08
32
CF
20
C3
EA
0A
3A
67
20
21
E7
20
0F
D0
23
C9
06
02
3A
82
20
3D
C0
04
C9
3A
94
20
B0
32
94
20
D3
03
C9
21
00
22
C3
C3
01
CD
D8
14
C3
97
15
21
E7
20
3A
67
20
0F
D8
23
C9
0E
1C
21
1E
24
11
E4
1A
C3
F3
08
21
F8
20
C3
31
19
21
FC
20
C3
31
19
5E
23
56
23
7E
23
66
6F
C3
CE
13
0E
07
21
01
35
11
A9
1F
C3
F3
08
3A
EB
20
21
01
3C
C3
B2
09
21
F4
20
C3
31
19
CD
5C
1A
CD
63
0C
CD
25
19
CD
2B
19
CD
50
19
CD
3C
19
C3
47
19
CD
DC
19
C3
71
16
3E
01
32
6D
20
C3
E6
16
CD
D7
19
CD
47
19
C3
3C
19
32
C1
20
C9
2A
A5
1F
7E
FE
CD
3E
40
CA
D7
0A
00
00
00
00
00
00
00
00
00
3A
1E
20
A7
C2
AC
19
DB
01
E6
76
D6
72
C0
3C
32
1E
20
DB
01
E6
76
FE
34
C9
F5
E5
3E
31
D3
03
CD
EC
10
01
DA
17
CD
3A
18
CD
B1
0A
AF
D3
03
D3
06
E1
F1
C9
00
00
00
00
3E
01
32
E9
20
C9
AF
C3
D3
19
00
3A
94
20
A0
32
94
20
D3
03
C9
21
01
27
CA
FA
19
11
60
1C
06
10
4F
CD
39
14
79
3D
C2
EC
19
06
10
CD
CB
14
7C
FE
35
C2
FA
19
C9
21
72
20
46
1A
E6
80
A8
C0
37
C9
32
2B
24
1C
16
11
0D
0A
08
07
06
05
04
03
02
01
34
2E
27
22
1C
18
15
13
10
0E
0D
0C
0B
09
07
05
FF
1A
77
23
13
05
C3
00
11
00
5E
23
56
23
7E
23
4E
23
46
61
6F
C9
C5
06
03
7C
1F
67
7D
1F
6F
05
C2
4A
1A
7C
E6
3F
F6
20
67
C1
C9
21
00
24
36
00
23
7C
FE
40
C2
5F
1A
C9
C5
E5
1A
B6
77
13
23
0D
C2
6B
1A
E1
01
20
00
09
C1
05
C2
69
1A
C9
CD
2E
09
A7
C8
F5
3D
77
CD
E6
19
F1
21
01
25
E6
0F
C3
C5
09
00
00
00
00
FF
B8
FE
20
1C
10
9E
00
20
1C
30
10
0B
08
07
06
00
0C
04
26
0E
15
04
11
26
26
0F
0B
00
18
04
11
24
26
25
1B
26
0E
11
26
1C
0F
0B
00
18
04
11
12
26
01
14
13
13
0E
0D
26
0E
0D
0B
18
26
1B
0F
0B
00
18
04
11
26
26
01
14
13
13
0E
0D
26
26
12
02
0E
11
04
24
1B
25
26
07
08
3F
12
02
0E
11
04
26
12
02
0E
11
04
24
1C
25
26
01
00
00
10
00
00
00
00
02
78
38
78
38
00
F8
00
00
80
00
8E
02
FF
05
0C
60
1C
20
30
10
01
00
00
00
00
00
BB
03
00
10
90
1C
28
30
01
04
00
FF
FF
00
00
02
76
04
00
00
00
00
00
04
EE
1C
00
00
03
00
00
00
B6
04
00
00
01
00
1D
04
E2
1C
00
00
03
00
00
00
82
06
00
00
01
06
1D
04
D0
1C
00
00
03
FF
00
C0
1C
00
00
10
21
01
00
30
00
12
00
00
00
0F
0B
00
18
26
0F
0B
00
18
04
11
24
1B
25
FC
00
01
FF
FF
00
00
00
20
64
1D
D0
29
18
02
54
1D
00
08
00
06
00
00
01
40
00
01
00
00
10
9E
00
20
1C
00
03
04
78
14
13
08
21
21
7E
5C
7E
21
C1
00
00
00
00
01
B8
98
A0
1B
10
FF
00
A0
1B
00
00
00
00
00
10
00
0E
05
00
00
00
00
00
07
D0
1C
C8
9B
03
00
00
03
04
78
14
0B
20
23
44
B8
A8
B8
44
33
00
00
00
00
00
00
00
00
00
00
01
00
00
01
74
1F
00
80
00
00
00
00
00
1C
2F
00
00
1C
26
00
00
1C
38
00
00
03
04
58
E1
B6
E8
E8
B6
E1
58
04
03
00
00
00
00
00
30
48
1A
2D
B8
FC
B8
2D
1A
48
30
00
00
00
00
00
00
00
33
44
B8
A8
B8
44
33
00
00
00
00
00
00
E0
10
51
A3
B4
E8
E8
B4
A3
51
10
E0
00
00
00
00
00
0C
10
19
3F
94
FE
94
3F
19
10
0C
00
00
00
00
00
00
00
C1
21
7E
5C
7E
21
C1
00
00
00
00
00
00
0F
1F
1F
1F
1F
7F
FF
7F
1F
1F
1F
1F
0F
00
00
04
01
13
03
07
B3
0F
2F
03
2F
49
04
03
00
01
40
08
05
A3
0A
03
5B
0F
27
27
0B
4B
40
84
11
48
07
99
3C
7E
3D
BC
3E
7C
99
21
39
23
06
47
C3
DE
12
26
26
04
00
11
13
07
26
08
0D
15
00
12
08
0E
0D
26
26
C4
3F
C4
00
00
02
10
20
30
00
00
00
00
00
08
49
22
14
81
42
00
42
81
14
22
49
08
00
00
44
AA
1A
88
54
22
10
AA
44
22
54
88
4A
15
BE
3F
5E
25
04
FC
04
10
FC
10
20
FC
20
80
FC
80
00
FE
00
24
FE
12
00
FE
00
48
FE
90
0F
0B
00
29
00
00
01
07
01
01
01
04
0B
01
06
03
01
01
0B
09
02
08
02
0B
04
07
0A
05
02
05
04
06
07
08
0A
06
0A
03
00
00
00
00
80
00
FF
01
FF
03
FF
07
33
0F
33
0F
33
0F
33
0F
FF
0F
FF
0F
FF
0F
F0
0F
E0
3F
F0
3F
3F
4F
3F
8F
FF
07
FF
03
FF
01
80
00
05
02
01
10
94
97
9A
9D
01
02
01
01
02
01
01
10
01
02
05
02
01
05
01
01
00
00
00
00
00
04
0E
5B
F5
5B
0E
1C
1C
0E
5B
F5
5B
0E
04
00
00
00
00
00
20
08
02
18
48
E1
46
1B
15
1B
0C
14
62
00
03
16
3D
96
03
00
08
02
51
20
19
00
0F
0F
0E
16
01
00
0C
0E
0E
05
01
02
03
60
50
48
48
48
40
40
40
0F
0B
00
18
09
26
12
13
0E
0F
0F
08
0D
06
26
13
07
04
26
1B
12
13
26
26
00
11
04
26
0E
0D
26
13
07
04
08
11
26
16
00
18
26
11
5E
1F
21
08
31
0E
02
CD
93
0A
21
06
29
11
5C
0F
0E
12
CD
93
0A
C3
B6
0A
26
26
26
26
26
16
00
11
0D
08
0D
06
38
26
26
26
26
26
00
00
1F
24
44
24
1F
00
00
00
7F
49
49
49
36
00
00
00
3E
41
41
41
22
00
00
00
7F
41
41
41
3E
00
00
00
7F
49
49
49
41
00
00
00
7F
48
48
48
40
00
00
00
3E
41
41
45
47
00
00
00
7F
08
08
08
7F
00
00
00
00
41
7F
41
00
00
00
00
02
01
01
01
7E
00
00
00
7F
08
14
22
41
00
00
00
7F
01
01
01
01
00
00
00
7F
20
18
20
7F
00
00
00
7F
10
08
04
7F
00
00
00
3E
41
41
41
3E
00
00
00
7F
48
48
48
30
00
00
00
3E
41
45
42
3D
00
00
00
7F
48
4C
4A
31
00
00
00
32
49
49
49
26
00
00
00
40
40
7F
40
40
00
00
00
7E
01
01
01
7E
00
00
00
7C
02
01
02
7C
00
00
00
7F
02
0C
02
7F
00
00
00
63
14
08
14
63
00
00
00
60
10
0F
10
60
00
00
00
43
45
49
51
61
00
00
00
3E
45
49
51
3E
00
00
00
00
21
7F
01
00
00
00
00
23
45
49
49
31
00
00
00
42
41
49
59
66
00
00
00
0C
14
24
7F
04
00
00
00
72
51
51
51
4E
00
00
00
1E
29
49
49
46
00
00
00
40
47
48
50
60
00
00
00
36
49
49
49
36
00
00
00
31
49
49
4A
3C
00
00
00
08
14
22
41
00
00
00
00
00
41
22
14
08
00
00
00
00
00
00
00
00
00
00
00
14
14
14
14
14
00
00
00
22
14
7F
14
22
00
00
00
03
04
78
04
03
00
00
21
0A
29
0E
12
11
EE
00
CD
93
0A
C3
D4
1D
01
18
02
0E
0D
06
11
00
13
14
0B
00
13
08
0E
0D
12
26
0E
0D
D3
1D
01
01
00
00
01
00
02
01
00
02
01
00
60
10
0F
10
60
20
23
44
B8
A8
B8
44
33
00
00
00
08
0D
12
04
11
13
26
26
02
0E
08
0D
11
F8
1E
CD
39
14
C3
2E
0F
B1
0B
4F
1F
02
11
04
03
08
13
26
00
60
10
0F
10
60
21
21
7E
5C
7E
21
C1
00
00
00
00
00
7D
7D
00
00
00
00
00
00
00
FF
B8
FF
80
1F
10
97
00
80
1F
00
00
01
D0
22
20
1C
10
94
00
20
1C
02
0E
0C
0F
04
13
08
13
08
15
04
26
26
15
08
03
04
0E
05
11
0E
0C
00
00
08
08
08
08
08
00
00
