20
20
20
20
20
20
20
20
20
20
20
20
20
20
20
20
20
20
20
20
20
20
20
20
20
20
20
20
20
20
20
20
20
20
20
20
20
20
20
54
EF
F2
E1
20
E5
20
EE
EF
20
4D
E9
E3
E8
E9
20
20
20
20
20
20
20
20
20
20
20
20
20
20
20
20
20
E3
EC
EF
EE
E5
20
E6
EF
F2
20
46
50
47
41
20
20
20
20
20
20
20
20
20
20
20
20
20
20
20
E2
F2
EF
F5
E7
E8
F4
20
F4
EF
20
F9
EF
F5
20
E2
F9
20
EA
EF
F4
E5
E7
EF
2E
20
20
20
20
20
E8
F4
F4
F0
3A
2F
2F
F0
E1
F4
F2
E5
EF
EE
2E
E3
EF
ED
2F
F4
EF
F0
E1
F0
E1
F4
E5
20
20
20
20
20
20
20
20
20
20
20
20
20
20
20
20
20
20
20
20
20
20
20
20
20
20
20
20
20
20
20
20
20
20
20
20
20
E1
EE
E4
F2
E5
F7
20
ED
EF
EF
F2
E5
20
2D
20
E1
EE
E4
F9
F7
E1
F9
F3
20
20
20
20
20
20
20
20
20
E4
EF
EE
20
E7
E1
E6
E6
EF
F2
E4
20
20
2D
20
EA
2E
20
F3
EC
EF
F7
E6
F2
E5
F4
20
20
20
20
20
20
EB
F9
EC
E5
20
E7
EF
EF
E4
20
20
20
20
2D
20
EC
E5
F3
EC
E9
E5
20
EC
E1
F7
20
20
20
20
20
20
20
ED
2E
20
E1
F3
F4
F5
E4
E9
EC
EC
EF
20
2D
20
ED
E1
F2
F9
20
ED
E1
F2
F3
E8
E1
EC
EC
20
20
20
20
ED
E1
F4
F4
E8
E5
F7
20
F9
EF
F5
EE
E7
2D
20
EF
EC
E9
F6
E5
F2
20
EA
E1
EB
F3
E3
E8
20
20
20
20
E2
EC
E1
E3
EB
F3
F4
E1
F2
20
20
20
20
2D
20
EF
F3
E3
E1
F2
20
EC
E1
E7
F5
EE
E1
20
20
20
20
20
F2
EF
ED
E1
EE
20
E2
F5
F3
E5
F2
20
20
2D
20
F2
F9
E1
EE
20
E6
E9
E7
20
20
20
20
20
20
20
20
20
F3
F4
E5
F6
E5
20
F3
F5
E1
F6
E5
EB
20
2D
20
F3
F4
E5
F6
E5
20
F7
E9
EC
F3
EF
EE
20
20
20
20
20
F4
EF
E2
F9
20
E2
EF
F2
E5
E8
E1
ED
20
2D
20
F8
FA
E1
F2
E9
E1
EE
20
20
20
20
20
20
20
20
20
20
20
20
20
20
20
20
20
20
20
20
20
20
20
20
20
20
20
20
20
20
20
20
20
20
20
20
20
20
20
20
20
20
20
20
20
20
20
20
20
20
20
F8
FA
E1
F2
E9
E1
EE
20
20
20
20
20
20
20
20
20
20
20
20
20
20
20
20
20
20
20
20
20
20
20
F3
E5
ED
E2
E9
E1
EE
E3
E5
20
20
20
20
20
20
20
20
20
20
20
20
20
20
20
20
20
20
20
20
20
F6
E9
E3
F4
EF
F2
20
E7
EF
ED
E1
F2
E9
FA
20
20
20
20
20
20
20
20
20
20
20
20
20
20
20
20
20
20
F5
EC
F4
F2
E1
F2
EF
E2
EF
F4
EE
E9
EE
EA
E1
20
20
20
20
20
20
20
20
20
20
20
20
20
20
20
20
20
F7
E9
EC
EC
E9
E1
ED
20
E3
EC
E5
ED
E5
EE
F3
20
20
20
20
20
20
20
20
20
20
20
20
20
20
20
20
20
20
20
20
20
20
20
20
20
20
20
20
20
20
20
20
20
20
20
20
20
20
20
20
20
20
20
20
20
20
20
20
20
20
20
20
20
20
20
20
20
20
20
20
20
20
20
20
20
20
20
20
20
20
20
20
20
20
20
20
20
20
20
20
20
20
20
20
20
20
20
20
20
20
20
20
20
20
20
20
20
20
20
20
20
20
20
20
20
20
20
20
20
20
20
20
20
20
20
20
20
20
20
20
20
20
20
20
20
20
20
20
20
20
20
20
20
20
20
20
20
20
20
20
20
20
20
20
20
20
20
20
20
20
20
20
20
20
20
20
20
20
20
20
20
20
20
20
20
20
20
20
20
20
20
20
20
20
20
20
20
20
20
20
20
20
20
20
20
20
20
20
20
20
20
20
20
20
20
20
20
20
20
20
20
20
20
20
20
20
20
20
20
20
20
20
20
20
20
20
20
20
20
20
20
20
20
20
20
20
20
20
20
20
20
20
20
20
20
20
20
20
20
20
20
20
20
20
20
20
20
20
20
20
20
20
20
20
20
20
20
20
20
20
20
20
20
20
20
20
20
20
20
20
20
20
20
20
20
20
20
20
20
20
20
20
20
20
20
20
20
20
20
20
20
20
20
20
20
20
20
20
20
20
20
20
20
20
20
20
20
20
20
20
20
20
20
20
20
20
20
20
20
20
20
20
20
20
20
20
20
20
20
20
20
20
20
20
20
20
20
20
20
20
20
20
20
20
20
20
20
20
20
20
20
20
20
20
20
20
20
20
20
20
20
20
