
CD
00
0F
01
03
2E
CD
07
0F
C9
3A
2E
20
E6
0F
32
00
22
01
1B
37
CD
00
0F
01
04
2C
CD
07
0F
3A
2E
20
E6
F0
0F
0F
0F
0F
32
00
22
01
1B
36
CD
00
0F
01
04
2D
CD
07
0F
3A
2F
20
FE
00
CA
43
10
3E
01
C3
45
10
3E
24
32
00
22
01
1B
35
CD
00
0F
01
04
2E
CD
07
0F
C9
3A
25
20
E6
F0
0F
0F
0F
0F
32
00
22
01
1C
2E
CD
00
0F
01
03
35
CD
07
0F
3A
25
20
E6
0F
32
00
22
01
1C
2F
CD
00
0F
01
03
34
CD
07
0F
3A
24
20
E6
F0
0F
0F
0F
0F
32
00
22
01
1C
30
CD
00
0F
01
03
33
CD
07
0F
3A
24
20
E6
0F
32
00
22
01
1C
31
CD
00
0F
01
03
32
CD
07
0F
C9
3A
27
20
E6
F0
0F
0F
0F
0F
32
00
22
01
1B
2E
CD
00
0F
01
04
35
CD
07
0F
3A
27
20
E6
0F
32
00
22
01
1B
2F
CD
00
0F
01
04
34
CD
07
0F
3A
26
20
E6
F0
0F
0F
0F
0F
32
00
22
01
1B
30
CD
00
0F
01
04
33
CD
07
0F
3A
26
20
E6
0F
32
00
22
01
1B
31
CD
00
0F
01
04
32
CD
07
0F
C9
01
1C
3C
3A
1A
20
32
00
22
CD
00
0F
01
03
27
CD
07
0F
C9
01
1B
3C
3A
1B
20
32
00
22
CD
00
0F
01
04
27
CD
07
0F
C9
3E
41
41
41
3E
00
21
7F
01
00
31
43
45
49
31
22
41
49
49
36
0C
14
24
7F
04
79
49
49
49
46
3E
49
49
49
26
40
47
48
50
30
36
49
49
49
36
30
49
49
49
3E
1F
24
44
24
1F
7F
49
49
49
36
3E
41
41
41
22
7F
41
41
22
1C
7F
49
49
49
41
7F
48
48
48
40
3E
41
49
49
2F
7F
08
08
08
7F
00
41
7F
41
00
02
01
41
7E
40
3F
08
14
22
41
7F
01
01
01
01
7F
20
18
20
7F
7F
10
08
04
7F
3E
41
41
41
3E
7F
48
48
48
30
3E
41
45
42
3D
7F
48
4C
4A
31
32
49
49
49
26
40
40
7F
40
40
7E
01
01
01
7E
7C
02
01
02
7C
7E
01
06
01
7E
63
14
08
14
63
60
10
0F
10
60
43
45
49
51
61
00
00
00
00
00
04
08
04
08
00
08
14
22
41
00
00
41
22
14
08
22
14
7F
14
22
14
14
14
14
14
00
00
00
00
00
00
00
00
00
00
00
00
00
00
00
00
00
00
00
00
00
00
00
00
00
00
00
00
00
00
00
00
00
00
00
00
00
00
00
00
00
00
00
00
00
00
00
00
00
00
1F
24
44
24
1F
7F
49
49
49
36
3E
41
41
41
22
7F
41
41
22
1C
7F
49
49
49
41
7F
48
48
48
40
3E
41
49
49
2F
7F
08
08
08
7F
00
41
7F
41
00
02
01
41
7E
40
3F
08
14
22
41
7F
01
01
01
01
7F
20
18
20
7F
7F
10
08
04
7F
3E
41
41
41
3E
7F
48
48
48
30
3E
41
45
42
3D
7F
48
4C
4A
31
32
49
49
49
26
40
40
7F
40
40
7E
01
01
01
7E
7C
02
01
02
7C
7E
01
06
01
7E
22
14
7F
14
22
60
10
0F
10
60
00
00
03
03
00
00
00
00
00
00
3E
00
32
01
22
CD
4D
0F
26
1E
11
12
1C
0C
18
1B
0E
30
00
00
00
00
00
30
30
0C
1B
0E
0D
12
1D
30
00
00
FF
CD
4D
0F
2E
1D
1C
0C
18
1B
0E
30
0F
1E
0E
15
30
1C
11
12
19
FF
CD
4D
0F
26
1C
26
19
15
0A
22
0E
1B
27
00
00
00
00
00
30
30
30
00
00
30
30
30
30
00
FF
CD
4D
0F
26
1B
30
30
30
30
30
30
30
30
30
30
30
30
30
30
30
30
30
30
30
30
30
30
30
FF
3E
01
32
01
22
CD
4D
0F
2E
02
30
21
1D
0A
12
1D
18
30
0C
18
1B
19
23
21
30
FF
CD
4D
0F
27
03
30
30
30
30
30
30
30
30
30
30
30
30
30
30
30
30
30
30
30
30
30
30
30
FF
CD
4D
0F
27
04
30
30
30
30
30
30
30
30
21
1C
19
0A
0C
0E
30
15
0A
1C
0E
1B
21
30
30
FF
AF
32
01
22
C9
3A
35
20
E6
F0
0F
0F
0F
0F
32
00
22
01
1E
2E
CD
00
0F
3A
35
20
E6
0F
32
00
22
01
1E
2F
CD
00
0F
3A
34
20
E6
F0
0F
0F
0F
0F
32
00
22
01
1E
30
CD
00
0F
3A
34
20
E6
0F
32
00
22
01
1E
31
CD
00
0F
C9
0D
12
31
36
35
36
20
20
53
48
4C
44
20
32
31
41
34
48
0D
12
31
36
36
30
20
20
4C
48
4C
44
20
32
31
41
32
48
0D
0F
31
36
36
34
20
20
4D
4F
56
20
41
2C
4D
0D
0F
31
36
36
38
20
20
53
3A
57
20
A7
C2
7B
15
3A
50
20
E6
01
C2
86
00
3A
02
22
E6
FF
C2
32
14
3A
51
20
FE
00
CA
09
16
3A
51
20
FE
02
C2
86
00
CD
62
15
3E
03
32
51
20
C3
86
00
DB
02
E6
80
C2
BE
14
3A
55
20
E6
01
C2
49
14
CD
17
15
3E
01
32
55
20
DB
01
E6
04
CA
66
14
3A
02
22
06
99
80
27
32
02
22
AF
32
1B
20
3E
01
32
36
20
C3
8B
14
DB
01
E6
02
C8
DB
02
E6
80
C2
7A
14
3A
02
22
06
99
C3
82
14
3A
02
22
3D
C8
3C
06
98
80
27
32
02
22
AF
32
36
20
AF
32
52
20
32
5C
20
32
55
20
32
CC
21
3C
32
50
20
32
5B
20
CD
4B
15
CD
48
1C
CD
5F
0A
CD
83
13
CD
78
0F
CD
07
11
CD
1A
11
3E
20
32
4E
20
D3
03
C3
86
00
3A
55
20
A7
C2
D0
14
CD
EB
14
3E
01
32
55
20
C3
49
14
3A
02
22
FE
01
CA
49
14
3A
55
20
FE
01
C2
49
14
CD
17
15
3E
02
32
55
20
C3
49
14
CD
62
15
AF
32
01
22
CD
4D
0F
30
14
19
1E
1C
11
FF
CD
4D
0F
28
11
30
30
30
28
1C
1D
0A
1B
1D
30
0B
1E
1D
1D
18
17
28
30
30
30
FF
C9
AF
32
01
22
DB
02
E6
80
C2
2F
15
CD
62
15
CD
4D
0F
30
14
19
1E
1C
11
FF
CD
4D
0F
28
11
24
24
24
24
28
1C
1D
0A
1B
1D
24
0B
1E
1D
1D
18
17
28
24
24
24
FF
C9
3E
40
21
00
24
36
00
23
BC
C2
50
15
C9
3A
1A
20
A7
C8
3A
1B
20
A7
C8
11
0B
00
21
06
24
36
00
23
7D
E6
1F
FE
1B
C2
68
15
19
7C
FE
40
C2
68
15
C9
3A
58
20
3D
32
58
20
C0
3A
5A
20
FE
01
C2
9D
15
AF
32
5A
20
32
51
20
32
4E
20
D3
03
C6
20
32
58
20
C9
FE
00
C2
BE
15
3A
59
20
A7
CA
BE
15
3A
59
20
3D
32
59
20
C2
C8
15
3E
01
32
5A
20
3E
30
32
58
20
C9
AF
32
57
20
3E
09
32
59
20
C9
3D
47
87
80
5F
16
00
21
F1
15
19
7E
23
32
00
22
46
23
0E
08
E5
CD
00
0F
E1
46
0E
17
00
00
00
3E
09
32
58
20
AF
32
01
22
C9
1B
36
2D
0E
35
2E
1F
34
2F
18
33
30
0E
30
33
16
2F
34
0A
2E
35
10
2D
36
3A
52
20
FE
00
CA
78
18
3A
5B
20
3D
32
5B
20
C0
3A
52
20
FE
01
C2
39
16
CD
62
15
CD
4D
0F
30
16
19
15
0A
22
FF
3E
20
32
5B
20
3E
02
32
52
20
C9
FE
02
C2
56
16
CD
8C
17
A7
CA
4B
16
3E
09
32
5B
20
C9
3E
20
32
5B
20
3E
03
32
52
20
C9
FE
03
C2
AE
16
CD
4D
0F
28
0F
28
1C
0C
18
1B
0E
30
0A
0D
1F
0A
17
0C
0E
30
1D
0A
0B
15
0E
28
FF
3E
0A
32
5F
20
11
32
01
01
0C
2A
CD
64
18
3E
0F
32
5F
20
11
00
0E
01
CA
29
CD
64
18
01
0C
2C
3E
29
32
00
22
CD
00
0F
01
0A
2C
CD
00
0F
3E
20
32
5B
20
3E
04
32
52
20
C9
FE
04
C2
CB
16
CD
8C
17
A7
C2
C5
16
3E
20
32
5B
20
3E
05
32
52
20
C9
3E
09
32
5B
20
C9
FE
05
C2
E8
16
CD
8C
17
A7
C2
E2
16
3E
60
32
5B
20
3E
06
32
52
20
C9
3E
09
32
5B
20
C9
FE
06
C2
0C
17
CD
62
15
CD
4D
0F
2C
15
12
17
1C
0E
1B
1D
30
0C
18
12
17
FF
3E
60
32
5B
20
3E
07
32
52
20
C9
FE
07
C2
29
17
CD
8C
17
A7
C2
23
17
3E
20
32
5B
20
3E
08
32
52
20
C9
3E
09
32
5B
20
C9
FE
08
C2
46
17
CD
8C
17
A7
C2
40
17
3E
20
32
5B
20
3E
09
32
52
20
C9
3E
09
32
5B
20
C9
FE
09
C2
7C
17
CD
8C
17
A7
C2
76
17
3A
5C
20
A7
CA
6B
17
DB
02
E6
80
C2
76
17
3A
5C
20
C6
0B
32
5C
20
C3
76
17
3E
40
32
5B
20
3E
0A
32
52
20
C9
3E
09
32
5B
20
C9
AF
32
52
20
32
5C
20
3E
02
32
51
20
32
5B
20
C9
21
ED
17
16
00
3A
5C
20
5F
19
7E
FE
FF
CA
EA
17
FE
FE
CA
AC
17
47
3A
5C
20
3C
32
5C
20
C3
C0
17
23
7E
32
5E
20
23
7E
32
5D
20
23
46
3A
5C
20
C6
04
32
5C
20
78
32
00
22
2A
5D
20
44
4D
24
22
5D
20
CD
00
0F
21
ED
17
16
00
3A
5C
20
5F
19
7E
FE
FE
CA
E8
17
FE
FF
CA
EA
17
3E
FF
C9
AF
C9
C3
50
1C
FE
2C
13
1C
19
0A
0C
0E
24
15
0A
1C
0E
1B
FE
2E
0C
01
00
