4c
19
80
4c
0a
80
00
43
42
4d
20
cc
ff
20
d8
8a
85
13
20
c9
c7
58
4c
7e
86
20
17
81
20
2e
80
20
c2
80
20
f4
fc
a2
fb
9a
d0
ec
71
98
71
94
a9
4c
85
54
8d
00
05
a9
1c
a0
99
8d
01
05
8c
02
05
a2
03
bd
2a
80
9d
f2
02
ca
10
f7
a2
32
bd
22
81
9d
72
04
ca
d0
f7
86
68
86
13
86
18
8e
eb
02
8e
00
10
8a
a2
03
95
72
9d
e5
02
ca
d0
f8
ea
8e
03
05
e8
8e
fd
01
8e
fc
01
ae
3b
05
86
86
a2
36
86
85
a2
19
86
16
a2
01
a0
10
86
2b
84
2c
a2
05
86
22
a9
d0
8d
e4
02
a2
02
bd
32
05
95
36
95
32
ca
d0
f6
a0
00
b9
47
81
9d
a5
04
e8
c8
c0
0b
90
f4
a4
22
b9
bc
80
9d
9f
04
c6
22
10
e6
60
64
5f
6f
24
22
3b
a5
2b
a4
2c
20
23
89
20
4f
ff
93
0d
20
43
4f
4d
4d
4f
44
4f
52
45
20
42
41
53
49
43
20
56
33
2e
35
20
00
a5
37
38
e5
2b
aa
a5
38
e5
2c
20
5f
a4
20
4f
ff
20
42
59
54
45
53
20
46
52
45
45
0d
00
4c
7b
8a
86
86
12
87
56
89
6e
8b
d6
8b
17
94
6a
89
88
8b
8b
8c
a2
11
bd
05
81
9d
00
03
ca
10
f7
60
e6
3b
d0
02
e6
3c
78
8d
3f
ff
a0
00
b1
3b
8d
3e
ff
58
c9
3a
b0
0a
c9
20
f0
e6
38
e9
30
38
e9
d0
60
8d
9c
04
78
8d
3f
ff
b1
00
8d
3e
ff
58
60
00
00
00
a9
43
d0
32
a9
4e
d0
2e
a9
14
d0
2a
a9
47
d0
26
a9
4e
d0
22
a9
5c
d0
1e
a9
5f
d0
1a
a9
3d
d0
16
a9
57
d0
12
a9
59
d0
0e
a9
62
d0
0a
a9
50
d0
06
a9
6c
d0
02
a9
5a
4c
94
04
45
4e
c4
46
4f
d2
4e
45
58
d4
44
41
54
c1
49
4e
50
55
54
a3
49
4e
50
55
d4
44
49
cd
52
45
41
c4
4c
45
d4
47
4f
54
cf
52
55
ce
49
c6
52
45
53
54
4f
52
c5
47
4f
53
55
c2
52
45
54
55
52
ce
52
45
cd
53
54
4f
d0
4f
ce
57
41
49
d4
4c
4f
41
c4
53
41
56
c5
56
45
52
49
46
d9
44
45
c6
50
4f
4b
c5
50
52
49
4e
54
a3
50
52
49
4e
d4
43
4f
4e
d4
4c
49
53
d4
43
4c
d2
43
4d
c4
53
59
d3
4f
50
45
ce
43
4c
4f
53
c5
47
45
d4
4e
45
d7
54
41
42
a8
54
cf
46
ce
53
50
43
a8
54
48
45
ce
4e
4f
d4
53
54
45
d0
ab
ad
aa
af
de
41
4e
c4
4f
d2
be
bd
bc
53
47
ce
49
4e
d4
41
42
d3
55
53
d2
46
52
c5
50
4f
d3
53
51
d2
52
4e
c4
4c
4f
c7
45
58
d0
43
4f
d3
53
49
ce
54
41
ce
41
54
ce
50
45
45
cb
4c
45
ce
53
54
52
a4
56
41
cc
41
53
c3
43
48
52
a4
4c
45
46
54
a4
52
49
47
48
54
a4
4d
49
44
a4
47
cf
52
47
d2
52
43
4c
d2
52
4c
55
cd
4a
4f
d9
52
44
4f
d4
44
45
c3
48
45
58
a4
45
52
52
a4
49
4e
53
54
d2
45
4c
53
c5
52
45
53
55
4d
c5
54
52
41
d0
54
52
4f
ce
54
52
4f
46
c6
53
4f
55
4e
c4
56
4f
cc
41
55
54
cf
50
55
44
45
c6
47
52
41
50
48
49
c3
50
41
49
4e
d4
43
48
41
d2
42
4f
d8
43
49
52
43
4c
c5
47
53
48
41
50
c5
53
53
48
41
50
c5
44
52
41
d7
4c
4f
43
41
54
c5
43
4f
4c
4f
d2
53
43
4e
43
4c
d2
53
43
41
4c
c5
48
45
4c
d0
44
cf
4c
4f
4f
d0
45
58
49
d4
44
49
52
45
43
54
4f
52
d9
44
53
41
56
c5
44
4c
4f
41
c4
48
45
41
44
45
d2
53
43
52
41
54
43
c8
43
4f
4c
4c
45
43
d4
43
4f
50
d9
52
45
4e
41
4d
c5
42
41
43
4b
55
d0
44
45
4c
45
54
c5
52
45
4e
55
4d
42
45
d2
4b
45
d9
4d
4f
4e
49
54
4f
d2
55
53
49
4e
c7
55
4e
54
49
cc
57
48
49
4c
c5
00
d9
8c
c9
ad
93
92
af
8d
ed
90
07
91
9a
96
4e
91
7b
8e
4c
8d
bb
8b
e0
8d
99
8c
2b
8d
82
8d
0a
8e
d7
8c
1a
8e
69
9e
f2
a7
dd
a7
ef
a7
9c
9a
11
9e
df
8f
ff
8f
02
8d
fe
8a
97
8a
e5
8f
b4
a7
4c
a8
59
a8
b7
90
78
8a
0a
8e
3f
b4
2a
b4
51
b6
54
b6
48
b8
bc
b8
cc
b6
43
b5
c2
c5
d0
b8
d3
b9
e1
ba
1d
c0
34
bd
28
be
d8
c4
0e
c5
19
c5
66
c5
b7
c5
e7
b6
56
b5
02
b6
ab
b5
bb
c8
40
c9
50
c9
67
c9
9b
c9
cb
c9
d9
c9
f3
c9
ff
c9
59
ae
8e
ab
28
b7
51
ff
be
a2
58
a3
dd
a2
00
05
62
9a
7d
9a
e4
a5
07
a7
1e
a0
60
a6
70
aa
77
aa
c0
aa
1a
ab
fa
9d
61
9d
66
9b
93
9d
70
9d
bb
9c
cf
9c
03
9d
15
9d
79
bf
85
bf
87
bf
c1
bf
fd
bf
1b
9e
07
b5
be
b4
79
9d
9e
79
86
9e
7b
7a
a0
7b
96
a1
7f
ed
a5
50
fa
95
46
f7
95
7d
26
a6
5a
64
94
64
27
96
54
4f
4f
20
4d
41
4e
59
20
46
49
4c
45
d3
46
49
4c
45
20
4f
50
45
ce
46
49
4c
45
20
4e
4f
54
20
4f
50
45
ce
46
49
4c
45
20
4e
4f
54
20
46
4f
55
4e
c4
44
45
56
49
43
45
20
4e
4f
54
20
50
52
45
53
45
4e
d4
4e
4f
54
20
49
4e
50
55
54
20
46
49
4c
c5
4e
4f
54
20
4f
55
54
50
55
54
20
46
49
4c
c5
4d
49
53
53
49
4e
47
20
46
49
4c
45
20
4e
41
4d
c5
49
4c
4c
45
47
41
4c
20
44
45
56
49
43
45
20
4e
55
4d
42
45
d2
4e
45
58
54
20
57
49
54
48
4f
55
54
20
46
4f
d2
53
59
4e
54
41
d8
52
45
54
55
52
4e
20
57
49
54
48
4f
55
54
20
47
4f
53
55
c2
4f
55
54
20
4f
46
20
44
41
54
c1
49
4c
4c
45
47
41
4c
20
51
55
41
4e
54
49
54
d9
4f
56
45
52
46
4c
4f
d7
4f
55
54
20
4f
46
20
4d
45
4d
4f
52
d9
55
4e
44
45
46
27
44
20
53
54
41
54
45
4d
45
4e
d4
42
41
44
20
53
55
42
53
43
52
49
50
d4
52
45
44
49
4d
27
44
20
41
52
52
41
d9
44
49
56
49
53
49
4f
4e
20
42
59
20
5a
45
52
cf
49
4c
4c
45
47
41
4c
20
44
49
52
45
43
d4
54
59
50
45
20
4d
49
53
4d
41
54
43
c8
53
54
52
49
4e
47
20
54
4f
4f
20
4c
4f
4e
c7
46
49
4c
45
20
44
41
54
c1
46
4f
52
4d
55
4c
41
20
54
4f
4f
20
43
4f
4d
50
4c
45
d8
43
41
4e
27
54
20
43
4f
4e
54
49
4e
55
c5
55
4e
44
45
46
27
44
20
46
55
4e
43
54
49
4f
ce
56
45
52
49
46
d9
4c
4f
41
c4
42
52
45
41
4b
00
a0
43
41
4e
27
54
20
52
45
53
55
4d
c5
4c
4f
4f
50
20
4e
4f
54
20
46
4f
55
4e
c4
4c
4f
4f
50
20
57
49
54
48
4f
55
54
20
44
cf
44
49
52
45
43
54
20
4d
4f
44
45
20
4f
4e
4c
d9
4e
4f
20
47
52
41
50
48
49
43
53
20
41
52
45
c1
42
41
44
20
44
49
53
cb
aa
a0
00
a9
71
85
24
a9
84
85
25
ca
30
1c
b1
24
48
e6
24
d0
02
e6
25
68
10
f4
30
ef
20
4f
ff
0d
0a
52
45
41
44
59
2e
0d
0a
00
60
a2
80
2c
a2
10
6c
00
03
8a
30
7a
8e
ef
04
24
81
10
35
a0
01
b9
39
00
99
f0
04
b9
5b
02
99
f5
04
88
10
f1
e0
11
f0
20
ac
f3
04
c8
f0
1a
88
84
15
8c
f4
04
ac
f2
04
84
14
a2
ff
8e
f3
04
ae
f7
04
9a
20
69
8d
4c
dc
8b
ca
8a
48
a9
00
85
83
20
c9
c7
68
20
53
86
20
cc
ff
a9
00
85
13
20
3e
90
20
b0
90
a0
00
b1
24
48
29
7f
20
b2
90
c8
68
10
f4
20
d8
8a
20
4f
ff
20
45
52
52
4f
52
00
a4
3a
c8
f0
03
20
53
a4
20
6f
86
a9
80
20
90
ff
a9
00
85
81
6c
02
03
a2
ff
86
3a
20
5a
88
86
3b
84
3c
20
73
04
aa
f0
ec
90
09
20
53
89
20
79
04
4c
d9
8b
20
3e
8e
20
53
89
84
0b
20
3d
8a
90
4a
a0
01
20
d1
04
85
23
a5
2d
85
22
a5
60
85
25
88
20
d1
04
18
e5
5f
49
ff
18
65
2d
85
2d
85
24
a5
2e
69
ff
85
2e
e5
60
aa
38
a5
5f
e5
2d
a8
b0
03
e8
c6
25
18
65
22
90
03
c6
23
18
20
b0
04
91
24
c8
d0
f8
e6
23
e6
25
ca
d0
f1
20
9a
8a
20
18
88
a0
00
20
a5
04
f0
8f
18
a5
2d
a4
2e
85
5a
84
5b
65
0b
90
01
c8
18
69
04
90
01
c8
85
58
84
59
20
c0
88
a0
00
a9
01
91
5f
c8
91
5f
c8
a5
14
91
5f
a5
15
c8
91
5f
c8
98
18
65
5f
85
5f
90
02
e6
60
a5
31
a4
32
85
2d
84
2e
a4
0b
88
20
a5
04
91
5f
88
10
f8
20
18
88
20
93
8a
a5
73
05
74
f0
2b
a5
14
18
65
73
85
63
a5
15
65
74
85
62
a2
90
38
20
ce
a2
20
6f
a4
a2
00
bd
01
01
f0
06
9d
27
05
e8
d0
f5
a9
1d
9d
27
05
e8
86
ef
4c
0f
87
a5
2b
a4
2c
85
22
84
23
18
a0
00
20
b0
04
d0
06
c8
20
b0
04
f0
2b
a0
04
c8
20
b0
04
d0
fa
c8
98
65
22
aa
a0
00
91
22
98
65
23
c8
91
22
86
22
85
23
90
d6
18
a5
22
a4
23
69
02
90
01
c8
85
2d
84
2e
60
a2
00
20
91
a7
c9
0d
f0
0b
9d
00
02
e8
e0
59
90
f1
4c
4c
cc
4c
31
90
20
60
a7
a5
3d
c9
b0
d0
06
a5
3e
c9
07
f0
3d
a0
00
a5
02
c9
81
d0
1b
d1
3d
d0
33
a0
02
a5
4a
c9
ff
f0
2b
d1
3d
d0
07
88
a5
49
d1
3d
f0
20
a2
12
d0
0e
b1
3d
c5
02
f0
16
a2
12
c9
81
f0
02
a2
05
8a
18
65
3d
85
3d
90
bb
e6
3e
d0
b7
a0
01
60
20
23
89
85
31
84
32
38
a5
5a
e5
5f
85
22
a8
a5
5b
e5
60
aa
e8
98
f0
25
a5
5a
38
e5
22
85
5a
b0
03
c6
5b
38
a5
58
e5
22
85
58
b0
09
c6
59
90
05
20
89
81
91
58
88
d0
f8
20
89
81
91
58
c6
5b
c6
59
ca
d0
f1
60
8c
f4
07
38
a5
7c
ed
f4
07
85
7c
a5
7d
e9
00
85
7d
c9
06
90
36
d0
06
a5
7c
c9
ec
90
2e
60
c4
34
90
28
d0
04
c5
33
90
22
48
a2
09
98
48
b5
57
ca
10
fa
20
54
a9
a2
f7
68
95
61
e8
30
fa
68
a8
68
c4
34
90
06
d0
05
c5
33
b0
01
60
4c
81
86
6c
04
03
a5
3b
48
a5
3c
48
20
79
04
4c
65
89
20
73
04
90
fb
6c
0c
03
90
68
c9
00
f0
55
c9
3a
f0
ee
c9
3f
d0
04
a9
99
d0
2e
c9
80
90
0b
c9
ff
f0
de
a0
01
20
ea
89
f0
d1
c9
22
d0
0d
20
73
04
c9
00
f0
2f
c9
22
f0
c8
d0
f3
20
03
8a
90
c1
c0
00
f0
03
20
ea
89
a5
0b
a0
00
91
3b
c9
8f
f0
0d
c9
83
d0
ac
20
73
04
20
b0
8d
4c
5c
89
20
73
04
20
0b
8e
a6
3b
68
85
3c
68
85
3b
38
8a
e5
3b
a8
c8
60
48
88
88
20
ea
89
a0
00
a9
fe
91
3b
c8
68
91
3b
20
73
04
4c
62
89
18
98
65
3b
85
22
a5
3c
69
00
85
23
a0
00
20
b0
04
91
3b
c8
c9
00
d0
f6
60
a9
81
a0
8e
85
23
84
22
a0
00
84
0b
88
c8
20
a5
04
38
f1
22
f0
f7
c9
80
f0
1b
b1
22
30
03
c8
d0
f9
c8
e6
0b
18
98
65
22
85
22
90
02
e6
23
18
a0
00
b1
22
d0
d9
05
0b
85
0b
60
a5
2b
a6
2c
a0
01
85
5f
86
60
20
d1
04
f0
2b
c8
c8
20
d1
04
85
78
a5
15
c5
78
90
1f
f0
03
88
d0
0e
88
20
d1
04
85
78
a5
14
c5
78
90
0e
f0
0c
88
20
d1
04
aa
88
20
d1
04
b0
ca
18
60
d0
fd
a9
00
a8
91
2b
c8
91
2b
8d
eb
02
a5
2b
18
69
02
85
2d
a5
2c
69
00
85
2e
20
f1
8a
a9
00
d0
52
20
e7
ff
a0
00
84
79
88
8c
f3
04
8c
f0
04
8c
f1
04
8c
ef
04
a5
37
a4
38
85
33
84
34
a9
b0
a0
07
85
7c
84
7d
a5
2d
a4
2e
85
2f
84
30
85
31
84
32
a2
03
bd
ed
8a
9d
e7
04
ca
10
f7
20
b1
8c
a2
19
86
16
68
a8
68
a2
fa
9a
48
98
48
a9
00
8d
5c
02
85
10
60
20
2c
2e
24
18
a5
2b
69
ff
85
3b
a5
2c
69
ff
85
3c
60
20
ca
ae
a0
01
20
d1
04
d0
06
88
20
d1
04
f0
2e
20
c0
8c
20
3e
90
a0
02
20
d1
04
aa
c8
20
d1
04
c5
15
d0
04
e4
14
f0
02
b0
14
20
40
8b
a0
00
20
d1
04
aa
c8
20
d1
04
86
5f
85
60
4c
02
8b
4c
3e
90
a0
03
84
49
84
0f
20
5f
a4
a9
20
a4
49
29
7f
20
b2
90
c9
22
d0
06
a5
0f
49
ff
85
0f
c8
f0
de
24
53
10
03
20
0c
b7
20
d1
04
f0
50
6c
06
03
10
df
c9
ff
f0
db
24
0f
30
d7
c9
fe
d0
17
c8
20
d1
04
f0
0c
84
49
38
6c
0e
03
b0
c5
a0
00
f0
24
88
a9
fe
d0
bc
aa
84
49
a0
81
84
23
a0
8e
84
22
a0
00
ca
10
0f
b1
22
48
e6
22
d0
02
e6
23
68
10
f4
30
ef
c8
b1
22
30
95
20
b2
90
d0
f6
60
d0
06
20
20
8d
4c
93
8a
20
9a
8a
20
79
04
20
4d
8d
20
20
8d
4c
dc
8b
6c
08
03
20
73
04
20
25
8c
20
c0
8c
24
81
10
07
20
1a
8c
ba
8e
f7
04
a0
00
20
a5
04
f0
03
4c
93
8c
24
81
10
1f
a0
02
20
a5
04
f0
18
c8
20
a5
04
85
39
c8
20
a5
04
85
3a
98
18
65
3b
85
3b
90
c0
e6
3c
d0
bc
4c
7e
86
a5
3b
a4
3c
8d
5b
02
8c
5c
02
60
f0
fd
2c
eb
02
10
13
24
81
10
0f
48
a9
5b
20
b2
90
20
5b
a4
a9
5d
20
b2
90
68
c9
fe
f0
3f
c9
cb
f0
2d
c9
ca
f0
20
c9
fb
b0
3e
c9
a3
90
06
c9
d5
90
36
e9
32
38
e9
80
90
32
0a
a8
b9
84
83
48
b9
83
83
48
4c
73
04
a9
b6
48
a9
5a
48
4c
73
04
20
73
04
c9
a4
d0
12
20
73
04
4c
4d
8d
00
20
73
04
f0
06
38
6c
10
03
90
e4
4c
a1
94
4c
7c
8e
c9
3a
d0
f6
4c
d3
8b
f0
15
20
e1
9d
84
14
85
15
20
3d
8a
b0
03
4c
8f
8d
a5
5f
a4
60
b0
05
38
a5
2b
a4
2c
e9
01
b0
01
88
85
41
84
42
60
20
e1
ff
d0
fa
08
ac
f3
04
c8
f0
0b
20
e1
ff
f0
fb
28
a2
1e
4c
83
86
28
b0
01
18
d0
e2
24
81
10
0d
20
1a
8c
a5
39
a4
3a
8d
59
02
8c
5a
02
68
68
90
0e
20
4f
ff
0d
0a
42
52
45
41
4b
00
4c
fb
86
4c
7e
86
d0
ba
a2
1a
ac
5c
02
d0
03
4c
83
86
ad
5b
02
85
3b
84
3c
ad
59
02
ac
5a
02
85
39
84
3a
a9
80
85
81
0a
85
73
85
74
4c
90
ff
a0
05
20
05
89
88
a5
3c
91
7c
88
a5
3b
91
7c
88
a5
3a
91
7c
88
a5
39
91
7c
88
a9
8d
91
7c
20
79
04
20
3e
8e
20
c1
8d
38
a5
39
e5
14
a5
3a
e5
15
b0
0b
98
38
65
3b
a6
3c
90
07
e8
b0
04
a5
2b
a6
2c
20
41
8a
90
1d
a5
5f
e9
01
85
3b
a5
60
e9
00
85
3c
24
81
10
9e
60
a9
8d
85
02
20
71
88
f0
08
a2
0c
2c
a2
11
4c
83
86
20
69
a7
a0
05
20
72
a7
88
b1
3d
85
3c
88
b1
3d
85
3b
88
b1
3d
20
7f
cd
b1
3d
85
39
20
be
8d
98
18
65
3b
85
3b
90
02
e6
3c
60
a2
3a
2c
a2
00
86
07
a0
00
84
08
a5
08
a6
07
85
07
86
08
20
a5
04
f0
e7
c5
08
f0
e3
c8
c9
22
d0
f2
f0
e8
20
2c
93
20
79
04
c9
89
f0
05
a9
a7
20
93
94
a5
61
d0
1c
20
b0
8d
a0
00
20
a5
04
f0
0d
20
73
04
c9
d5
d0
ef
20
73
04
4c
10
8e
20
c1
8d
f0
a3
20
79
04
b0
03
4c
4d
8d
4c
25
8c
20
84
9d
48
c9
8d
f0
07
c9
89
f0
03
4c
a1
94
c6
65
d0
04
68
4c
3f
8c
20
73
04
20
3e
8e
c9
2c
f0
ee
68
60
a2
00
86
08
86
14
86
15
b0
f5
e6
08
e9
2f
85
07
a5
15
85
22
c9
19
b0
cd
a5
14
0a
26
22
0a
26
22
65
14
85
14
a5
22
65
15
85
15
06
14
26
15
a5
14
65
07
85
14
90
02
e6
15
20
73
04
4c
46
8e
20
a5
96
85
49
84
4a
a9
b2
20
93
94
a5
0e
48
a5
0d
48
20
2c
93
68
2a
20
1b
93
d0
18
68
10
12
20
a0
a2
20
86
98
a0
00
a5
64
91
49
c8
a5
65
91
49
60
4c
55
a2
68
a4
4a
c0
04
d0
72
20
4e
9c
c9
06
d0
3e
a0
00
84
61
84
66
84
71
20
f4
8e
20
62
a1
e6
71
a4
71
20
f4
8e
20
91
a2
aa
f0
05
e8
8a
20
6d
a1
a4
71
c8
c0
06
d0
df
20
62
a1
20
27
a3
a6
64
a4
63
a5
65
4c
db
ff
20
b0
04
20
85
04
90
03
4c
1c
99
e9
2f
4c
0a
a4
68
c8
c5
34
90
18
d0
08
88
20
dc
04
c5
33
90
0e
a4
65
c4
2e
90
08
d0
24
a5
64
c5
2d
b0
1e
a5
64
a4
65
4c
5e
8f
a0
02
20
dc
04
c5
7b
d0
d4
48
88
20
dc
04
c5
7a
d0
c9
a5
79
f0
c5
68
a0
00
20
dc
04
20
54
9b
a5
50
a4
51
85
6f
84
70
20
1b
9c
a5
6f
a4
70
20
aa
9c
a9
61
a0
00
85
50
84
51
85
22
84
23
20
aa
9c
20
9c
8f
90
0b
a0
00
a5
49
91
22
c8
a5
4a
91
22
a5
49
85
22
a5
4a
85
23
20
9c
8f
90
09
88
a9
ff
91
22
88
8a
91
22
a0
02
a9
50
20
94
04
91
49
88
10
f6
60
a0
00
20
b0
04
48
f0
39
c8
20
b0
04
aa
c8
20
b0
04
c5
38
90
06
d0
2a
e4
37
b0
26
20
b0
04
c5
34
90
1f
d0
04
e4
33
90
19
c5
7b
d0
04
e4
7a
f0
11
86
22
85
23
68
aa
18
65
22
85
22
90
02
e6
23
38
60
68
18
60
20
e6
8f
4c
fe
90
20
84
9d
f0
05
a9
2c
20
93
94
08
86
13
20
97
a7
28
4c
00
90
20
8b
90
20
79
04
f0
3c
c9
fb
d0
03
4c
f7
ae
f0
43
c9
a3
f0
50
c9
a6
18
f0
4b
c9
2c
f0
37
c9
3b
f0
5e
20
2c
93
24
0d
30
d7
20
6f
a4
20
74
9b
20
8b
90
20
a6
90
d0
cc
a9
00
9d
00
02
a2
ff
a0
01
a5
13
d0
10
a9
0d
20
b2
90
24
13
10
05
a9
0a
20
b2
90
49
ff
60
38
20
f0
ff
98
38
e9
0a
b0
fc
49
ff
69
01
d0
16
08
38
20
f0
ff
84
09
20
81
9d
c9
29
d0
13
28
90
06
8a
e5
09
90
05
aa
e8
ca
d0
09
20
73
04
4c
09
90
4c
a1
94
20
a6
90
d0
ef
20
74
9b
20
4e
9c
aa
a0
00
e8
ca
f0
b9
20
b0
04
20
b2
90
c8
c9
0d
d0
f2
20
4c
90
4c
92
90
a5
13
f0
03
a9
20
2c
a9
1d
2c
a9
3f
20
8b
a7
29
ff
60
20
86
9a
85
80
c9
23
f0
0a
c9
f9
d0
16
20
73
04
4c
db
90
20
73
04
20
84
9d
a9
2c
20
93
94
86
13
20
a6
a7
a2
01
a0
02
a9
00
8d
01
02
a9
40
20
58
91
a6
13
d0
13
60
20
84
9d
a9
2c
20
93
94
86
13
20
a6
a7
20
17
91
a5
13
20
cc
ff
a2
00
86
13
60
c9
22
d0
0b
20
4e
94
a9
3b
20
93
94
20
8b
90
20
86
9a
a9
2c
8d
ff
01
20
42
91
a5
13
f0
0d
20
b7
ff
29
02
f0
06
20
fe
90
4c
b0
8d
ad
00
02
d0
1e
a5
13
d0
e3
20
be
8d
4c
b3
8d
a5
13
d0
06
20
b0
90
20
aa
90
4c
5a
88
a6
41
a4
42
a9
98
2c
a9
00
85
11
86
43
84
44
20
a5
96
85
49
84
4a
a2
01
b5
3b
95
4b
b5
43
95
3b
ca
10
f5
20
79
04
d0
31
24
11
50
1a
a5
80
c9
f9
d0
08
20
af
a7
aa
f0
fa
d0
03
20
af
a7
8d
00
02
a2
ff
a0
01
d0
0f
10
03
4c
40
92
a5
13
d0
03
20
b0
90
20
42
91
86
3b
84
3c
20
73
04
24
0d
10
31
24
11
50
09
e8
86
3b
a9
00
85
07
f0
0c
85
07
c9
22
f0
07
a9
3a
85
07
a9
2c
18
85
08
a5
3b
a4
3c
69
00
90
01
c8
20
7a
9b
20
c6
9d
20
b1
8e
4c
e8
91
20
7f
a3
a5
0e
20
99
8e
20
79
04
f0
3b
c9
2c
f0
37
a5
11
f0
0a
30
04
a6
13
d0
08
a2
16
d0
06
a5
13
f0
05
a2
18
4c
83
86
20
4f
ff
3f
52
45
44
4f
20
46
52
4f
4d
20
53
54
41
52
54
0d
00
ad
5b
02
ac
5c
02
85
3b
84
3c
60
a2
01
b5
3b
95
43
b5
4b
95
3b
ca
10
f5
20
79
04
f0
30
20
91
94
4c
5e
91
20
be
8d
c8
aa
d0
15
a2
0d
c8
20
a5
04
f0
6c
c8
20
a5
04
85
3f
c8
20
a5
04
c8
85
40
20
b3
8d
20
79
04
aa
e0
83
d0
d9
4c
a8
91
a5
43
a4
44
a6
11
10
03
4c
bb
8c
a0
00
20
55
81
f0
17
a5
13
d0
13
20
4f
ff
3f
45
58
54
52
41
20
49
47
4e
4f
52
45
44
0d
00
60
d0
13
a0
ff
d0
14
a0
12
20
72
a7
20
79
04
c9
2c
d0
6d
20
73
04
20
a5
96
85
49
84
4a
a0
81
84
02
20
71
88
f0
05
a2
0a
4c
83
86
20
69
a7
a5
3d
18
69
03
a4
3e
90
01
c8
20
1f
a2
a0
08
b1
3d
85
66
a0
01
b1
3d
48
aa
c8
b1
3d
48
a8
8a
20
9b
9e
68
a8
68
aa
20
59
a2
a5
3d
18
69
09
a4
3e
90
01
c8
20
e0
a2
a0
08
38
f1
3d
f0
9c
a0
11
b1
3d
85
3b
88
b1
3d
85
3c
88
b1
3d
85
3a
88
b1
3d
85
39
60
20
2c
93
18
90
01
38
24
0d
30
03
b0
03
60
b0
fd
a2
16
2c
a2
19
4c
83
86
a6
3b
d0
02
c6
3c
c6
3b
a2
00
24
48
8a
48
ba
e0
28
90
e8
20
14
94
a9
00
85
4d
20
79
04
38
e9
b1
90
17
c9
03
b0
13
c9
01
2a
49
01
45
4d
c5
4d
90
61
85
4d
20
73
04
4c
49
93
a6
4d
d0
2c
b0
7e
69
07
90
7a
65
0d
d0
03
4c
da
9b
69
ff
85
22
0a
65
22
a8
68
d9
53
84
b0
6a
20
17
93
48
20
ae
93
68
a4
4b
10
17
aa
f0
59
d0
62
46
0d
8a
2a
a6
3b
d0
02
c6
3c
c6
3b
a0
1b
85
4d
d0
d7
d9
53
84
b0
4b
90
d9
b9
55
84
48
b9
54
84
48
20
c1
93
a5
4d
4c
37
93
4c
a1
94
a5
66
be
53
84
a8
18
68
69
01
85
22
68
69
00
85
23
98
48
20
a0
a2
a5
65
48
a5
64
48
a5
63
48
a5
62
48
a5
61
48
6c
22
00
a0
ff
68
f0
23
c9
64
f0
03
20
17
93
84
4b
68
4a
85
12
68
85
69
68
85
6a
68
85
6b
68
85
6c
68
85
6d
68
85
6e
45
66
85
6f
a5
61
60
6c
0a
03
a9
00
85
0d
20
73
04
b0
03
4c
7f
a3
20
3a
97
90
03
4c
ad
94
c9
ff
d0
0f
a9
39
a0
94
20
21
a2
4c
73
04
82
49
0f
da
a1
c9
2e
f0
de
c9
ab
f0
60
c9
aa
f0
d1
c9
22
d0
0f
a5
3b
a4
3c
69
00
90
01
c8
20
74
9b
4c
c6
9d
c9
a8
d0
16
a0
18
d0
43
20
86
98
a5
65
49
ff
a8
a5
64
49
ff
20
92
9a
4c
c9
a2
c9
a5
d0
03
4c
de
9a
c9
b4
90
03
4c
99
95
20
8e
94
20
2c
93
a9
29
2c
a9
28
2c
a9
2c
a0
00
85
78
20
a5
04
c5
78
d0
03
4c
73
04
a2
0b
4c
83
86
a0
15
68
68
4c
88
93
20
a5
96
85
64
84
65
a6
45
a4
46
a5
0d
f0
45
a9
00
85
70
e0
54
d0
24
c0
c9
d0
76
a5
64
c9
a2
d0
70
a5
65
c9
04
d0
6a
20
31
95
84
5e
88
84
71
a0
06
84
5d
a0
24
20
fa
a4
4c
70
9b
e0
44
d0
52
c0
d3
d0
4e
20
fa
94
a5
7a
a4
7b
4c
74
9b
a5
79
d0
40
4c
cf
cc
24
0e
10
0f
a0
00
20
dc
04
aa
c8
20
dc
04
a8
8a
4c
71
94
a5
65
c9
04
d0
78
a5
64
c9
a2
d0
72
e0
54
d0
1b
c0
49
d0
6a
20
31
95
98
a2
a0
4c
d4
a2
20
de
ff
86
64
84
63
85
65
a0
00
84
62
60
e0
53
d0
0a
c0
54
d0
4b
20
b7
ff
4c
c1
a2
e0
44
d0
26
c0
53
d0
3d
20
fa
94
a0
00
a9
7a
20
94
04
29
0f
0a
85
0f
0a
0a
65
0f
85
0f
c8
a9
7a
20
94
04
29
0f
65
0f
4c
c1
a2
e0
45
d0
17
c0
52
f0
0d
c0
4c
d0
0f
ad
f1
04
ac
f0
04
4c
76
9a
ad
ef
04
4c
c1
a2
a5
64
a4
65
4c
1f
a2
c9
d5
b0
58
c9
cb
90
02
e9
01
48
aa
20
73
04
e0
d3
f0
08
e0
cb
b0
29
e0
c8
90
25
20
8e
94
20
2c
93
20
91
94
20
1a
93
68
c9
d3
f0
2d
aa
a5
65
48
a5
64
48
8a
48
20
84
9d
68
a8
8a
48
98
4c
dd
95
20
85
94
68
38
e9
b4
0a
a8
b9
16
84
85
56
b9
15
84
85
55
20
54
00
4c
17
93
4c
86
b3
4c
a1
94
a0
ff
2c
a0
00
84
0b
20
86
98
a5
64
45
0b
85
07
a5
65
45
0b
85
08
20
81
a2
20
86
98
a5
65
45
0b
25
08
45
0b
a8
a5
64
45
0b
25
07
45
0b
4c
71
94
20
1b
93
b0
13
a5
6e
09
7f
25
6a
85
6a
a9
69
a0
00
20
e0
a2
aa
4c
73
96
a9
00
85
0d
c6
4d
20
4e
9c
85
61
86
62
84
63
a5
6c
a4
6d
20
52
9c
86
6c
84
6d
aa
38
e5
61
f0
08
a9
01
90
04
a6
61
a9
ff
85
66
a0
ff
e8
c8
ca
d0
07
a6
66
30
17
18
90
14
20
85
81
48
20
7d
81
85
78
68
c5
78
f0
e7
a2
ff
b0
02
a2
01
e8
8a
2a
25
12
f0
02
a9
ff
4c
c1
a2
20
91
94
aa
20
aa
96
20
79
04
d0
f4
60
a2
00
20
79
04
86
0c
85
45
20
79
04
20
3a
97
b0
03
4c
a1
94
a2
00
86
0d
86
0e
20
73
04
90
05
20
3a
97
90
0b
aa
20
73
04
90
fb
20
3a
97
b0
f6
c9
24
d0
06
a9
ff
85
0d
d0
10
c9
25
d0
13
a5
10
d0
d0
a9
80
85
0e
05
45
85
45
8a
09
80
aa
20
73
04
86
46
38
05
10
e9
28
d0
03
4c
9b
98
a0
00
84
10
a5
2d
a6
2e
86
60
85
5f
e4
30
d0
04
c5
2f
f0
2f
20
d1
04
85
78
a5
45
c5
78
d0
10
c8
20
d1
04
85
78
a5
46
c5
78
d0
03
4c
4c
98
88
18
a5
5f
69
07
90
d4
e8
d0
cf
c9
41
90
05
e9
5b
38
e9
a5
60
68
48
c9
af
d0
2a
a9
a2
a0
04
60
c0
c9
f0
f7
c0
49
d0
31
f0
18
c0
d3
f0
14
c0
53
d0
27
f0
0e
c0
54
d0
21
f0
08
c0
52
f0
04
c0
4c
d0
17
4c
a1
94
a5
45
a4
46
c9
54
f0
d3
c9
53
f0
e3
c9
45
f0
e5
c9
44
f0
d1
a5
2f
a4
30
85
5f
84
60
a5
31
a4
32
85
5a
84
5b
18
69
07
90
01
c8
85
58
84
59
20
c0
88
a5
58
a4
59
c8
85
2f
84
30
85
58
84
59
a5
58
a6
59
e4
32
d0
06
c5
31
d0
02
f0
78
85
22
86
23
a0
00
20
b0
04
aa
c8
20
b0
04
08
c8
20
b0
04
65
58
85
58
c8
20
b0
04
65
59
85
59
28
10
d0
8a
30
cd
c8
20
b0
04
a0
00
0a
69
05
65
22
85
22
90
02
e6
23
a6
23
e4
59
d0
04
c5
58
f0
b6
a0
00
20
b0
04
f0
24
85
78
c8
20
b0
04
18
65
78
85
5a
c8
20
b0
04
69
00
85
5b
a0
00
20
89
81
69
07
91
5a
c8
20
89
81
69
00
91
5a
a9
03
18
65
22
85
22
90
c2
e6
23
d0
be
a0
00
a5
45
91
5f
c8
a5
46
91
5f
a9
00
c8
91
5f
c0
06
d0
f9
a5
5f
18
69
02
a4
60
90
01
c8
85
47
84
48
60
a5
0b
0a
69
05
65
5f
a4
60
90
01
c8
85
58
84
59
60
90
80
00
00
00
20
86
98
a5
64
a4
65
60
20
73
04
20
2c
93
20
17
93
a5
66
30
0d
a5
61
c9
90
90
0c
a9
6c
a0
98
20
e0
a2
d0
03
4c
1c
99
4c
27
a3
a5
0c
05
0e
48
a5
0d
48
a0
00
98
48
a5
46
48
a5
45
48
20
79
98
68
85
45
68
85
46
68
a8
ba
bd
02
01
48
bd
01
01
48
a5
64
9d
02
01
a5
65
9d
01
01
c8
84
0b
20
79
04
a4
0b
c9
2c
f0
ce
20
8b
94
68
85
0d
68
85
0e
29
7f
85
0c
a6
2f
a5
30
86
5f
85
60
c5
32
d0
04
e4
31
f0
46
a0
00
20
d1
04
c8
c5
45
d0
0b
20
d1
04
85
78
a5
46
c5
78
f0
18
c8
20
d1
04
18
65
5f
aa
c8
20
d1
04
65
60
90
cf
a2
12
2c
a2
0e
4c
83
86
a2
13
a5
0c
d0
f7
20
5b
98
a0
04
20
d1
04
85
78
a5
0b
c5
78
d0
e2
4c
c3
99
20
5b
98
20
23
89
a0
00
84
72
a2
05
a5
45
91
5f
10
01
ca
c8
a5
46
91
5f
10
02
ca
ca
86
71
a5
0b
c8
c8
c8
91
5f
a2
0b
a9
00
24
0c
50
08
68
18
69
01
aa
68
69
00
c8
91
5f
c8
8a
91
5f
20
2f
9a
86
71
85
72
a4
22
c6
0b
d0
dc
65
59
b0
67
85
59
a8
8a
65
58
90
03
c8
f0
5c
20
23
89
85
31
84
32
a9
00
e6
72
a4
71
f0
05
88
91
58
d0
fb
c6
59
c6
72
d0
f5
e6
59
38
a5
31
e5
5f
a0
02
91
5f
a5
32
c8
e5
60
91
5f
a5
0c
d0
6c
c8
20
d1
04
85
0b
a9
00
85
71
85
72
c8
68
aa
85
64
20
d1
04
85
78
68
85
65
c5
78
90
12
d0
0a
c8
20
d1
04
85
78
e4
78
90
07
4c
19
99
4c
81
86
c8
a5
72
05
71
18
f0
0a
20
2f
9a
8a
65
64
aa
98
a4
22
65
65
86
71
c6
0b
d0
c1
85
72
a2
05
a5
45
10
01
ca
a5
46
10
02
ca
ca
86
28
a9
00
20
3a
9a
8a
65
58
85
47
98
65
59
85
48
a8
a5
47
60
84
22
20
d1
04
85
28
88
20
d1
04
85
29
a9
10
85
5d
a2
00
a0
00
8a
0a
aa
98
2a
a8
b0
a2
06
71
26
72
90
0b
18
8a
65
28
aa
98
65
29
a8
b0
91
c6
5d
d0
e3
60
a5
0d
f0
03
20
4e
9c
20
54
a9
38
a5
33
e5
31
a8
a5
34
e5
32
20
92
9a
38
4c
ce
a2
38
20
f0
ff
a9
00
4c
71
94
24
81
30
a4
a2
15
2c
a2
1b
4c
83
86
a2
00
86
0d
85
62
84
63
a2
90
60
20
cb
9a
20
86
9a
20
8e
94
a9
80
85
10
20
a5
96
20
17
93
20
8b
94
a9
b2
20
93
94
48
a5
48
48
a5
47
48
a5
3c
48
a5
3b
48
20
b0
8d
4c
3e
9b
a9
a5
20
93
94
09
80
85
10
20
ac
96
85
4e
84
4f
4c
17
93
20
cb
9a
a5
4f
48
a5
4e
48
20
85
94
20
17
93
68
85
4e
68
85
4f
a0
02
20
59
81
85
47
aa
c8
20
59
81
f0
8c
85
48
c8
20
61
81
48
88
10
f9
a4
48
20
59
a2
a5
3c
48
a5
3b
48
20
59
81
85
3b
c8
20
59
81
85
3c
a5
48
48
a5
47
48
20
14
93
68
85
4e
68
85
4f
20
79
04
f0
03
4c
a1
94
68
85
3b
68
85
3c
a0
00
68
91
4e
68
c8
91
4e
68
c8
91
4e
68
c8
91
4e
68
c8
91
4e
60
a6
64
a4
65
86
50
84
51
20
06
a9
86
62
84
63
85
61
60
20
17
93
a0
00
20
71
a4
68
68
a9
ff
a0
00
a2
22
86
07
86
08
85
6f
84
70
85
62
84
63
a0
ff
c8
20
c6
04
f0
0c
c5
07
f0
04
c5
08
d0
f2
c9
22
f0
01
18
84
61
98
65
6f
85
71
a6
70
90
01
e8
86
72
98
20
54
9b
a6
6f
a4
70
20
2c
9c
a6
16
e0
22
d0
05
a2
19
4c
83
86
a5
61
95
00
a5
62
95
01
a5
63
95
02
a0
00
86
64
84
65
84
70
88
84
0d
86
17
e8
e8
e8
86
16
60
a5
65
48
a5
64
48
20
14
94
20
1a
93
68
85
6f
68
85
70
a0
00
20
c6
04
85
78
20
dc
04
18
65
78
90
03
4c
4c
cc
20
54
9b
20
1b
9c
a5
50
a4
51
20
52
9c
20
30
9c
a5
6f
a4
70
20
52
9c
20
b0
9b
4c
46
93
a0
00
20
c6
04
48
c8
20
c6
04
aa
c8
20
c6
04
a8
68
86
22
84
23
a8
f0
0b
48
88
20
b0
04
91
35
98
d0
f7
68
18
65
35
85
35
90
02
e6
36
60
20
2c
93
20
1a
93
a5
64
a4
65
85
22
84
23
20
aa
9c
d0
39
20
9c
8f
90
34
88
a9
ff
91
22
88
8a
91
22
48
49
ff
38
65
22
a4
23
b0
01
88
85
22
84
23
aa
68
c4
34
d0
3c
e4
33
d0
38
48
38
65
33
85
33
90
02
e6
34
e6
33
d0
02
e6
34
68
60
a0
00
20
b0
04
48
c8
20
b0
04
aa
c8
20
b0
04
a8
86
22
84
23
68
60
c4
18
d0
0c
c5
17
d0
08
85
16
e9
03
85
17
a0
00
60
20
87
9d
8a
48
a9
01
20
5c
9b
68
a0
00
91
62
68
68
4c
b0
9b
20
46
9d
48
20
81
81
85
78
68
c5
78
98
90
05
20
81
81
aa
98
48
8a
48
20
5c
9b
a5
50
a4
51
20
52
9c
68
a8
68
18
65
22
85
22
90
02
e6
23
98
20
30
9c
4c
b0
9b
20
46
9d
48
20
81
81
85
78
68
18
e5
78
49
ff
4c
dc
9c
a9
ff
85
65
20
79
04
c9
29
f0
06
20
91
94
20
84
9d
20
46
9d
f0
53
ca
8a
48
a2
00
48
20
81
81
85
78
68
18
e5
78
b0
a8
49
ff
c5
65
90
a3
a5
65
b0
9f
20
8b
94
68
a8
68
85
55
68
68
68
aa
68
85
50
68
85
51
a5
55
48
98
48
a0
00
8a
60
20
67
9d
4c
81
9a
20
4b
9c
a2
00
86
0d
a8
60
20
67
9d
f0
06
a0
00
20
b0
04
a8
4c
81
9a
4c
1c
99
20
73
04
20
14
93
20
7f
98
a6
64
d0
f0
a6
65
4c
79
04
20
67
9d
f0
37
a6
3b
a4
3c
86
71
84
72
a6
22
86
3b
18
65
22
85
24
a6
23
86
3c
90
01
e8
86
25
a0
00
20
bb
04
48
98
91
24
20
79
04
20
7f
a3
68
a0
00
91
24
a6
71
a4
72
86
3b
84
3c
60
4c
2b
9f
20
14
93
20
e4
9d
20
91
94
4c
84
9d
20
91
94
20
14
93
a5
66
30
96
a5
61
c9
91
b0
90
20
27
a3
a5
64
a4
65
84
14
85
15
60
a5
15
48
a5
14
48
20
e4
9d
a0
00
20
5d
81
a8
68
85
14
68
85
15
4c
81
9a
20
d2
9d
8a
a0
00
91
14
60
20
67
9d
85
24
a0
00
84
25
84
71
84
72
c4
24
f0
34
20
b0
04
c8
c9
20
f0
f4
e6
25
a6
25
e0
05
f0
2b
c9
30
90
27
c9
3a
90
0a
c9
41
90
1f
c9
47
b0
1b
e9
07
e9
2f
0a
0a
0a
0a
a2
04
0a
26
71
26
72
ca
d0
f8
f0
c8
a4
71
a5
72
4c
76
9a
4c
1c
99
20
d2
9d
86
49
a2
00
20
79
04
f0
03
20
d8
9d
86
4a
a0
00
20
5d
81
45
4a
25
49
f0
f7
60
a5
66
49
ff
85
66
45
6e
85
6f
a5
61
4c
9e
9e
20
cd
9f
90
3c
20
07
a1
d0
03
4c
81
a2
a6
70
86
56
a2
69
a5
69
a8
f0
d8
38
e5
61
f0
24
90
12
84
61
a4
6e
84
66
49
ff
69
00
a0
00
84
56
a2
61
d0
04
a0
00
84
70
c9
f9
30
c7
a8
a5
70
56
01
20
e4
9f
24
6f
10
57
a0
61
e0
69
f0
02
a0
69
38
49
ff
65
56
85
70
b9
04
00
f5
04
85
65
b9
03
00
f5
03
85
64
b9
02
00
f5
02
85
63
b9
01
00
f5
01
85
62
b0
03
20
7b
9f
a0
00
98
18
a6
62
d0
4a
a6
63
86
62
a6
64
86
63
a6
65
86
64
a6
70
86
65
84
70
69
08
c9
20
d0
e4
a9
00
85
61
85
66
60
65
56
85
70
a5
65
65
6d
85
65
a5
64
65
6c
85
64
a5
63
65
6b
85
63
a5
62
65
6a
85
62
4c
6a
9f
69
01
06
70
26
65
26
64
26
63
26
62
10
f2
38
e5
61
b0
c7
49
ff
69
01
85
61
90
0e
e6
61
f0
42
66
62
66
63
66
64
66
65
66
70
60
a5
66
49
ff
85
66
a5
62
49
ff
85
62
a5
63
49
ff
85
63
a5
64
49
ff
85
64
a5
65
49
ff
85
65
a5
70
49
ff
85
70
e6
70
d0
0e
e6
65
d0
0a
e6
64
d0
06
e6
63
d0
02
e6
62
60
a2
0f
4c
83
86
a2
25
b4
04
84
70
b4
03
94
04
b4
02
94
03
b4
01
94
02
a4
68
94
01
69
08
30
e8
f0
e6
e9
08
a8
a5
70
b0
14
16
01
90
02
f6
01
76
01
76
01
76
02
76
03
76
04
6a
c8
d0
ec
18
60
81
00
00
00
00
03
7f
5e
56
cb
79
80
13
9b
0b
64
80
76
38
93
16
82
38
aa
3b
20
80
35
04
f3
34
81
35
04
f3
34
80
80
00
00
00
80
31
72
17
f8
20
b0
a2
f0
02
10
03
4c
1c
99
a5
61
e9
7f
48
a9
80
85
61
a9
0a
a0
a0
20
66
a0
a9
0f
a0
a0
20
72
a0
a9
f0
a0
9f
20
6c
a0
a9
f5
a0
9f
20
b3
a6
a9
14
a0
a0
20
66
a0
68
20
0a
a4
a9
19
a0
a0
20
dc
a0
4c
7b
a0
a9
a3
a0
a5
20
dc
a0
4c
9e
9e
20
dc
a0
4c
87
9e
20
dc
a0
4c
97
a1
20
07
a1
d0
03
4c
db
a0
20
37
a1
a9
00
85
26
85
27
85
28
85
29
a5
70
20
a9
a0
a5
65
20
a9
a0
a5
64
20
a9
a0
a5
63
20
a9
a0
a5
62
20
ae
a0
4c
0c
a2
d0
03
4c
b7
9f
4a
09
80
a8
90
19
18
a5
29
65
6d
85
29
a5
28
65
6c
85
28
a5
27
65
6b
85
27
a5
26
65
6a
85
26
66
26
66
27
66
28
66
29
66
70
98
4a
d0
d6
60
85
22
84
23
a0
04
b1
22
85
6d
88
b1
22
85
6c
88
b1
22
85
6b
88
b1
22
85
6e
45
66
85
6f
a5
6e
09
80
85
6a
88
b1
22
85
69
a5
61
60
85
22
84
23
a0
04
20
b0
04
85
6d
88
20
b0
04
85
6c
88
20
b0
04
85
6b
88
20
b0
04
85
6e
45
66
85
6f
a5
6e
09
80
85
6a
88
20
b0
04
85
69
a5
61
60
a5
69
f0
1f
18
65
61
90
04
30
1d
18
2c
10
14
69
80
85
61
d0
03
4c
2f
9f
a5
6f
85
66
60
a5
66
49
ff
30
05
68
68
4c
2b
9f
4c
b2
9f
20
91
a2
aa
f0
10
18
69
02
b0
f2
a2
00
86
6f
20
ab
9e
e6
61
f0
e7
60
84
20
00
00
00
a2
14
4c
83
86
20
91
a2
a9
79
a0
a1
a2
00
86
6f
20
21
a2
4c
97
a1
20
07
a1
f0
e5
20
a0
a2
a9
00
38
e5
61
85
61
20
37
a1
e6
61
f0
b5
a2
fc
a9
01
a4
6a
c4
62
d0
10
a4
6b
c4
63
d0
0a
a4
6c
c4
64
d0
04
a4
6d
c4
65
08
2a
90
09
e8
95
29
f0
32
10
34
a9
01
28
b0
0e
06
6d
26
6c
26
6b
26
6a
b0
e6
30
ce
10
e2
a8
a5
6d
e5
65
85
6d
a5
6c
e5
64
85
6c
a5
6b
e5
63
85
6b
a5
6a
e5
62
85
6a
98
4c
d4
a1
a9
40
d0
ce
0a
0a
0a
0a
0a
0a
85
70
28
a5
26
85
62
a5
27
85
63
a5
28
85
64
a5
29
85
65
4c
0b
9f
18
24
38
85
22
84
23
a0
04
20
20
a3
85
65
88
20
20
a3
85
64
88
20
20
a3
85
63
88
20
20
a3
85
66
09
80
85
62
88
20
20
a3
85
61
84
70
60
a2
5c
2c
a2
57
a0
00
f0
04
a6
49
a4
4a
20
a0
a2
86
22
84
23
a0
04
a5
65
91
22
88
a5
64
91
22
88
a5
63
91
22
88
a5
66
09
7f
25
62
91
22
88
a5
61
91
22
84
70
60
a5
6e
85
66
a2
05
b5
68
95
60
ca
d0
f9
86
70
60
20
a0
a2
a2
06
b5
60
95
68
ca
d0
f9
86
70
60
a5
61
f0
fb
06
70
90
f7
20
a3
9f
d0
f2
4c
6c
9f
a5
61
f0
09
a5
66
2a
a9
ff
b0
02
a9
01
60
20
b0
a2
85
62
a9
00
85
63
a2
88
a5
62
49
ff
2a
a9
00
85
65
85
64
86
61
85
70
85
66
4c
06
9f
46
66
60
85
24
84
25
a0
00
b1
24
c8
aa
f0
c4
b1
24
45
66
30
c2
e4
61
d0
21
b1
24
09
80
c5
62
d0
19
c8
b1
24
c5
63
d0
12
c8
b1
24
c5
64
d0
0b
c8
a9
7f
c5
70
b1
24
e5
65
f0
2f
a5
66
90
02
49
ff
4c
b6
a2
b1
22
b0
22
4c
b0
04
a5
61
f0
4a
38
e9
a0
24
66
10
09
aa
a9
ff
85
68
20
81
9f
8a
a2
61
c9
f9
10
06
20
cd
9f
84
68
60
a8
a5
66
29
80
46
62
05
62
85
62
20
e4
9f
84
68
60
a5
61
c9
a0
b0
20
20
27
a3
84
70
a5
66
84
66
49
80
2a
a9
a0
85
61
a5
65
85
07
4c
06
9f
85
62
85
63
85
64
85
65
a8
60
a0
00
a2
0a
94
5d
ca
10
fb
90
0f
c9
2d
d0
04
86
67
f0
04
c9
2b
d0
05
20
73
04
90
5b
c9
2e
f0
2e
c9
45
d0
30
20
73
04
90
17
c9
ab
f0
0e
c9
2d
f0
0a
c9
aa
f0
08
c9
2b
f0
04
d0
07
66
60
20
73
04
90
5c
24
60
10
0e
a9
00
38
e5
5e
4c
d5
a3
66
5f
24
5f
50
c3
a5
5e
38
e5
5d
85
5e
f0
12
10
09
20
83
a1
e6
5e
d0
f9
f0
07
20
62
a1
c6
5e
d0
f9
a5
67
30
01
60
4c
27
a6
48
24
5f
10
02
e6
5d
20
62
a1
68
38
e9
30
20
0a
a4
4c
96
a3
48
20
91
a2
68
20
c1
a2
a5
6e
45
66
85
6f
a6
61
4c
9e
9e
a5
5e
c9
0a
90
09
a9
64
24
60
30
16
4c
b2
9f
0a
0a
18
65
5e
0a
18
a0
00
85
78
20
a5
04
65
78
38
e9
30
85
5e
4c
bc
a3
9b
3e
bc
1f
fd
9e
6e
6b
27
fd
9e
6e
6b
28
00
20
4f
ff
20
49
4e
20
00
a5
3a
a6
39
85
62
86
63
a2
90
38
20
ce
a2
20
71
a4
4c
88
90
a0
01
a9
20
24
66
10
02
a9
2d
99
ff
00
85
66
84
71
c8
a9
30
a6
61
d0
03
4c
96
a5
a9
00
e0
80
f0
02
b0
09
a9
4e
a0
a4
20
5c
a0
a9
f7
85
5d
a9
49
a0
a4
20
e0
a2
f0
1e
10
12
a9
44
a0
a4
20
e0
a2
f0
02
10
0e
20
62
a1
c6
5d
d0
ee
20
83
a1
e6
5d
d0
dc
20
62
a0
20
27
a3
a2
01
a5
5d
18
69
0a
30
09
c9
0b
b0
06
69
ff
aa
a9
02
38
e9
02
85
5e
86
5d
8a
f0
02
10
13
a4
71
a9
2e
c8
99
ff
00
8a
f0
06
a9
30
c8
99
ff
00
84
71
a0
00
a2
80
a5
65
18
79
ab
a5
85
65
a5
64
79
aa
a5
85
64
a5
63
79
a9
a5
85
63
a5
62
79
a8
a5
85
62
e8
b0
04
10
de
30
02
30
da
8a
90
04
49
ff
69
0a
69
2f
c8
c8
c8
c8
84
47
a4
71
c8
aa
29
7f
99
ff
00
c6
5d
d0
06
a9
2e
c8
99
ff
00
84
71
a4
47
8a
49
ff
29
80
aa
c0
24
f0
04
c0
3c
d0
a6
a4
71
b9
ff
00
88
c9
30
f0
f8
c9
2e
f0
01
c8
a9
2b
a6
5e
f0
2e
10
08
a9
00
38
e5
5e
aa
a9
2d
99
01
01
a9
45
99
00
01
8a
a2
2f
38
e8
e9
0a
b0
fb
69
3a
99
03
01
8a
99
02
01
a9
00
99
04
01
f0
08
99
ff
00
a9
00
99
00
01
a9
00
a0
01
60
80
00
00
00
00
fa
0a
1f
00
00
98
96
80
ff
f0
bd
c0
00
01
86
a0
ff
ff
d8
f0
00
00
03
e8
ff
ff
ff
9c
00
00
00
0a
ff
ff
ff
ff
ff
df
0a
80
00
03
4b
c0
ff
ff
73
60
00
00
0e
10
ff
ff
fd
a8
00
00
00
3c
20
91
a2
a9
a3
a0
a5
20
21
a2
f0
70
a5
69
d0
03
4c
2d
9f
a2
4e
a0
00
20
59
a2
a5
6e
10
0f
20
58
a3
a9
4e
a0
00
20
e0
a2
d0
03
98
a4
07
20
83
a2
98
48
20
1e
a0
a9
4e
a0
00
20
78
a0
20
60
a6
68
4a
90
0a
a5
61
f0
06
a5
66
49
ff
85
66
60
81
38
aa
3b
29
07
71
34
58
3e
56
74
16
7e
b3
1b
77
2f
ee
e3
85
7a
1d
84
1c
2a
7c
63
59
58
0a
7e
75
fd
e7
c6
80
31
72
18
10
81
00
00
00
00
a9
32
a0
a6
20
5c
a0
a5
70
69
50
90
03
20
a8
a2
85
56
20
94
a2
a5
61
c9
88
90
03
20
54
a1
20
58
a3
a5
07
18
69
81
f0
f3
38
e9
01
48
a2
05
b5
69
b4
61
95
61
94
69
ca
10
f5
a5
56
85
70
20
87
9e
20
27
a6
a9
37
a0
a6
20
c9
a6
a9
00
85
6f
68
20
39
a1
60
85
71
84
72
20
4f
a2
a9
57
20
78
a0
20
cd
a6
a9
57
a0
00
4c
78
a0
85
71
84
72
20
4c
a2
b1
71
85
67
a4
71
c8
98
d0
02
e6
72
85
71
a4
72
20
5c
a0
a5
71
a4
72
18
69
05
90
01
c8
85
71
84
72
20
66
a0
a9
5c
a0
00
c6
67
d0
e4
60
98
35
44
7a
00
68
28
b1
46
00
20
b0
a2
30
2e
d0
17
ad
00
ff
85
62
ad
01
ff
85
64
ad
02
ff
85
63
ad
03
ff
85
65
4c
4a
a7
a9
03
a0
05
20
21
a2
a9
fd
a0
a6
20
5c
a0
a9
02
a0
a7
20
66
a0
a6
65
a5
62
85
65
86
62
a6
63
a5
64
85
63
86
64
a9
00
85
66
a5
61
85
70
a9
80
85
61
20
0b
9f
a2
03
a0
05
4c
59
a2
a5
7c
85
3d
a5
7d
85
3e
60
a5
3d
85
7c
a5
3e
85
7d
60
98
18
65
7c
85
7c
90
02
e6
7d
60
aa
d0
02
a2
1e
4c
83
86
20
c0
ff
b0
f3
60
20
d2
ff
b0
ed
60
20
cf
ff
b0
e7
60
48
20
c9
ff
20
f8
a8
aa
68
90
03
8a
b0
d8
60
20
c6
ff
20
f8
a8
b0
cf
60
20
e4
ff
b0
c9
60
20
e1
9d
a9
a7
48
a9
ce
48
ad
f5
07
48
ad
f2
07
ae
f3
07
ac
f4
07
28
6c
14
00
08
8d
f2
07
8e
f3
07
8c
f4
07
68
8d
f5
07
60
20
6b
a8
a6
2d
a4
2e
a9
2b
20
d8
ff
20
f8
a8
b0
8e
60
a9
01
2c
a9
00
85
0a
20
6b
a8
a5
0a
a6
2b
a4
2c
20
d5
ff
08
20
f8
a8
28
b0
5e
a5
0a
f0
16
a2
1c
20
b7
ff
29
10
d0
16
24
81
30
08
20
4f
ff
0d
4f
4b
0d
00
60
20
b7
ff
29
bf
f0
05
a2
1d
4c
83
86
24
81
30
10
86
2d
84
2e
20
6f
86
20
18
88
20
93
8a
4c
0f
87
20
f1
8a
20
18
88
4c
d5
8a
20
b0
a8
18
20
85
a7
20
f8
a8
b0
0f
60
20
b0
a8
a5
49
18
20
c3
ff
20
f8
a8
90
bb
4c
7d
a7
a9
00
20
bd
ff
a2
01
a0
00
20
ba
ff
20
9d
a8
20
ee
a8
20
9d
a8
20
97
a8
a0
00
86
49
20
ba
ff
20
9d
a8
20
97
a8
8a
a8
a6
49
4c
ba
ff
20
a5
a8
4c
84
9d
20
79
04
d0
02
68
68
60
20
91
94
20
79
04
d0
f7
4c
a1
94
a9
00
20
bd
ff
20
a8
a8
20
84
9d
86
49
8a
a2
01
a0
00
20
ba
ff
20
9d
a8
20
97
a8
86
4a
a0
00
a5
49
e0
03
90
01
88
20
ba
ff
20
9d
a8
20
97
a8
8a
a8
a6
4a
a5
49
20
ba
ff
20
9d
a8
20
a5
a8
20
48
9c
a6
22
a4
23
4c
bd
ff
08
48
a5
ae
c9
04
90
03
20
57
cd
68
28
60
46
0f
aa
f0
38
48
a5
33
38
e9
02
a4
34
b0
01
88
85
22
84
23
8a
49
ff
38
65
22
b0
01
88
c4
32
90
1d
d0
04
c5
31
90
17
85
35
84
36
a0
01
a9
ff
91
22
88
68
91
22
a6
35
a4
36
86
33
84
34
60
a5
0f
30
09
20
54
a9
38
66
0f
68
d0
b7
4c
81
86
a6
16
e0
19
f0
10
20
57
aa
f0
f7
8a
a0
00
91
5c
98
c8
91
5c
d0
ec
a0
00
84
58
a6
37
a4
38
86
5f
86
4e
86
35
84
60
84
4f
84
36
8a
20
ea
a9
d0
0c
88
20
65
81
20
39
aa
38
66
58
d0
ef
24
58
10
42
a2
00
86
58
a9
02
a0
01
20
65
81
91
5f
88
20
65
81
91
5f
20
b0
04
aa
20
48
aa
85
35
84
36
8a
20
39
aa
8a
a8
88
20
65
81
91
5f
ca
d0
f7
a0
02
b9
5e
00
91
22
88
d0
f8
a5
4e
a4
4f
20
ea
a9
f0
b0
d0
c4
a0
00
20
b0
04
aa
20
48
aa
85
35
84
36
8a
20
39
aa
4c
7f
a9
c4
34
90
2a
d0
06
c5
33
f0
24
90
22
24
58
30
05
a9
02
20
48
aa
a9
02
20
39
aa
a0
01
20
65
81
c9
ff
d0
01
60
20
65
81
99
22
00
88
10
f7
60
a6
16
e0
19
f0
10
20
57
aa
f0
f7
a0
00
91
5c
c8
a9
ff
91
5c
d0
ec
68
68
a5
35
a4
36
85
33
84
34
60
49
ff
38
65
4e
a4
4f
b0
01
88
85
4e
84
4f
60
49
ff
38
65
5f
a4
60
b0
01
88
85
5f
84
60
60
ca
b5
00
85
5d
ca
b5
00
85
5c
ca
b5
00
48
18
65
5c
85
5c
90
02
e6
5d
68
60
a9
ec
a0
aa
20
66
a0
20
91
a2
a9
f1
a0
aa
a6
6e
20
8c
a1
20
91
a2
20
58
a3
a9
00
85
6f
20
87
9e
a9
f6
a0
aa
20
6c
a0
a5
66
48
10
0d
20
62
a0
a5
66
30
09
a5
12
49
ff
85
12
20
27
a6
a9
f6
a0
aa
20
66
a0
68
10
03
20
27
a6
a9
fb
a0
aa
4c
b3
a6
20
4f
a2
a9
00
85
12
20
77
aa
a2
4e
a0
00
20
5d
a7
a9
57
a0
00
20
21
a2
a9
00
85
66
a5
12
20
e8
aa
a9
4e
a0
00
4c
94
a1
48
4c
a9
aa
81
49
0f
da
a2
83
49
0f
da
a2
7f
00
00
00
00
05
84
e6
1a
2d
1b
86
28
07
fb
f8
87
99
68
89
01
87
23
35
df
e1
86
a5
5d
e7
28
83
49
0f
da
a2
a5
66
48
10
03
20
27
a6
a5
61
48
c9
81
90
07
a9
f0
a0
9f
20
72
a0
a9
4a
a0
ab
20
b3
a6
68
c9
81
90
07
a9
ec
a0
aa
20
6c
a0
68
10
03
4c
27
a6
60
0b
76
b3
83
bd
d3
79
1e
f4
a6
f5
7b
83
fc
b0
10
7c
0c
1f
67
ca
7c
de
53
cb
c1
7d
14
64
70
4c
7d
b7
ea
51
7a
7d
63
30
88
7e
7e
92
44
99
3a
7e
4c
cc
91
c7
7f
aa
aa
aa
13
81
00
00
00
00
89
8a
8d
a7
8c
d6
d7
d5
20
de
b6
a9
00
a2
0a
86
03
85
04
86
05
85
06
85
5a
85
5b
20
79
04
f0
66
20
3e
8e
a5
08
f0
08
a5
14
a6
15
85
03
86
04
20
79
04
f0
52
20
91
94
20
3e
8e
a5
08
f0
10
a5
14
a6
15
85
05
86
06
d0
06
aa
d0
03
4c
1c
99
20
79
04
f0
33
20
91
94
20
3e
8e
a5
14
a6
15
85
5a
86
5b
20
3d
8a
a5
5f
a6
60
85
58
86
59
a5
03
a6
04
85
14
86
15
20
3d
8a
a5
60
38
e5
59
90
cd
d0
06
a5
5f
e5
58
90
c5
20
f1
8a
20
86
ad
20
86
ad
d0
3d
20
59
ad
20
86
ad
20
86
ad
d0
03
4c
b3
ae
20
86
ad
85
14
c8
20
a5
04
38
e5
5b
90
19
d0
06
a5
14
e5
5a
90
11
a5
62
91
3b
88
a5
63
91
3b
20
86
ad
20
73
ad
f0
ce
20
86
ad
20
80
ad
f0
c6
20
86
ad
20
86
ad
20
86
ad
c9
22
d0
0b
20
86
ad
f0
a9
c9
22
d0
f7
f0
ee
aa
f0
a0
10
e9
a2
08
dd
86
ab
f0
10
ca
d0
f8
c9
cb
d0
db
20
73
04
f0
8b
c9
a4
d0
d2
a5
3b
8d
59
02
a5
3c
8d
5a
02
20
73
04
b0
c6
20
3e
8e
20
ee
ac
ad
59
02
85
3b
ad
5a
02
85
3c
a0
00
a2
00
bd
01
01
f0
1c
48
20
73
04
90
0e
20
42
ad
e6
6c
20
bb
ad
e6
2d
d0
02
e6
2e
68
a0
00
91
3b
e8
d0
df
20
73
04
b0
15
20
42
ad
c6
6c
20
a2
ad
a5
2d
d0
02
c6
2e
c6
2d
20
79
04
90
eb
c9
2c
f0
9e
4c
5e
ac
20
59
ad
20
86
ad
d0
0d
20
86
ad
d0
0b
a9
ff
85
62
85
63
30
2a
20
86
ad
20
86
ad
85
58
c5
14
d0
27
20
86
ad
85
59
c5
15
d0
23
38
e5
5b
90
08
d0
0e
a5
14
e5
5a
b0
08
a5
14
85
63
a5
15
85
62
a2
90
38
20
ce
a2
4c
6f
a4
20
86
ad
85
59
20
64
ad
f0
b1
d9
ea
a5
3b
85
22
a5
3c
85
23
a5
2d
85
24
a5
2e
85
25
a0
00
84
0b
84
6c
60
a5
03
85
63
a5
04
85
62
4c
f1
8a
a5
59
38
e5
5b
90
15
d0
06
a5
58
e5
5a
90
0d
a5
63
18
65
05
85
63
a5
62
65
06
85
62
20
86
ad
d0
fb
60
a0
00
e6
3b
d0
02
e6
3c
4c
a5
04
a5
22
c5
24
d0
04
a5
23
c5
25
60
e6
22
d0
02
e6
23
a4
0b
c8
20
b0
04
a4
6c
c8
91
22
20
91
ad
d0
ea
60
a5
24
d0
02
c6
25
c6
24
a4
0b
20
bb
04
a4
6c
91
24
20
91
ad
d0
ea
60
a9
80
85
10
20
7c
8e
a9
81
85
02
20
71
88
f0
08
a0
12
20
05
89
20
60
a7
20
69
a7
20
be
8d
98
a0
11
18
65
3b
91
7c
a5
3c
69
00
88
91
7c
a5
3a
88
91
7c
a5
39
88
91
7c
a9
a4
20
93
94
20
17
93
20
14
93
a5
66
09
7f
25
62
85
62
a2
04
a0
0d
b5
61
91
7c
ca
88
10
f8
a9
f0
a0
9f
20
21
a2
20
79
04
c9
a9
d0
06
20
73
04
20
14
93
20
b0
a2
48
20
a0
a2
68
a0
08
a2
05
91
7c
b5
60
88
ca
10
f8
a5
4a
91
7c
a5
49
88
91
7c
a9
81
88
91
7c
60
4c
a1
94
20
de
b6
20
79
04
f0
f5
20
ca
ae
a5
5f
a6
60
85
24
86
25
20
3d
8a
90
15
a0
01
20
d1
04
88
aa
d0
05
20
d1
04
f0
07
20
d1
04
85
5f
86
60
a5
24
38
e5
5f
aa
a5
25
e5
60
a8
b0
1f
8a
18
65
2d
85
2d
98
65
2e
85
2e
a0
00
20
d1
04
91
24
c8
d0
f8
e6
60
e6
25
a5
2e
c5
25
b0
ee
20
18
88
a5
22
a6
23
18
69
02
85
2d
90
01
e8
86
2e
20
93
8a
4c
7e
86
f0
06
90
04
c9
ab
d0
22
20
3e
8e
20
3d
8a
20
79
04
f0
0c
c9
ab
d0
13
20
73
04
20
3e
8e
d0
0b
a5
08
d0
06
a9
ff
85
14
85
15
60
4c
a1
94
a2
ff
8e
e0
02
20
73
04
20
2c
93
20
1a
93
a5
64
48
a5
65
48
a0
02
20
dc
04
88
99
3d
00
d0
f7
20
dc
04
8d
df
02
a8
f0
0b
88
20
71
81
c9
23
f0
06
98
d0
f5
4c
a1
94
a9
3b
20
93
94
84
76
8c
cd
02
20
2c
93
24
0d
10
39
20
70
b1
20
b7
b2
ae
d5
02
f0
15
a2
00
38
ad
db
02
e5
77
90
0b
a2
3d
ec
d5
02
d0
03
4a
69
00
aa
a0
00
8a
f0
05
ca
a9
20
d0
08
c4
77
b0
f8
20
b0
04
c8
20
b0
b2
d0
eb
f0
24
20
6f
a4
a0
ff
c8
b9
00
01
d0
fa
98
20
5c
9b
a0
00
b9
00
01
f0
05
91
62
c8
d0
f6
20
b0
9b
20
70
b1
20
bb
af
20
79
04
c9
2c
f0
8d
38
66
76
20
b7
b2
68
a8
68
20
52
9c
20
79
04
c9
3b
f0
03
4c
3e
90
4c
73
04
ad
e7
04
8d
dd
02
a9
ff
8d
dc
02
4c
cb
af
86
82
c4
77
f0
33
b9
00
01
c8
c9
20
f0
f4
c9
2d
f0
e8
c9
2e
f0
ea
c9
45
f0
11
9d
00
01
8e
ce
02
e8
24
82
10
dd
ee
d4
02
4c
cb
af
b9
00
01
c9
2d
d0
03
6e
d2
02
c8
8c
d3
02
a5
82
10
02
86
82
20
b7
b2
ad
d6
02
c9
ff
f0
29
ad
d9
02
f0
3f
ad
d3
02
d0
12
ae
ce
02
20
45
b1
de
02
01
e8
8e
d3
02
20
cc
b1
f0
25
ac
d8
02
d0
17
ac
dc
02
30
12
ad
d6
02
f0
6a
ce
d6
02
d0
05
ad
d7
02
f0
60
ee
d1
02
20
bf
b0
20
8a
b1
20
bf
b0
4c
ed
b1
ac
d3
02
f0
16
85
77
38
6e
da
02
a4
82
ad
d2
02
10
06
20
f8
b0
4c
7a
b0
20
d9
b0
a4
82
f0
05
20
d0
b1
f0
06
20
8a
b1
4c
83
b0
ce
d4
02
38
ad
d6
02
ed
d4
02
90
1b
8d
d1
02
ac
d8
02
d0
1b
ac
dc
02
30
16
a8
f0
0b
88
d0
13
ad
d7
02
0d
d4
02
d0
ac
a9
2a
20
b0
b2
d0
fb
60
a8
f0
a1
ad
d4
02
d0
9c
ce
d1
02
e6
76
4c
53
b0
38
ad
d6
02
ed
d4
02
f0
39
a4
82
90
16
85
77
cc
ce
02
f0
02
b0
01
c8
ee
d4
02
20
0e
b1
c6
77
d0
ee
f0
1d
49
ff
69
01
85
77
cc
cd
02
f0
07
88
ce
d4
02
4c
f6
b0
e6
76
a9
80
20
10
b1
c6
77
d0
e9
84
82
60
d0
39
49
09
9d
00
01
ca
ec
d3
02
60
a9
00
ae
d3
02
e8
2c
da
02
30
10
4d
d2
02
f0
0b
20
53
b1
20
02
b1
b0
f8
4c
b2
9f
bd
00
01
de
00
01
c9
30
20
02
b1
b0
f3
2c
da
02
10
05
84
82
68
68
60
ad
d2
02
49
80
8d
d2
02
a9
30
9d
01
01
a9
31
9d
02
01
60
bd
00
01
fe
00
01
c9
39
60
18
c8
f0
05
cc
df
02
90
04
a4
76
d0
d4
20
71
81
ee
db
02
60
20
4e
9c
85
77
a2
0a
a9
00
9d
d1
02
ca
10
fa
8e
d0
02
86
82
8e
cf
02
aa
a8
60
18
a5
82
6d
d7
02
b0
39
38
e5
76
90
34
cd
ce
02
f0
02
b0
2d
cd
cd
02
90
28
aa
bd
00
01
c9
35
90
20
ec
cd
02
f0
0a
ca
20
53
b1
8e
ce
02
f0
f2
60
a9
31
9d
00
01
e8
86
82
c6
76
10
05
e6
76
ee
d4
02
60
a4
82
f0
17
ac
cd
02
b9
00
01
c9
30
60
e6
82
20
0e
b1
ee
cd
02
cc
ce
02
f0
e5
c8
20
d3
b1
f0
ed
60
ad
cf
02
30
02
e6
76
ae
cd
02
ca
ac
de
02
20
71
81
c8
c9
2c
d0
11
2c
d0
02
30
06
ad
e8
04
4c
76
b2
ad
dd
02
4c
76
b2
c9
2e
d0
06
ad
e9
04
4c
76
b2
c9
2b
f0
3b
c9
2d
f0
32
c9
5e
d0
63
a9
45
20
b0
b2
ac
d3
02
20
d3
b1
d0
06
c8
20
d3
b1
f0
07
a9
2d
2c
d2
02
30
02
a9
2b
20
b0
b2
ae
d3
02
bd
00
01
20
b0
b2
ac
e0
02
4c
6c
b2
ad
dc
02
30
b1
ad
dc
02
4c
76
b2
a5
76
d0
15
ec
ce
02
f0
05
e8
bd
00
01
2c
a9
30
4e
d0
02
20
b0
b2
d0
80
60
c6
76
ad
cf
02
30
ee
38
6e
cf
02
ad
ea
04
4c
73
b2
ad
d1
02
f0
d1
ce
d1
02
f0
03
4c
0e
b2
ad
d8
02
30
f6
20
71
81
c9
2c
d0
b2
ad
dd
02
20
b0
b2
c8
4c
9f
b2
20
b2
90
ce
db
02
60
ac
e0
02
20
5c
b1
20
6c
b3
d0
14
8c
de
02
90
1a
aa
20
5c
b1
b0
05
20
74
b3
f0
0a
ac
de
02
8a
20
b2
90
4c
ba
b2
b0
ea
ac
de
02
a6
76
d0
7a
8e
db
02
88
ce
db
02
20
5c
b1
b0
74
c9
2c
f0
f7
20
43
b3
90
ef
c9
2e
d0
08
e8
e0
02
90
e9
4c
a1
94
20
78
b3
d0
0b
90
03
8d
d5
02
fe
d6
02
4c
ec
b2
c9
24
d0
0f
2c
cf
02
10
f1
18
6e
cf
02
ce
d6
02
4c
10
b3
c9
5e
d0
16
a2
02
20
5c
b1
b0
cf
c9
5e
d0
cb
ca
10
f4
ee
d9
02
20
5c
b1
b0
22
c9
2b
d0
19
ad
dc
02
10
05
a9
2b
8d
dc
02
ad
d8
02
d0
ad
6e
d8
02
8c
e0
02
ee
db
02
60
c9
2d
f0
ed
38
8c
e0
02
ce
e0
02
60
c9
2b
f0
15
c9
2d
f0
11
c9
2e
f0
0d
c9
3d
f0
09
c9
3e
f0
05
c9
23
d0
01
18
60
a5
64
8d
eb
04
a5
65
8d
ec
04
20
2c
93
20
1a
93
a5
64
8d
ed
04
a5
65
8d
ee
04
a2
01
86
65
20
79
04
c9
29
f0
03
20
d8
9d
20
8b
94
a6
65
d0
03
4c
1c
99
ca
86
61
a2
03
bd
eb
04
95
57
ca
10
f8
a0
02
20
75
81
99
5b
00
20
79
81
99
5e
00
88
10
f1
a5
5e
f0
37
a9
00
85
62
18
a5
5e
65
61
b0
2c
c5
5b
90
02
d0
26
a4
62
c4
5e
f0
1b
98
18
65
61
a8
20
69
81
85
78
a4
62
20
6d
81
c5
78
f0
04
e6
61
d0
d2
e6
62
d0
df
e6
61
a5
61
2c
a9
00
48
ad
ed
04
ac
ee
04
20
52
9c
ad
eb
04
ac
ec
04
20
52
9c
68
a8
4c
81
9a
20
86
9a
20
79
04
f0
07
20
e1
9d
8c
f2
04
2c
a9
ff
8d
f3
04
60
20
86
9a
ae
f1
04
e8
f0
70
20
79
04
f0
47
90
3a
c9
82
d0
62
20
95
b4
a0
00
20
a5
04
d0
26
c8
20
a5
04
d0
09
c8
20
a5
04
d0
03
4c
7e
86
a0
03
20
a5
04
85
39
c8
20
a5
04
85
3a
98
18
65
3b
85
3b
90
02
e6
3c
20
73
04
4c
b0
8d
20
e1
9d
85
15
20
a4
b4
4c
69
8d
a2
01
bd
f0
04
95
39
bd
f5
04
95
3b
ca
10
f3
a2
ff
8e
ef
04
8e
f0
04
8e
f1
04
ae
f4
04
8e
f3
04
60
4c
a1
94
a2
1f
4c
83
86
20
87
9d
ca
8a
c9
24
b0
34
20
53
86
a0
ff
a2
00
e8
c8
b1
24
30
06
c9
20
90
f7
b0
f4
8a
20
5c
9b
a2
00
a0
ff
c8
b1
24
c9
20
90
f9
20
fe
b4
48
29
7f
91
62
20
fe
b4
e8
68
10
ea
4c
ca
9c
4c
1c
99
48
8a
48
98
aa
68
a8
68
60
20
17
93
a5
14
48
a5
15
48
20
e4
9d
a9
04
20
5c
9b
a0
00
a5
15
20
2d
b5
a5
14
20
2d
b5
68
85
15
68
85
14
4c
ca
9c
48
4a
4a
4a
4a
20
36
b5
68
29
0f
c9
0a
90
02
69
06
69
30
91
62
c8
60
20
48
9c
a8
88
c0
04
b0
ae
20
b0
04
99
e7
04
88
10
f7
60
a0
01
b9
3b
00
99
f8
04
b9
39
00
99
fa
04
88
10
f1
20
79
04
f0
1c
c9
fc
f0
11
c9
fd
d0
3f
20
4c
b6
a5
61
d0
0d
20
79
04
4c
ba
b5
20
4c
b6
a5
61
d0
f3
a0
05
20
05
89
88
ad
f9
04
91
7c
88
ad
f8
04
91
7c
88
ad
fb
04
91
7c
88
ad
fa
04
91
7c
88
a9
eb
91
7c
60
20
14
b6
20
79
04
f0
06
4c
a1
94
20
73
04
f0
1d
c9
ec
f0
40
c9
22
f0
0a
c9
eb
d0
ef
20
b7
b5
4c
7c
b5
20
73
04
f0
06
c9
22
d0
f7
f0
de
c9
3a
f0
da
24
81
10
44
a0
02
20
a5
04
f0
3d
c8
20
a5
04
85
39
c8
20
a5
04
85
3a
98
18
65
3b
85
3b
90
bb
e6
3c
d0
b7
4c
b0
8d
f0
2d
c9
fd
f0
24
c9
fc
d0
a7
20
4c
b6
a5
61
f0
1e
a9
eb
85
02
20
71
88
d0
0b
20
69
a7
a0
05
4c
72
a7
a2
20
2c
a2
21
4c
83
86
20
4c
b6
f0
e2
20
14
b6
88
b1
3d
85
3c
88
b1
3d
85
3b
88
b1
3d
20
7f
cd
b1
3d
85
39
4c
57
b5
20
73
04
4c
2c
93
a9
ff
2c
a9
00
8d
eb
02
60
20
8e
94
20
a5
96
85
49
84
4a
20
1a
93
20
d8
9d
ca
86
77
c9
29
f0
04
20
d8
9d
2c
a2
ff
86
78
20
8b
94
a9
b2
20
93
94
20
2c
93
20
1a
93
a0
02
a9
49
20
94
04
99
5b
00
20
dc
04
99
5e
00
88
10
ef
38
a5
5f
e5
77
85
5f
b0
02
c6
60
a5
78
c5
5e
90
02
a5
5e
aa
f0
16
18
65
77
b0
14
c5
5b
90
02
d0
0e
a4
77
20
6d
81
91
5c
c8
ca
d0
f7
4c
4e
9c
4c
1c
99
20
de
b6
20
3e
8e
a5
14
85
73
a5
15
85
74
4c
7e
86
24
81
30
01
60
a2
22
4c
83
86
ae
ef
04
e8
f0
1b
ad
f0
04
ac
f1
04
85
14
84
15
20
3d
8a
90
0c
66
53
20
3e
90
a6
14
a5
15
20
40
8b
4c
3e
90
a6
60
98
18
65
5f
90
01
e8
ec
f6
04
d0
0e
cd
f5
04
90
09
f0
07
46
53
a9
82
4c
b2
90
60
d0
7c
a2
00
a0
00
e8
bd
5e
05
f0
53
85
77
86
76
a2
05
bd
6e
cd
ca
d0
02
05
76
20
d2
ff
8a
10
f2
a2
07
b9
67
05
c8
48
86
80
a2
04
dd
39
b8
f0
34
ca
d0
f8
a6
80
e0
08
90
07
d0
0a
a9
2b
20
d2
ff
a9
22
20
d2
ff
68
20
d2
ff
a2
09
c6
77
d0
d3
e0
09
90
05
a9
22
20
d2
ff
a9
8d
20
d2
ff
a6
76
e0
08
d0
a3
60
a6
80
bd
30
b8
20
d2
ff
ca
e0
03
b0
f5
68
20
74
cd
a9
29
20
d2
ff
a2
08
d0
cd
20
84
9d
ca
e0
08
90
03
4c
1c
99
86
76
20
91
94
20
48
9c
20
c2
b7
90
72
4c
81
86
85
77
a2
08
20
3e
b8
8d
cd
02
a6
76
e8
20
3e
b8
8d
ce
02
a6
76
a5
77
38
fd
5f
05
f0
35
90
1d
18
6d
cd
02
b0
4b
c9
81
b0
47
aa
ac
cd
02
cc
ce
02
f0
20
88
ca
b9
67
05
9d
67
05
b0
f1
6d
ce
02
aa
ac
ce
02
cc
cd
02
b0
0a
b9
67
05
9d
67
05
c8
e8
90
f1
a6
76
20
3e
b8
aa
a4
76
a5
77
99
5f
05
a0
00
20
b0
04
c6
77
30
07
9d
67
05
e8
c8
d0
f2
18
60
28
24
52
48
43
2b
22
0d
8d
22
1b
a9
00
18
ca
30
ee
7d
5f
05
90
f8
20
84
9d
ca
e0
03
b0
64
86
80
20
de
9d
c9
04
b0
5b
84
7e
85
7f
20
de
9d
a6
80
e0
02
d0
01
ca
48
c0
00
d0
07
c9
00
d0
03
c8
d0
0f
98
48
20
c0
8c
bd
fe
04
1d
fc
04
d0
f5
68
a8
98
49
ff
18
69
01
78
9d
fc
04
68
49
ff
69
00
9d
fe
04
a5
7e
9d
0e
ff
bd
b8
b8
aa
bd
10
ff
29
fc
05
7f
9d
10
ff
a6
80
bd
ba
b8
0d
11
ff
8d
11
ff
58
60
4c
1c
99
02
00
10
20
40
20
84
9d
e0
09
b0
f1
86
80
ad
11
ff
29
f0
05
80
8d
11
ff
60
20
b6
c3
a2
04
20
d9
c3
20
7b
c3
20
a5
c3
e0
02
90
03
4c
1c
99
8a
4a
6a
85
8b
10
04
a5
84
f0
07
20
f3
c1
b0
02
d0
01
60
20
54
a9
a5
31
85
22
a5
32
85
23
38
a5
33
e9
03
85
19
a5
34
e9
00
85
1a
a2
00
86
89
86
8a
ae
af
02
d0
03
ce
b0
02
ce
af
02
20
f3
c1
b0
02
d0
ee
ee
af
02
d0
03
ee
b0
02
20
c3
c1
ae
ad
02
d0
03
ce
ae
02
ce
ad
02
a5
89
20
9f
b9
85
89
18
ad
ad
02
69
02
8d
ad
02
90
03
ee
ae
02
a5
8a
20
9f
b9
85
8a
ae
ad
02
d0
03
ce
ae
02
ce
ad
02
ee
af
02
d0
03
ee
b0
02
20
f3
c1
b0
02
d0
bc
a2
03
a0
00
a5
23
c5
32
d0
06
a5
22
c5
31
f0
17
a5
22
d0
02
c6
23
c6
22
20
b0
04
9d
ad
02
ca
10
ef
20
c0
8c
4c
11
b9
4c
7b
c3
48
20
f3
c1
b0
2b
f0
29
68
d0
29
aa
a8
a5
23
c5
1a
90
0b
d0
06
a5
22
c5
19
90
03
4c
81
86
bd
ad
02
91
22
e6
22
d0
02
e6
23
e8
e0
04
d0
f0
a9
80
60
68
a9
00
60
20
b9
c3
20
d8
9d
e0
28
b0
0a
8e
da
02
20
d8
9d
e0
19
90
03
4c
1c
99
8e
db
02
20
91
94
20
48
9c
8d
ea
02
98
48
8a
48
20
a5
c3
8a
6a
6e
b9
02
68
85
22
68
85
23
a5
83
d0
1b
ae
db
02
ac
da
02
18
20
f0
ff
a0
00
cc
ea
02
f0
09
20
b0
04
20
4c
ff
c8
d0
f2
60
20
bf
c7
a5
86
48
a5
84
48
24
83
10
0f
68
f0
12
4a
f0
0f
a6
85
90
0d
ae
16
ff
b0
08
ae
15
ff
68
f0
02
a6
86
86
86
ae
db
02
a0
00
8c
dc
02
ac
dc
02
ee
dc
02
20
b0
04
ce
ea
02
30
17
ac
da
02
20
7f
ba
ee
da
02
c0
27
90
e5
a0
00
8c
da
02
e8
e0
18
90
db
68
85
86
60
48
20
1a
c2
20
91
c2
a9
00
85
7e
68
48
0a
26
7e
0a
0a
26
7e
85
24
a5
7e
6d
e4
02
85
25
98
48
a0
07
ad
b9
02
0a
b1
24
90
02
49
ff
24
83
10
2b
29
aa
85
7e
a5
84
d0
0f
a5
7e
b0
07
4a
45
7e
49
aa
d0
18
09
55
d0
14
c9
02
d0
04
a5
7e
b0
0c
90
07
a5
7e
4a
45
7e
90
03
a5
7e
4a
91
8c
88
10
c2
68
a8
68
60
20
b6
c3
a2
1f
20
f4
c3
a2
2b
20
d9
c3
20
8f
c3
8c
d0
02
8d
d1
02
20
a5
c3
e0
02
90
03
4c
1c
99
8e
e8
02
8a
48
20
b4
bb
68
d0
1c
f0
03
20
36
bc
20
da
c0
ad
ca
02
d0
f5
a2
04
bd
d7
02
9d
ac
02
ca
d0
f7
8e
e8
02
60
a2
00
ad
c5
02
4a
90
02
a2
02
bd
dc
02
8d
d6
02
bd
dd
02
8d
d7
02
a9
00
a2
03
9d
d2
02
ca
10
fa
a2
07
bd
ad
02
48
ca
10
f9
20
da
c0
a2
00
68
9d
ad
02
e8
e0
08
d0
f7
ad
d6
02
d0
05
ce
d7
02
30
b0
ce
d6
02
a2
25
a0
1b
ad
c5
02
4a
90
02
a0
19
a9
00
4a
48
20
f6
c2
9d
ad
02
98
9d
ae
02
68
90
02
09
a0
e8
e8
a0
19
4e
c5
02
90
02
a0
1b
2e
c5
02
e0
27
f0
dd
a2
06
0a
f0
bd
90
08
fe
ad
02
d0
03
fe
ae
02
0a
ca
ca
10
f1
30
95
a0
23
20
56
bc
a2
1f
a0
2b
98
48
20
22
c3
9d
b1
02
9d
b5
02
9d
bd
02
98
9d
b2
02
9d
b6
02
9d
be
02
68
a8
20
f6
c2
9d
ad
02
98
9d
ae
02
a0
2d
e8
e8
e0
21
f0
d4
a9
90
20
d5
bc
ad
c5
02
29
03
8d
c5
02
aa
bd
18
bc
20
36
bc
20
7b
c3
ad
ca
02
20
36
bc
ae
c5
02
bd
18
bc
29
f0
8d
cb
02
bd
1c
bc
8d
ca
02
60
be
e4
41
1b
41
1b
be
e4
46
52
45
44
20
42
0d
54
45
52
52
59
20
52
0d
4d
49
4b
45
20
49
0d
20
05
bd
a2
04
bd
ae
02
0a
7e
ae
02
7e
ad
02
90
08
fe
ad
02
d0
03
fe
ae
02
e8
e8
e0
06
f0
e6
60
20
18
c3
a2
00
e8
38
e9
5a
b0
fa
88
10
f7
8e
c5
02
48
69
5a
20
76
bc
68
18
49
ff
69
01
ce
c5
02
a2
ff
e8
38
e9
0a
b0
fa
69
0a
85
8e
8a
0a
aa
bd
b4
c4
bc
b3
c4
18
c6
8e
30
0c
7d
c8
c4
48
98
7d
c7
c4
a8
68
90
ef
48
a2
00
ad
c5
02
4a
b0
02
a2
02
68
9d
c6
02
98
9d
c7
02
60
a0
19
90
02
a0
1b
ad
c5
02
69
02
4a
4a
08
20
18
c3
c0
ff
90
07
8a
a8
20
18
c3
b0
03
20
37
c3
28
b0
1b
4c
27
c3
8d
ca
02
a2
23
0e
ca
02
20
b0
bc
9d
ad
02
98
9d
ae
02
e8
e8
e0
2b
90
ed
60
a0
2b
20
56
bc
a2
07
bd
dc
02
9d
d0
02
ca
10
f7
a9
50
20
d5
bc
a9
10
8d
ca
02
a0
1f
a2
23
0e
cb
02
2e
ca
02
20
f4
c2
e8
e8
0e
cb
02
2e
ca
02
20
f0
c2
48
98
48
a0
21
e8
e8
e0
27
f0
e1
a2
03
68
9d
b1
02
ca
10
f9
60
20
bf
c7
20
48
9c
8d
cf
02
86
24
84
25
a2
04
20
d9
c3
20
a5
c3
e0
05
90
03
4c
1c
99
8e
d0
02
a2
03
ac
cf
02
c0
05
b0
01
60
88
20
bb
04
9d
d5
02
ca
10
f6
8e
d1
02
20
7b
c3
ad
d5
02
8d
d9
02
ad
d6
02
8d
da
02
a9
08
8d
e5
02
ee
d1
02
ac
d1
02
20
bb
04
8d
d3
02
20
f3
c1
8d
d2
02
0e
d3
02
2a
ce
e5
02
24
83
10
07
0e
d3
02
2a
ce
e5
02
ae
d0
02
e0
03
90
0c
f0
05
4d
d2
02
b0
11
2d
d2
02
b0
0c
e0
01
90
08
f0
04
0d
d2
02
2c
49
ff
29
03
24
83
30
02
29
01
85
84
20
c3
c1
ee
ad
02
d0
03
ee
ae
02
38
ad
d9
02
24
83
10
03
e9
02
2c
e9
01
8d
d9
02
ad
da
02
e9
00
8d
da
02
b0
2d
a2
01
bd
d5
02
9d
d9
02
bd
b1
02
9d
ad
02
ca
10
f1
ee
af
02
d0
03
ee
b0
02
38
ad
d7
02
e9
01
8d
d7
02
ad
d8
02
e9
00
8d
d8
02
b0
09
60
ad
e5
02
f0
03
4c
8b
bd
4c
7a
bd
20
bf
c7
20
a5
96
8d
db
02
8c
dc
02
24
0d
30
03
4c
24
93
a2
28
20
f4
c3
a2
04
20
d9
c3
a2
2a
a0
06
a9
02
85
8e
20
22
c3
aa
98
48
a4
8e
20
82
c3
90
0c
b9
d5
02
99
ad
02
b9
d6
02
99
ae
02
8a
99
d5
02
99
de
02
68
99
d6
02
99
df
02
a2
28
a0
04
c6
8e
c6
8e
f0
cf
a0
ff
8c
d1
02
ad
ad
02
8d
d9
02
ad
ae
02
8d
da
02
98
20
5c
9b
20
64
c2
b1
8c
90
0e
ad
ad
02
24
83
10
02
38
2a
29
07
aa
a9
00
24
83
10
01
ca
8e
dd
02
0a
ca
10
fc
6a
85
8e
a9
08
24
83
10
01
4a
18
6d
ad
02
8d
ad
02
90
03
ee
ae
02
20
64
c2
a9
00
b0
02
b1
8c
85
8f
ae
dd
02
4a
e8
e0
08
d0
fa
05
8e
ee
d1
02
ac
d1
02
c0
fc
90
03
4c
4c
cc
91
62
ae
dd
02
ad
d5
02
38
24
83
10
03
e9
04
2c
e9
08
8d
d5
02
a5
8f
b0
aa
ce
d6
02
10
a5
ae
d7
02
d0
42
ce
d8
02
10
3d
24
83
10
06
0e
de
02
2e
df
02
a2
00
bd
de
02
c8
91
62
e8
e0
04
d0
f5
c8
8c
de
02
a5
62
8d
df
02
a5
63
8d
e0
02
a9
de
85
64
a9
02
85
65
ad
db
02
85
49
ad
dc
02
85
4a
20
40
8f
4c
7b
c3
ce
d7
02
ee
af
02
d0
03
ee
b0
02
ad
d9
02
8d
ad
02
ad
da
02
8d
ae
02
ad
de
02
8d
d5
02
ad
df
02
8d
d6
02
4c
94
be
a5
83
18
2a
2a
2a
69
00
a8
4c
81
9a
38
24
18
08
20
87
9d
ad
19
ff
29
7f
e0
04
f0
19
b0
27
ad
15
ff
29
7f
ca
30
0f
a5
86
ca
30
0a
a5
85
ca
30
05
ad
16
ff
29
7f
28
b0
05
4a
4a
4a
4a
18
69
00
29
0f
a8
4c
81
9a
4c
1c
99
20
87
9d
ca
e0
02
b0
f5
bd
fb
bf
aa
78
8e
08
ff
ad
08
ff
8e
08
ff
cd
08
ff
d0
f2
58
49
ff
a8
29
0f
aa
bd
f0
bf
c0
0f
90
02
09
80
a8
4c
81
9a
00
01
05
00
07
08
06
00
03
02
04
fa
fd
20
87
9d
