:100000000000384404344C4C38000000000000006C
:100010000000102844447C4444000000000000001C
:100020000000782424382424780000000000000018
:100030000000384440404044380000000000000008
:10004000000078242424242478000000000000000C
:1000500000007C40407040407C0000000000000038
:1000600000007C4040704040400000000000000064
:100070000000384440404C443800000000000000BC
:1000800000004444447C444444000000000000005C
:1000900000003810101010103800000000000000A0
:1000A00000000404040404443800000000000000C0
:1000B0000000444850605048440000000000000028
:1000C00000004040404040407C0000000000000034
:1000D0000000446C545444444400000000000000FC
:1000E0000000444464544C444400000000000000FC
:1000F000000038444444444438000000000000003C
:1001000000007844447840404000000000000000B7
:10011000000038444444544834000000000000000B
:10012000000078444478504844000000000000007B
:10013000000038444038044438000000000000004B
:1001400000007C10101010101000000000000000D3
:1001500000004444444444443800000000000000CF
:100160000000444444282810100000000000000053
:10017000000044444444546C44000000000000006B
:1001800000004444281028444400000000000000FF
:10019000000044442810101010000000000000006F
:1001A00000007C04081020407C00000000000000DB
:1001B000000038202020202038000000000000002F
:1001C00000000040201008040000000000000000B3
:1001D0000000380808080808380000000000000087
:1001E0000000103854101010100000000000000033
:1001F00000000010207C2010000000000000000023
:1002000000000000000000000000000000000000EE
:10021000000010101010100010000000000000007E
:100220000000282828000000000000000000000056
:10023000000028287C287C282800000000000000FE
:100240000000103C5038147810000000000000003E
:10025000000060640810204C0C000000000000004A
:1002600000002050502054483400000000000000DE
:10027000000010102000000000000000000000003E
:1002800000000810202020100800000000000000DE
:1002900000002010080808102000000000000000E6
:1002A0000000001054383854100000000000000016
:1002B00000000010107C1010000000000000000082
:1002C00000000000000000202040000000000000AE
:1002D00000000000007C00000000000000000000A2
:1002E00000000000000000001000000000000000FE
:1002F0000000000408102040000000000000000082
:10030000000038444C5464443800000000000000F1
:100310000000103010101010380000000000000025
:1003200000003844043840407C0000000000000019
:1003300000003844040804443800000000000000B5
:100340000000081828487C08080000000000000091
:1003500000007C40780404443800000000000000E5
:10036000000038404078444438000000000000009D
:1003700000007C0408102040400000000000000045
:1003800000003844443844443800000000000000B5
:1003900000003844443C0404380000000000000021
:1003A000000000001000001000000000000000002D
:1003B00000000000100000101020000000000000ED
:1003C000000008102040201008000000000000007D
:1003D000000000007C007C00000000000000000025
:1003E0000000201008040810200000000000000099
:1003F0000000384404081000100000000000000055
:100400000000102844000000000000000000000070
:100410000000000038043C443C00000000000000E4
:100420000000404058644464580000000000000090
:100430000000000038444044380000000000000084
:1004400000000404344C444C340000000000000060
:100450000000000038447C4038000000000000002C
:1004600000000814103810101000000000000000F8
:1004700000000000344C444C3404380000000000FC
:100480000000404058644444440000000000000064
:1004900000001000301010103800000000000000B4
:1004A00000000400040404044438000000000000BC
:1004B000000040404850605048000000000000002C
:1004C0000000301010101010380000000000000074
:1004D0000000000078545454540000000000000054
:1004E0000000000058644444440000000000000084
:1004F00000000000384444443800000000000000C0
:1005000000000000784444447840400000000000AF
:10051000000000003C4444443C040400000000008F
:10052000000000005864404040000000000000004F
:10053000000000003C40380478000000000000008B
:10054000000020207020202418000000000000007F
:10055000000000004444444C34000000000000004F
:100560000000000044444428100000000000000087
:10057000000000004454542828000000000000003F
:100580000000000044281028440000000000000083
:10059000000000004444443C043800000000000017
:1005A000000000007C0810207C000000000000001B
:1005B00000000810102010100800000000000000CB
:1005C00000001010100010101000000000000000CB
:1005D0000000201010081010200000000000000093
:1005E000000020540800000000000000000000008F
:1005F00000000000000000007C000000000000007F
:00000001FF
