-- http://srecord.sourceforge.net/
--
-- Generated automatically by srec_cat -o --mif
--
DEPTH = 8192;
WIDTH = 8;
ADDRESS_RADIX = HEX;
DATA_RADIX = HEX;
CONTENT BEGIN
0000: 10 CE 00 FA BD DF 21 4F 52 43 48 45 53 54 52 41 2D 39 30 2F 43 43 20 28;
0018: 54 4D 29 0D 53 4F 46 54 57 41 52 45 20 41 46 46 41 49 52 2C 20 4C 54 44;
0030: 2E 0D 43 4F 50 59 52 49 47 48 54 20 31 39 38 34 20 4A 4F 4E 20 42 4F 4B;
0048: 45 4C 4D 41 4E 0D 4C 49 43 45 4E 53 45 44 20 54 4F 20 54 41 4E 44 59 20;
0060: 43 4F 52 50 4F 52 41 54 49 4F 4E 0D 41 4C 4C 20 52 49 47 48 54 53 20 52;
0078: 45 53 45 52 56 45 44 0D 56 45 52 53 49 4F 4E 20 30 31 2E 30 31 2E 30 30;
0090: AF 20 57 49 4C 4C 49 41 4D 20 54 45 4C 4C 20 4F 56 45 52 54 55 52 45 AF;
00A8: 20 42 59 20 52 4F 53 53 49 4E 49 A0 A0 A0 A0 A0 A0 CE 51 3D 36 36 5A 32;
00C0: 4B 34 23 3C 33 4F 31 CD D9 41 28 51 2E 36 2C 53 36 3B 36 3B 29 31 49 36;
00D8: 3B 34 3B 32 3B 34 3B 36 3B 34 3B 36 3B 39 3B CD B6 3B 34 3B 32 3B 34 3B;
00F0: 36 3B 34 3B 36 3B 39 3B D6 32 59 41 51 2E 32 2C 53 32 3B 32 3B 51 2E 32;
0108: 2C 53 34 3B 34 3B D6 33 59 45 48 2E 2E 24 53 32 3B 32 3B CD A8 51 2E 36;
0120: 2C 53 36 3B 36 3B 29 33 D6 32 49 34 3B 33 3B 32 3B 33 3B 34 3B 36 3B 35;
0138: 3B 34 3B 33 3B 34 3B 33 3B 35 3B 34 3B 33 3B 32 3B 34 3B D6 33 32 3B 40;
0150: 31 3B 33 3B 31 3B 2A 32 3B 34 3B 33 3B 32 3B 2D 31 3B 32 3B 2D 31 3B 33;
0168: 3B 32 3B 2D 31 3B 2D 33 3B 32 3B D0 30 33 B6 3B 53 28 36 3B 36 3B 49 29;
0180: 31 D6 32 33 3B 53 28 33 3B 33 3B 49 29 31 D6 33 28 31 3B 53 31 3B 31 3B;
0198: 49 31 3B 31 3B C0 56 34 59 41 29 31 A8 52 30 33 29 32 D0 20 AA 57 36 D6;
01B0: 32 33 D6 33 31 C0 56 34 46 48 24 D0 30 35 D5 2B 37 53 31 3B 31 3B D6 33;
01C8: 59 42 33 3B 33 3B D6 34 35 3B 35 3B D0 30 36 A8 4D B1 31 2C 31 3B 31 3B;
01E0: D6 33 33 33 2C 33 3B 33 3B D6 34 35 35 2C 35 3B 35 3B 29 31 D0 30 37 AA;
01F8: 49 32 2C 33 2C 34 2C 40 53 31 3B 31 3B D6 32 49 28 31 2C 29 32 D6 33 28;
0210: 33 2C 29 32 53 33 3B 33 3B D6 34 49 28 35 2C 29 32 53 35 3B 35 3B CD B1;
0228: 31 2C 31 3B 31 3B 2A 32 32 2C 34 3B 34 3B C0 56 32 51 24 49 28 31 3B 53;
0240: 29 32 A8 56 33 33 33 2C 33 3B 33 3B D6 34 35 35 2C 35 3B 35 3B 29 31 CD;
0258: AA 49 33 2C 31 2C 40 31 2C 53 31 3B 31 3B D6 32 49 28 31 2C 29 32 D6 33;
0270: 28 34 2C 29 32 53 33 3B 33 3B D6 34 49 28 36 2C 29 32 53 35 3B 35 3B D2;
0288: 30 36 D0 30 38 AA 49 32 2C 33 2C 34 2C 53 32 34 C0 56 32 49 28 31 2C 29;
02A0: 32 53 31 3B 31 3B D6 33 49 28 33 2C 29 32 53 33 3B 33 3B D6 34 49 28 35;
02B8: 2C 29 32 53 35 3B 35 3B CD AA 51 36 53 36 35 34 33 C0 28 56 32 32 32 2C;
02D0: 32 3B 32 3B D6 33 36 36 2C 36 3B 36 3B D6 34 38 38 2C 38 3B 38 3B 29 31;
02E8: CD AA 49 32 3B 34 3B 32 3B C0 56 32 24 31 3B 31 3B A8 56 33 33 3B D6 34;
0300: 35 3B 29 32 D2 30 35 59 45 56 33 59 45 52 30 36 52 30 37 52 30 36 52 30;
0318: 38 D0 20 AA 55 30 59 41 53 42 3B 42 3B D6 32 39 3B 39 3B C0 56 33 59 41;
0330: 30 3B 30 3B D6 34 37 3B 37 3B D0 31 33 A8 4D AA 42 42 2C 42 3B 42 3B D6;
0348: 32 39 39 2C 39 3B 39 3B D6 33 30 30 2C 30 3B 30 3B C0 56 34 37 37 2C 37;
0360: 3B 37 3B 29 31 A8 4D AA 49 42 3B 45 3B D6 32 39 3B 37 3B D6 33 30 3B 24;
0378: D6 34 2D 37 3B 24 29 31 D0 31 34 C2 3B 45 3B 42 3B 41 3B 39 3B 38 3B 37;
0390: 3B 53 42 3B 42 3B D6 32 49 39 3B 37 3B 39 3B 38 3B 37 3B 37 3B 34 3B 53;
03A8: 39 3B 39 3B C0 56 33 49 30 3B 24 33 3B 24 33 3B 34 3B 35 3B 53 30 3B 30;
03C0: 3B D6 34 49 37 3B 24 41 3B 24 28 37 3B 29 32 53 37 3B 37 3B D2 31 33 D0;
03D8: 31 35 AA 49 42 3B 45 3B 44 3B 43 23 3B D6 32 39 3B 37 3B 41 3B 39 3B D6;
03F0: 33 30 3B 24 31 3B 30 3B C0 56 34 37 3B 24 34 3B 34 3B D0 20 AA 44 3B 43;
0408: 23 3B 44 3B 53 42 23 3B 42 3B D6 32 49 38 3B 37 3B 38 3B 53 39 3B 39 3B;
0420: C0 56 33 49 31 3B 32 23 3B 31 3B 53 30 3B 30 3B D6 34 49 28 38 3B 29 32;
0438: 53 37 3B 37 3B D2 31 33 52 31 34 52 31 33 52 31 35 D0 20 AA 28 44 3B 43;
0450: 23 3B 45 3B 43 3B 29 33 D6 32 38 3B D6 33 59 43 49 2D 31 3B 24 24 28 53;
0468: 33 3B 33 3B 49 33 3B 29 31 34 3B C0 56 34 38 3B 24 24 28 53 31 3B 31 3B;
0480: 31 31 2C 29 31 2A 32 3B CD A8 44 3B 43 23 3B 45 3B 43 3B 29 33 D6 33 49;
0498: 35 3B 33 33 22 35 3B 34 3B 32 32 22 34 3B D6 34 33 3B 2D 31 2D 31 22 33;
04B0: 3B 32 3B 2D 33 2D 33 22 32 3B CD D3 44 3B 43 23 3B 45 3B 43 3B 49 44 2C;
04C8: C0 56 32 24 31 3B 31 3B D6 33 24 34 3B 34 3B D6 34 2B 33 3B 36 3B 36 3B;
04E0: D0 20 A8 4D AA 59 42 53 41 3B 41 3B 41 41 2C D6 32 59 43 36 3B 36 3B 36;
04F8: 36 2C D6 33 33 3B 33 3B 33 33 2C C0 56 34 31 3B 31 3B 49 31 3B 29 31 CD;
0510: AA 42 3B 43 2C 41 41 22 43 3B 42 2C 39 39 22 42 3B 41 2C 53 36 3B 36 3B;
0528: 49 36 3B D6 32 39 3B 41 2C 36 36 22 41 3B 39 2C 34 34 22 39 3B 38 2C D6;
0540: 34 32 3B D6 33 34 3B 40 28 2B 35 2C 38 2C 37 2C 36 2C 35 2C 34 2C 33 2C;
0558: 32 2C 31 2C D6 34 29 31 D2 30 35 59 41 56 32 59 41 56 33 59 41 52 30 36;
0570: 52 30 37 52 30 36 52 30 38 D2 30 35 59 45 56 33 59 45 52 30 36 52 30 37;
0588: 52 30 36 52 30 38 D0 20 5A 31 AA 59 41 53 28 36 3B 36 3B D6 32 29 31 C0;
05A0: 56 34 31 3B 31 3B A8 4D AA 36 36 2C 36 3B 36 3B D6 32 36 36 2C 36 3B 36;
05B8: 3B C0 56 34 31 31 2C 31 3B 31 3B 29 31 CD AA 49 28 42 3B 43 3B 44 3B 24;
05D0: 39 3B 41 3B 42 3B D6 32 29 31 D6 34 34 3B 35 3B 36 3B 24 32 3B 33 3B 34;
05E8: 3B 24 CD C2 3B 43 3B 44 3B D6 32 34 3B 35 3B 36 3B C0 56 34 33 3B 32 3B;
0600: 31 3B 48 24 CD AA 53 36 36 23 37 38 25 38 23 39 39 23 41 C0 28 56 32 53;
0618: 34 3B 31 3B D6 33 59 41 36 3B 24 D6 34 38 3B 24 29 33 CD AA 55 2B 37 53;
0630: 34 25 34 23 35 35 23 36 36 23 37 38 C0 28 56 32 53 34 3B 31 3B D6 33 36;
0648: 3B 24 D6 34 38 3B 24 29 33 A8 4D AA 59 43 53 39 38 41 38 D6 32 59 44 39;
0660: 38 41 38 C0 56 33 49 33 3B 32 3B D6 34 35 3B 38 3B 29 37 CD AA 55 30 47;
0678: 3B 53 28 47 39 29 32 C0 56 32 59 41 51 24 53 28 31 3B 2B 32 3B 29 31 D6;
0690: 33 59 45 49 33 3B 24 53 33 3B 24 33 3B D6 34 49 35 3B 24 53 35 3B 24 35;
06A8: CD AA 49 47 3B 53 28 44 36 29 32 49 44 3B 53 28 42 34 29 32 49 42 3B 53;
06C0: 28 39 32 29 32 C0 56 32 28 49 31 3B 53 31 3B 31 3B 49 31 3B 2B 32 3B 29;
06D8: 31 A8 56 33 33 3B 53 33 3B 33 3B 49 33 3B 31 3B D6 34 35 3B 53 35 3B 35;
06F0: 3B 49 35 3B 33 3B 29 32 CD AA 28 39 3B 53 39 3B;
0700: 39 3B 49 39 3B 39 3B 39 3B 53 36 3B 36 3B 49 36 3B 36 3B 36 3B D6 32 29;
0718: 31 C0 56 33 33 3B 28 2B 32 3B 29 33 28 31 3B 29 33 D6 34 28 35 3B 29 34;
0730: 28 38 3B 29 33 CD AA 28 53 34 3B 34 3B 49 34 3B 34 3B 34 3B 53 32 3B 32;
0748: 3B 49 32 3B 32 3B D6 32 29 31 C0 56 33 28 33 3B 29 33 28 35 3B 29 32 D6;
0760: 34 28 41 3B 29 33 28 43 3B 29 32 CD A8 2A 56 31 32 3B 2D 31 3B D6 32 32;
0778: 3B 2D 31 3B C0 56 33 35 3B 38 3B 29 31 D6 34 55 37 43 3B 38 3B 35 3B 38;
0790: 3B CD AA 28 34 3B 32 3B 36 3B 34 3B 39 3B 36 3B 42 3B 39 3B 44 3B 42 3B;
07A8: D6 32 29 31 C0 56 33 28 33 3B 35 3B 31 3B 33 3B 35 3B 38 3B 33 3B 35 3B;
07C0: 31 3B 33 3B D6 34 29 31 CD AA 51 2E 47 2C 53 47 3B 47 3B D6 32 51 2E 42;
07D8: 2C 53 42 3B 42 3B D6 33 55 37 51 2E 39 2C 53 39 3B 39 3B D6 34 51 2E 32;
07F0: 2C 53 32 3B 32 3B CD A8 56 31 49 47 3B D6 32 42 3B D6 33 39 3B 29 33 D6;
0808: 34 32 40 31 33 31 CD AA 51 2E 47 2C 53 24 47 3B 51 2E 47 2C 53 24 39 3B;
0820: 57 39 D6 32 51 2E 42 2C 53 24 42 3B 51 2E 42 2C 53 24 2D 33 3B 57 2D 33;
0838: D6 33 51 2E 39 2C 53 24 36 3B 51 2E 36 2C 40 53 24 31 3B 57 31 D6 34 51;
0850: 2E 35 2C 53 24 35 3B 51 2E 35 2C 53 24 43 3B 57 43 39 BD D7 0D 2B 15 8E;
0868: CF E2 BD D6 50 25 3E 97 96 A6 41 80 57 27 02 86 FF 43 97 97 86 FE 97 6F;
0880: 9E 60 6D 84 2A 04 86 0D 8D 10 A6 80 84 7F 27 D1 81 60 25 02 80 40 8D 02;
0898: 20 E8 6E 9F A0 02 BD CA DF 9E 62 69 84 4F 66 84 BD CA C2 20 36 7E CC 02;
08B0: C6 02 5A D7 58 9E 62 96 58 30 86 9C 74 22 EE 9C 5E 25 EA 34 10 33 21 A6;
08C8: C0 2B 16 A8 80 48 27 F7 35 10 20 E3 0D B9 26 02 0C 5C 10 AF E4 8D 29 35;
08E0: 90 35 10 9F 62 30 01 6D 82 2A FC BD CA BB 33 88 1E 11 93 62 24 40 A6 84;
08F8: 48 27 39 C6 1F 30 01 6D 84 2B E8 5A 26 F7 20 E3 8E 04 20 20 0C 9E 74 9F;
0910: 5D 9F 5E 7E CA B9 8E 04 00 86 01 C6 8F E7 80 1E 10 C5 1F 1E 10 26 F6 4A;
0928: 26 F3 39 9E 74 8D E0 9E 5E 8C 9E 74 8D DD 86 06 DE 60 C6 1F 11 93 5E 27;
0940: 0A 6D C2 2B 03 5A 26 F9 4A 26 EF 8E 04 40 E6 1F D7 6B 4D 27 02 8D C4 30;
0958: 1F D6 6B F7 04 3F 1F 10 CA E0 5C 27 04 6D C4 2A 0B 69 C4 53 66 C4 8D A9;
0970: 9C AD 27 26 E6 C4 C4 7F 26 02 C6 8F 11 93 62 26 0C 9F 88 0D 55 26 06 C8;
0988: 40 2A 02 C8 4F E7 80 E6 C0 58 26 C5 8D 83 9C AD 26 FA 39 03 CB E1 0A CA;
09A0: 84 0B CA 70 0D CA 80 1A CA A7 1B C8 9E 1D CA 80 21 CA D1 3F CA 7C FF A6;
09B8: 01 A7 80 6D 84 2A F8 39 30 A8 1F 9C 88 27 06 A6 82 A7 01 20 F6 86 60 A7;
09D0: 84 39 03 DD A4 08 CA 62 09 CA 5B 0C CB 2C 0D C8 DA 13 CA 12 18 C9 BB 19;
09E8: C9 C0 1C CB 3C 1D C8 D4 FF 8E 00 53 C6 0A 6F 80 5A 26 FB 39 10 8E 04 00;
0A00: 0D 58 26 03 BD C9 16 10 9F 88 8D E5 20 14 BD C9 16 5A 5C D7 58 BD C9 08;
0A18: 10 8E 05 00 C6 08 D7 55 D7 54 F7 FF 22 0D 54 27 03 BD C9 36 C6 8F E7 A8;
0A30: 1F BD CC 09 8D 02 20 ED 97 54 0D 55 27 06 8E C9 9B BD CB D1 0F 54 8E C9;
0A48: D2 BD CB D1 81 20 25 0A 8A 40 A7 80 1F 10 C5 20 27 13 39 6D 80 2A 0E 0F;
0A60: 89 39 0A 89 2A FB 8C 30 01 6D 84 2A FA 9F 88 39 8D 6D 9C 5E 27 1E 6D 82;
0A78: 2A F8 20 18 9E 74 8D 39 1F 21 9F 88 8D 59 9C 74 27 2F 30 01 6D 84 2A F6;
0A90: 9C 74 27 25 8D 25 5F D1 89 27 06 5C 6D 85 2A F7 5A 3A 9F 62 9E 60 39 8D;
0AA8: 36 9E 62 D6 89 26 0C C6 01 8D 5D 9E 62 C6 60 E7 82 9F 62 9F 60 69 84 53;
0AC0: 66 84 C6 80 E7 9F 00 74 EA 9F 00 5E E7 9F 00 5E 39 0F 89 8E 08 00 BD C9;
0AD8: 19 8D 95 8D CC 1F 21 1F 10 5F 1F 01 5A 5C 6D 85 2A FB 34 06 4F 9E 60 9C;
0AF0: 74 27 07 4C 6D 86 2A FB 30 86 34 16 E0 E0 27 02 8D 0E 35 54 5D 27 8D A6;
0B08: C2 A7 82 5A 26 F9 20 84 D7 5D 50 2A 36 9E 5E 33 85 11 83 10 64 10 23 06;
0B20: F8 DF 5E A6 80 A7 C0 9C 60 25 F8 39 BD C9 19 0D 55 27 08 0D 89 26 04 C6;
0B38: 60 E7 A4 39 1F 21 9F 88 BD C9 19 0D 55 27 F4 0C 54 20 94 9E 60 33 85 A6;
0B50: 82 A7 C2 9C 5E 22 F8 27 02 33 41 DF 5E 39 40 D4 8D 41 D1 70 42 C9 32 43;
0B68: D0 21 44 D3 2D 45 CA 0E 47 CB B9 4B D2 F8 4C C8 62 4D CB AA 4E C9 2B 4F;
0B80: DC AC 50 D8 5B 52 D1 69 53 D4 B9 54 C9 2F 56 D1 62 57 D0 A8 58 DD AB 61;
0B98: DA 1F 6D C8 B2 6F C8 B0 74 D4 D3 75 D4 D3 7F DA 23 FF BD D7 0D 2B 31 97;
0BB0: 58 96 58 27 34 10 8E 04 00 10 9F 64 97 57 32 62 10 9E 64 BD D1 69 BD CE;
0BC8: B7 BD D4 B9 BD D8 69 20 EF 30 03 A1 1D 25 06 26 F8 AE 1E AF E4 9E 88 5F;
0BE0: 39 BD CA DF 0F 55 BD C9 36 10 CE 00 FA BD CE B7 8D 02 20 F5 8D 65 BD C9;
0BF8: FC A6 A4 2B EC 8E CB 5E 8D CF CC 7F 7F FD 04 20 39 0F 6A 9E 88 E6 84 D7;
0C10: AF 8D 0C 0D B0 27 FA 96 87 08 94 25 F4 20 25 9E 88 E6 84 0D 6A 26 06 C8;
0C28: 40 2A 02 C8 4F E7 84 8D 2A 26 09 0A 6A D6 6A C5 3F 26 E4 39 32 62 97 87;
0C40: C6 FC D7 94 D6 AF E7 9F 00 88 39 8E 04 5E 0D 70 10 27 07 B4 C6 9D 13 5A;
0C58: 26 FC 39 CE FF 00 8E 00 B0 6F 80 4F 4A 34 12 A7 42 69 42 24 3E 6C E4 8D;
0C70: 7B A7 61 1F 89 A8 84 E7 84 DA B0 D7 B0 A4 80 27 E8 E6 42 E7 62 C6 F8 CB;
0C88: 08 44 24 FB EB E4 C1 1A 22 1D 0D 70 27 04 8D 44 26 02 CB 40 E7 E4 8D AB;
0CA0: A6 62 8D 46 A1 61 26 03 E6 E4 8C 6F E4 35 92 8E CC DE C1 21 25 16 8E CC;
0CB8: C0 C1 30 24 0F 8D 24 C1 2B 23 02 88 40 4D 26 D4 CB 10 20 D0 58 0D 70 27;
0CD0: 02 CB 12 8D 0E 27 01 5C E6 85 20 C0 86 EF 8D 24 84 08 39 86 7F 8D 1D 84;
0CE8: 40 39 A7 42 8D 18 6D 42 2B 03 84 3F 39 0D 70 27 08 E6 42 C1 EF 26 02 84;
0D00: 77 1A 01 39 A7 42 0D 70 27 04 13 96 6A 8C A6 C4 43 84 7F 39 0B 1B 0A 1A;
0D18: 08 18 09 19 20 20 30 5F 0D 1D 0C 1C 03 13 5E 5C 00 00 08 5B 09 5D 20 20;
0D30: 30 5F 0D 0D 1B 80 FF 8F 20 3F 54 50 4D 4F 52 50 4F 56 45 52 4C 41 50 3F;
0D48: 8D 02 1F 98 E6 01 54 54 54 54 EA 81 39 6F 84 8C 6C 84 A3 63 24 FA E3 63;
0D60: 39 A6 49 8B 0F D6 66 3D 97 1C 30 41 8D DA DD 18 8D D6 DD 1A DC 18 26 04;
0D78: DC 1A DD 18 D3 18 24 04 98 1A D8 1B DD 18 84 80 27 02 96 1C A7 9F 00 16;
0D90: 0C 17 26 E0 7E CE 5A 34 14 8E 00 6B 1F 89 4F 8D B4 1F 98 E6 E4 30 01 8D;
0DA8: AC 35 14 DC 6B 39 BD DA E4 8E CE E2 CE 08 00 BD D4 AA 35 20 C6 80 30 85;
0DC0: A6 80 40 A7 C0 5A 26 F8 0F 56 10 8E 0F 00 86 0A 97 16 CC 0A 04 97 6C A6;
0DD8: A0 A1 A8 31 34 01 E4 E0 A7 A8 31 0A 6C 26 F0 5D 26 70 0F 17 33 36 6D C4;
0DF0: 10 27 FF 6D 86 08 9E 8A 9F 14 E6 C6 3A 4A 26 FA;
0E00: 86 08 34 02 5F A6 C6 27 07 8D 8C 4A 2B 02 C6 FF 35 02 E7 C6 4A 26 EB 8D;
0E18: 6A 4D 2A 02 8D 57 10 93 14 25 02 DD 14 0C 17 2A EE DC 14 8D 4F 34 06 AE;
0E30: E1 27 06 96 67 5F BD CD 97 D7 14 0F 17 8D 44 D6 14 8D 2D 8D 37 1F 98 E6;
0E48: 49 CB 0F 8D 23 9B 67 2A 01 4F A7 9F 00 16 0C 17 26 E3 96 16 4C 81 0F 10;
0E60: 25 FF 6D 0D 5A 26 48 0D 59 27 41 BD C9 0D 20 3F 4D 2A 6C 40 3D 53 43 C9;
0E78: 00 89 00 39 8D 00 8D 00 47 56 39 6F E2 6F E2 86 08 34 02 E6 C6 27 16 34;
0E90: 04 5F DB 17 4A 26 FB 8E 08 00 3A A6 84 35 04 8D CF E3 61 ED 61 35 02 4A;
0EA8: 26 DF 35 86 BD C9 2F 0F 5D 0F 59 10 CE 00 F8 1A FF 1F AB 0F D8 0F D6 0F;
0EC0: C6 CC 35 3C 97 01 D7 03 4A 97 21 D7 23 0D 02 0F 22 CC 00 03 DA 7F D7 7F;
0ED8: 0F 40 1F 8B 0F A0 39 3D 39 80 00 01 02 03 04 05 06 07 08 09 0A 0B 0C 0D;
0EF0: 0E 0F 10 11 12 13 14 15 16 17 18 18 19 1A 1B 1C 1C 1D 1E 1F 1F 20 21 21;
0F08: 22 23 23 24 24 25 25 26 26 27 27 27 28 28 29 29 29 29 2A 2A 2A 2A 2A 2A;
0F20: 2A 2A 2A 2A 2A 2A 2A 2A 2A 2A 2A 29 29 29 29 28 28 27 27 27 26 26 25 25;
0F38: 24 24 23 23 22 21 21 20 1F 1F 1E 1D 1C 1C 1B 1A 19 18 18 17 16 15 14 13;
0F50: 12 11 10 0F 0E 0D 0C 0B 0A 09 08 07 06 05 04 03 02 01 00 02 03 05 06 08;
0F68: 09 0B 0C 0E 0F 11 12 14 15 17 18 1A 1B 1D 1E 1F 21 22 23 25 26 27 28 29;
0F80: 2B 2C 2D 2E 2F 30 31 32 33 34 35 36 36 37 38 39 39 3A 3B 3B 3C 3C 3D 3D;
0F98: 3E 3E 3E 3F 3F 3F 3F 3F 3F 3F 3F 3F 3F 3F 3F 3F 3F 3F 3E 3E 3E 3D 3D 3C;
0FB0: 3C 3B 3B 3A 39 39 38 37 36 36 35 34 33 32 31 30 2F 2E 2D 2C 2B 29 28 27;
0FC8: 26 25 23 22 21 1F 1E 1D 1B 1A 18 17 15 14 12 11 0F 0E 0C 0B 09 08 06 05;
0FE0: 03 02 71 29 72 12 73 B4 76 57 FF 01 E0 F0 A0 50 40 40 00 00 E0 01 40 80;
0FF8: F0 80 F0 20 00 00 F0 01 E0 00 50 00 F0 00 00 00 A0 01 F0 40 00 80 00 00;
1010: 00 00 B0 01 40 F0 20 80 10 40 00 00 D0 29 2A 2C 68 0F A9 39 7E D2 06 0F;
1028: 8E CC 01 20 97 A1 A6 A5 4C 26 1D E7 C4 33 A5 86 C0 A7 C4 34 04 1F 98 44;
1040: 81 11 25 01 4C C4 01 27 02 C6 09 5C DD A3 35 84 DB A1 2B D0 C1 44 26 D6;
1058: 00 A1 C6 1F 20 D0 0C 5B BD D2 FB BD D3 89 BD D3 70 25 B9 A6 84 27 03 4C;
1070: 26 F4 CE 00 0D 8D B0 DC 5E DD 7E 86 20 97 9F 86 08 91 8E 24 02 8D A0 BD;
1088: D3 AB 0C 7E 0C A4 0C 8E 0A 0E 2A EB 0C 0E 96 8E 8A C0 A7 C4 9E 8A DE 8C;
10A0: C6 10 BD D4 B1 7E D3 22 9E 5E 8D 45 10 2B FB 01 DC 74 93 5E DD 0E 0D A9;
10B8: 26 A4 AD 9F A0 0C 8D 2D CC 50 FF 4A 26 FD 4C DD 7C 9E 12 CE 08 02 DF 7E;
10D0: BD D4 B1 9F 12 CC FF 01 D3 0E DD 0E 2A E0 C3 00 FF D7 7D 27 03 4D 2A D6;
10E8: CC FF 00 DD 7C 6E 9F A0 08 9F 12 BD C9 08 BD D7 0D DF 64 9E 8A 9F A1 CC;
1100: 00 0F DD 7C 86 20 A7 80 5A 2A FB 86 01 DD 0B 0F 0D 9E 8A 0D A9 26 02 30;
1118: 03 9F 7E E7 84 C6 08 A6 C0 2B 31 81 60 27 2D 81 7A 27 1D 81 6F 27 11 85;
1130: 20 27 02 84 BF A7 80 81 2A 26 02 97 A1 5A 26 DF A6 C0 2B 10 81 7A 26 F8;
1148: A6 C0 80 70 81 04 97 A2 10 24 00 B2 96 03 9A 00 2B 06 0D A1 26 02 0F A7;
1160: 4D 39 0D A9 10 26 FA 9A 21 CC DC 8A 9E 74 20 04 9E 5E 4F 5C DD 6B BD D0;
1178: F1 10 2B FA 34 8E 08 02 9F 7E 0D 6B 27 03 BD C9 2B 0D A9 10 26 00 C5 8E;
1190: 04 20 CC 0F 13 E7 80 BD C9 1B AD 9F A0 04 8D 6A 0D 7C 2B E5 26 F4 CE 04;
11A8: 22 BD D3 08 30 18 CE 00 03 C6 08 A6 C0 81 2A 27 07 A1 80 26 DD 5A 26 F3;
11C0: 3A EE 84 11 93 0B 26 D2 0D 81 26 3A EE 03 DF 0E DC 12 93 0E 25 43 10 83;
11D8: 10 64 23 3D 1F 03 0D 6C 27 02 DF 5E 11 93 5E 26 1D 86 46 B7 04 20 DF 12;
11F0: 8D 18 4D 26 11 0D 7C 27 0D 2B 45 DE 12 D6 7D 27 ED BD D4 95 27 E8 86 77;
1208: 20 17 B6 04 20 88 40 B7 04 20 AD 9F A0 06 9E 7E 39 86 71 0D 59 27 02 0F;
1220: 56 B7 04 3E CC 45 52 F7 04 3C FD 04 3A 0D 56 27 05 30 5F BD C8 E3 0D 59;
1238: 27 03 BD C9 0D 7E DD A4 9E 5E 86 8F B7 04 20 7E C9 2D 0D 58 27 B8 0D A7;
1250: 27 B4 0F A7 8D 6B 25 F2 C6 03 8D 60 30 10 CE 04 22 BD D3 08 1F 31 BD C9;
1268: 19 8E 0F 64 9F 02 D6 0D 2B 29 BD D0 3B 86 09 E6 A5 D7 0D 2A 06 1F 98 84;
1280: 0F 27 83 97 8E DC 02 4C 10 93 12 24 8C 5F 8D 28 BD D3 AB 0C A4 0A 8E 26;
1298: EC 20 D3 DC 0E 27 02 8D 17 8E 10 64 9F 5E 9E 12 8D 02 20 96 A6 C2 8A 40;
12B0: A7 82 11 93 5E 22 F5 39 9E 7E DE 02 8D 37 DF 02 39 53 06 5B BD D3 8B BD;
12C8: D3 70 25 47 6D 84 2F F7 CE 00 08 30 08 C6 05 BD D4 99 26 EB DE 8A 30 13;
12E0: C6 0D BD D4 99 27 2C 0D 5B 2A DC 81 2A 26 D8 97 A7 30 1F 33 5F 7E D4 B1;
12F8: BD D0 F1 0F A7 8D C5 24 13 0D 5B 26 0E 7E D2 06 C6 08 A6 80 8A 40 A7 C0;
1310: 5A 26 F7 39 A6 84 E6 A6 6F A6 6A A6 E7 84 2A F4 6F 13 8D 78 86 20 8E 09;
1328: 00 C6 02 20 76 5C D7 A9 0F A2 BD D7 0D 2B 03 BD D0 F1 8D 4D 8E 04 40 1F;
1340: 13 86 0E BD C9 1B 8D 28 25 C9 A6 84 2F F8 A6 08 E6 0B E4 0C 10 83 20 01;
1358: 26 EC 8D AC 1F 30 C5 1F 27 02 33 44 11 93 AD 25 DD BD CC 5B 27 FB 20 CC;
1370: 9E 8C 30 88 20 8C 09 00 25 0B 0C A6 D6 A6 C1 0C 24 14 4F 8D 19 4F 9F 8C;
1388: 39 0F A7 4F 8D 98 1F 12 0D A7 26 0A 9F 8C 86 02 97 A6 43 39 86 20 8E 08;
13A0: 00 D6 A6 97 9F 86 11 DD A3 9F 7E 34 74 CE FF 40 C6 04 D7 6B DC A2 8E D0;
13B8: 1D A6 86 C1 16 25 02 8A 10 A7 C4 0D A0 26 04 8D 3F 8D 3D 97 A0 8D 29 26;
13D0: 04 0F A5 8D 49 96 A5 27 0C 0A 6B 10 27 FE 27 8D 06 26 F2 20 CF 35 F4 8E;
13E8: 00 FC D6 A2 6F 85 86 03 8D 04 84 10 20 25 8D 15 9E 8A 30 1F 27 15 A6 48;
1400: 85 01 26 F6 39 8E 23 45 30 1F 26 FC 39 A7 48 34 06 35 86 86 D0 8D F6 A6;
1418: 48 8A 80 97 A5 39 8E 00 FC D6 A2 A6 85 A7 49 91 A3 27 12 96 A3 A7 4B A7;
1430: 85 86 17 8D C1 26 E6 8D CC 84 18 26 DE D6 A4 E7 4A 9E 7E 10 9E 8A 6D 48;
1448: CC 80 80 D3 9F 81 A0 8D BC 86 02 97 A8 25 14 A5 48 26 08 31 3F 26 F8 0F;
1460: A8 20 B0 A6 80 A7 4B E7 C4 20 F8 A5 48 26 06 31 3F 26 F8 20 EA A6 4B A7;
1478: 80 E7 C4 20 F8 7D 00 A8 26 01 3B 32 6C 0F A8 A6 48 84 7C 20 8E 32 62 4F;
1490: 8D 4A 7E CB E6 0D 6C 26 18 A6 C0 A1 80 26 03 5A 26 F7 39 6D C0 2A FC 33;
14A8: 5F 39 E6 1F 0D AA 26 01 3A A6 80 A7 C0 5A 26 F9 39 DE 5E 8D E6 A6 C0 84;
14C0: 7F 27 12 81 6F 27 F4 81 56 26 F2 A6 C4 84 7F 81 75 26 EA 80 74 97 AA 4F;
14D8: 0F 78 0A 78 DD 76 0C 56 8E D5 22 CE 00 66 8D C2 8E CF EB CE 0F 00 C6 32;
14F0: 96 AA 91 AB 27 03 58 97 AB 8D B6 BD DC 88 1E 31;
1500: C6 39 BD C9 F6 CE D5 2A 1E 13 C6 0A 8D A3 8E 0F 64 9F 51 AF 42 30 0C 9F;
1518: 7A AF C4 DE 5E 8D 24 20 FC 04 55 2A 0A 05 7F 40 06 04 00 00 00 0D 0D 0D;
1530: 0D 0D 02 60 48 60 49 18 51 30 53 0C 54 06 57 C0 58 03 FF 8D 60 4D 10 27;
1548: F8 64 8E D6 69 BD CB D1 0D 53 26 EF 8E D5 34 BD D6 50 25 2E 1F 89 D7 0E;
1560: 8D 43 81 7A 26 10 58 25 17 4F C0 03 4C 24 FB 4A 1F 89 D7 0E 8D 2F 81 6E;
1578: 26 0B 04 0E DB 0E 24 F4 86 76 7E D2 21 D7 0E 33 5F 39 D6 12 BD D6 B4 D7;
1590: 6C 8D 5E 8D 5C C8 10 34 04 CA 70 E1 E4 35 04 26 20 D6 6C 20 1C DF 62 A6;
15A8: C0 2A 10 33 5F DF 60 11 93 76 26 03 BD DA 11 A6 C0 84 7F 39 32 62 8C C6;
15C0: 70 86 FF 97 6C 9E 8A 96 10 31 86 AE A4 D7 6B A6 1F 91 6B 27 0E 84 8F 91;
15D8: 6B 26 20 86 60 A4 1F 81 60 27 18 A6 1E 9B 0E 25 12 81 FF 27 0E A7 1E 20;
15F0: 14 8E D6 59 8D 50 25 C4 EA 1F 39 96 0E A7 80 A6 84 97 6C E7 80 34 10 8E;
1608: D6 60 8D 3A 35 10 25 2B 44 24 08 1F 89 96 0E 44 5A 26 FC 1F 89 40 27 1B;
1620: AB 1E A7 1E 96 12 48 27 06 A6 1E E7 1E 1F 89 E7 80 A6 84 C6 70 E7 80 94;
1638: 6C 97 6C AF A4 0C 6C 27 B9 86 75 7E D2 21 BD D5 A5 8D 05 24 0B 33 5F 39;
1650: A1 81 25 04 26 FA A6 1F 39 63 20 65 10 66 40 FF 62 04 67 02 6C 03 7B 05;
1668: FF 40 D6 DB 4A D7 D4 4B D7 2B 4D D6 F4 4E D7 87 4F D7 9D 50 D8 3D 52 D8;
1680: 2D 55 D6 E2 56 D7 C7 59 D7 59 5A D7 B3 5F D6 D8 60 D7 86 64 D5 BF 68 D7;
1698: 71 69 D7 78 6A D6 DE 6F D4 A3 7C D7 AE 7D D7 BF 7E D7 98 FF 6B 00 6D 80;
16B0: FF BD D5 A5 34 04 8E D6 AC 8D 95 25 05 A7 E4 BD D5 A5 81 47 26 04 6D E4;
16C8: 2A 0C BD D7 FB 4D 26 02 8A 80 AA E4 A7 E4 35 84 86 E0 8C 86 80 21 4F 97;
16E0: 12 39 C6 80 8D CB 8E 00 0D 96 10 5D 2A 03 C8 7F 5C E7 86 39 34 40 BD DB;
16F8: 25 0D 17 26 0B 8E 00 19 CE 00 20 C6 23 BD D4 B1 35 40 0F 17 8C 33 21 A6;
1710: C0 2B 0A 81 60 26 F8 A6 C0 81 60 27 FA 6D C2 39 48 01 49 04 51 02 53 08;
1728: 54 10 FF 8E 00 19 C6 07 BD C9 F6 BD D5 A5 80 70 81 08 24 57 1F 89 BD D5;
1740: A5 81 66 27 0D 30 19 81 63 26 48 5A 2B 17 6C 80 20 F9 5A 2B 10 6A 82 20;
1758: F9 8D 0B 8B 0A D6 10 54 8E 00 46 A7 85 39 BD D5 A5 80 41 81 05 25 17 20;
1770: 22 DF 0A 86 FF 97 0C 39 8D 7F 0D 0C 27 08 2A 02 97 0C 0A 0C DE 0A 39 8E;
1788: D7 20 BD D6 46 97 4B 24 1C 33 41 86 73 7E D2 21 8D 5F 97 14 39 8D 5A 1F;
17A0: 89 27 08 9A 16 84 01 DA 17 C4 02 DD 16 39 8D E8 00 14 39 8D 44 91 68 24;
17B8: DA C6 05 3D D7 18 39 8D 4B 44 27 CF 97 4C 39 BD D5 A5 80 71 81 05 24 C3;
17D0: 48 97 10 39 8D 90 C6 0A 3D 8E 0F 00 3A BD D5 A5 80 52 81 02 24 E8 A7 80;
17E8: C6 09 8D 0D 48 48 48 48 A7 80 5A 26 F5 39 1C FB 39 A6 C0 84 3F 80 30 81;
1800: 0A 25 08 8B 2F 81 06 24 4D 8B 0A 39 BD D5 A5 33 5F 8D E6 48 48 48 48 34;
1818: 02 8D DE AA E0 39 8E 0F 64 8C AE 84 27 D0 9F 7C A1 02 26 F6 39 BD DA E4;
1830: 8D DA 27 1F 8D E8 26 1B AE 0A 9F 4D 39 BD DA E4 BD D5 A5 0F 45 81 60 27;
1848: F3 8D C4 97 45 27 ED 8D CD 26 E9 86 74 8C 86 72 7E D2 21 0F 56 0D 5D 26;
1860: F2 BD D7 0D 2B 03 8D A9 21 4F 8D B2 26 E5 8E DA 7A CE 08 9A 0D 5C 27 03;
1878: 33 C8 18 1F 32 BD D4 AA EC A8 16 44 56 ED A3 10 8C 08 22 26 F3 6F A2 6F;
1890: A2 EC 1E 0D 5C 27 02 47 56 ED A3 47 56 E3 A4 10 8C 08 00 26 F4 CC 7F EC;
18A8: ED A4 CE 08 B4 8E D8 E9 BD D4 AA 1F 31 CE DA AE 96 AA 48 A6 C6 34 04 3D;
18C0: 35 04 0D 5C 27 01 48 A7 85 26 02 6C 85 5C 2A E8 10 8E 00 7C CC 08 FB F7;
18D8: FF 02 0D 5C 1F 8B 27 06 7C FF D7 7C FF D9 0E B4 9C 20 61 86 00 A6 86 97;
18F0: B2 DC 20 C3 00 00 DD BF 97 EB DC 20 C3 00 00 DD C8 97 EE DC 20 C3 00 00;
1908: DD D1 97 F1 DC 20 C3 00 00 DD DA 97 F4 DC 20 C3 00 00 DD E3 97 F7 B6 0A;
1920: 00 BB 0A 00 F6 0A 00 FB 0A 00 FB 0A 00 FD FF 7A 0A B2 26 BD 0A B3 26 08;
1938: 0A B4 27 2E 96 B5 97 B3 B6 FF 00 43 48 27 A4 2A A4 7E DD 87 10 AE A4 26;
1950: 03 7E CE B3 EC 23 97 EA D7 ED EC 25 97 F0 D7 F3 A6 27 97 F6 A6 29 97 B7;
1968: EE 2A 37 06 97 B5 4C 27 DB D7 BD 37 06 97 C6 D7 CF 37 06 97 D8 D7 E1 A6;
1980: 28 97 B4 20 B7 20 6E 86 00 97 B3 B6 FF 00 43 48 27 05 2A 05 7E DD 87 86;
1998: 00 A6 86 97 B2 DC 20 C3 00 00 DD CF 97 F2 DC 20 C3 00 00 DD D8 97 F5 DC;
19B0: 20 C3 00 00 DD E1 97 F8 DC 20 C3 00 00 DD EA 97 FB B6 0A 00 BB 0A 00 F6;
19C8: 0A 00 FB 0A 00 FD FF 7A 0A B2 26 C9 0A B3 26 B3 0A B4 26 AB A6 28 97 B4;
19E0: 37 06 97 B7 4C 27 0E D7 CD 37 06 97 D6 D7 DF 37 02 97 E8 20 92 10 AE A4;
19F8: 26 03 7E CE B3 EC 23 97 F1 D7 F4 EC 25 97 F7 D7 FA A6 29 97 C7 EE 2A 20;
1A10: CB 34 76 BD DB 25 35 76 0F 53 0D 5A 27 1F 39 0C 5A 0F 5C 0C 53 32 64 DC;
1A28: 60 34 06 BD D4 D8 AE E4 BD C9 34 0D 5A 27 03 BD D8 69 7E DD A4 CE 00 0D;
1A40: 10 8E 00 46 8E 04 20 D6 69 34 04 CC 43 74 D3 A9 ED 81 CC 60 59 ED 81 CC;
1A58: 37 55 AB A0 ED 81 C6 6B A6 C1 2A 03 C6 6D 40 E7 80 8B 90 19 89 40 19 8A;
1A70: 40 A7 80 6A E4 26 DB 20 C1 1A 26 EA 29 3B 2B AF 2E 48 31 08 33 F3 37 0A;
1A88: 3A 50 3D C8 41 74 45 58 49 78 00 4E 20 08 21 EF 23 F4 26 18 28 5C 2A C2;
1AA0: 2D 4D 2F FF 32 D9 35 DF 39 14 3C 78 00 40 A5 4A 85 42 00 01 02 03 04 00;
1AB8: 02 01 03 04 02 00 01 03 04 00 02 03 01 04 02 00 03 01 04 02 03 00 01 04;
1AD0: 00 02 03 04 01 02 00 03 04 01 02 03 00 04 01 02 03 04 00 01 34 40 8D 3D;
1AE8: DE 4F EF 9F 00 51 DF 51 8E 00 43 C6 03 BD D4 B1 96 18 10 8E DA B2 31 A6;
1B00: 86 05 97 AC A6 80 E6 A0 A7 C5 0A AC 26 F6 33 45 C6 04 BD D4 B1 9E 7A CC;
1B18: FF 0C A7 80 9F 4F 3A 9F 4D 9F 7A 35 C0 9E 8A CE 08 02 C6 05 EF 81 33 C8;
1B30: 42 5A 26 F8 0D 53 10 26 01 4E 10 9E 7A 10 9C 78 10 22 F3 6F 30 A8 1F 9C;
1B48: 5E 23 27 0D 59 26 23 8E CD 40 CE 04 2E BD D3 08 33 41 DF 88 86 59 0D 57;
1B60: 26 03 BD CC 09 B7 04 37 9E 60 81 59 10 26 F6 C3 0C 59 30 A9 00 A0 9C 60;
1B78: 10 24 F6 9D CC FF 05 34 06 9E 8A A6 91 A1 E4 24 02 A7 E4 5A 26 F5 35 06;
1B90: 81 FF 10 27 00 EF A7 A0 34 06 C6 05 E0 61 58 D7 10 9E 8A 3A EE 84 EC C4;
1BA8: 81 FF 27 0C A0 E4 A7 C4 26 04 33 42 EF 84 C1 70 27 77 34 04 C4 70 C1 60;
1BC0: 35 04 27 67 D7 6B C4 8F 26 02 CA 10 2A 03 C8 7F 5C CB 0E 8E 00 0D 96 10;
1BD8: EB 86 8C C0 0E CB 07 2B FC C1 2A 24 F6 8E DC 5B 3A 34 10 C0 07 2A FC 8E;
1BF0: DC 5B E6 85 34 04 D6 16 27 06 96 10 47 C6 07 3D;
1C00: EB E0 8E 00 20 3A 86 70 94 6B 27 0A BD CE 7C CE DC 4E E6 C6 E7 84 96 14;
1C18: AB 84 35 10 AB 84 8C 80 18 8B 0C 2F FC 81 48 24 F6 20 07 1F 98 84 0F 43;
1C30: 21 4F 48 8B 20 D6 10 57 DB 18 8E DA B2 E6 85 A7 A5 35 06 5A 10 26 FF 50;
1C48: 96 69 31 A6 7E DB 3D 00 01 02 FF FE 01 03 05 00 02 04 06 F5 F7 F9 FA FC;
1C60: FE 00 01 03 05 06 08 0A 0C 0D 0F 11 12 14 16 18 19 1B 1D 1E 20 22 24 25;
1C78: 27 29 2A 2C 2E 30 31 33 35 36 38 3A 3C 10 9F 7A 86 06 97 AC 0F 10 8E 08;
1C90: 00 DE 8A CC FF 60 ED 81 0A AC 27 0F AF C1 C6 40 A7 80 5A 26 FB 20 EC A6;
1CA8: 80 A7 C0 39 9E 5E 1F 13 8C 8D F4 8D F2 2A 17 84 7F 10 27 00 BA 81 60 26;
1CC0: 0D 33 5F 6D 1F 2A EC 69 84 43 66 84 20 E5 81 6F 27 10 81 4D 27 14 81 50;
1CD8: 27 D7 81 60 26 D5 33 5F 20 D1 A6 84 2B CD 8D BF 20 F8 A6 84 2B C5 8D B7;
1CF0: 81 60 27 BF 33 5F 20 F2 8D 0E E6 C2 2A FA 0D 14 27 49 8D 49 27 F8 D7 18;
1D08: 7E DF 7C 0D 14 26 31 0C 14 CE CD 40 8D E4 D6 14 27 26 9E 5E 9F 04 20 1D;
1D20: 0D 14 2B 1C 39 0D 14 26 17 0A 14 20 04 0D 14 26 1A BD C9 0D 8E 10 64 9F;
1D38: 02 9F 12 E7 84 86 08 8C DC 8A B7 FF 22 D7 14 C6 0D 8D BD 5F 39 BD CC 5B;
1D50: 27 F9 5D 2B 07 C1 60 25 02 C0 40 39 58 27 C6 2A AA 1A FF 8D E2 9F 6D 9E;
1D68: 5E CE 10 64 11 93 02 24 0D DF 5E DE 02 33 41 9E 74 30 01 BD D2 AC BD C9;
1D80: 2D 0D 70 27 1F 0F 70 FF 00 78 12 10 CE 00 FA BD CE B7 BD C9 08 9E 5E 0D;
1D98: 70 26 C6 8E DD 8A 9F 72 C6 55 D7 71 0F 58 7E CB E9 20 95 9E 8A C6 19 BD;
1DB0: C9 F6 0A 16 CC 08 02 97 06 97 0A 4C 97 08 97 0C 10 8E FF 20 E7 A4 9E 6D;
1DC8: 9F 88 0C 70 7C FF C7 1C EF 0D 14 2F 02 8D 06 8D 60 8D 4B 20 F4 0D 01 26;
1DE0: 44 9E 04 9C 74 22 C2 E6 80 9F 04 C4 7F 27 BA C1 6F 26 0A 6D 1F 2A 06 C6;
1DF8: 60 8D 30 C6 6F 8D 2C 6D 9F 00 04 2A 20 C6 0D 8D 22 8C 8D 2D 8D 18 D6 18;
1E10: 27 0A 0D 00 27 F6 E1 9F 00 06 26 EE 8D 1B 8D 06 13 0D 00 26 F7 39 BD DD;
1E28: 4D 27 FA C1 60 25 02 C0 40 0C 09 E7 9F 00 08 0C 01 D6 00 27 E8 E6 9F 00;
1E40: 06 0C 07 0A 00 C1 12 10 27 FE E2 C1 14 10 27 FE CF BD DF 7C 0D 14 27 CD;
1E58: 2A 1B 9E 02 9C 74 10 24 FE DE C1 0D 26 28 0F 15 CC 80 E0 A1 84 26 02 E7;
1E70: 80 9F 12 20 34 C1 13 26 14 BD DD 4D 0D 14 2F 0D DC 06 DB 00 5A 1F 01 E6;
1E88: 84 C1 11 26 EC 39 C1 40 25 FB C1 6F 26 0E 0A 15 A6 1F 81 E0 26 06 30 1F;
1EA0: 86 80 A7 84 EA 84 E7 80 4F A7 84 9F 02 1F 10 93 12 C1 20 26 D8 E6 82 9F;
1EB8: 12 0D 15 27 E3 86 EF A7 80 6F 84 20 DF E6 22 54 DC 0E 2B 09 26 0B 25 23;
1ED0: CC 08 27 20 1C 24 1C 20 17 5A 26 15 66 9F 00 0A C6 1A 4A 26 0C 9E 0A 68;
1EE8: 84 5F 66 84 0C 0B 0C 00 43 DD 0E DC 10 27 14 5A 26 1F 53 66 9F 00 0C 59;
1F00: 59 C4 02 E7 A4 5F 4A 27 10 20 0C 0D 01 27 0C 0C 0D 0A 01 86 0B 6F A4 C6;
1F18: 1A DD 10 B6 FF 00 97 6A 3B BD CE B7 DD AA 5F DD 70 DD A8 DD 8A 86 7E 8E;
1F30: DE C5 CE 01 0F 36 12 8E D4 7D 36 12 8D 33 0C 88 BD DD 3D 35 40 8C 8D 34;
1F48: E6 C0 2A FA 9E AD A6 80 8A 40 A7 89 FD FF 8C 08 00 26 F3 BD CC 09 80 1D;
1F60: 97 B9 8D 0D 8E C0 90 CE C8 62 9F 5E 0C 70 7E DD 77 8E 06 00 9F 88 9F 6D;
1F78: 9F AD 20 78 8D 1B C1 20 25 45 C1 60 25 02 C0 20 C4 BF E7 80 CA 40 0F 17;
1F90: 0A 17 9F 88 8C 08 00 24 4A 9E 88 A6 84 88 40 A7 84 39 1E 10 C4 F8 1E 10;
1FA8: 30 08 20 E2 0C 16 27 E9 0C 17 96 89 84 1F 9A 17 27 DF 30 88 21 9C AD 23;
1FC0: D8 86 20 A7 82 20 CB C1 09 27 D7 C1 0A 27 DD C1 08 27 EA C1 0D 26 C2 1E;
1FD8: 10 C4 E0 1E 10 0F 16 0A 16 20 CD 30 88 E0 9F 88 9E AD A6 88 20 A7 80 8C;
1FF0: 07 E0 25 F6 86 20 A7 80 8C 08 00 25 F9 20 9A FF;
END;
