
11
2C
18
CC
0E
10
2A
23
20
06
05
C3
C8
09
11
27
18
C9
CD
41
0A
E6
10
C9
21
17
20
7E
A7
C3
67
49
2A
23
20
06
05
11
2C
18
C3
55
0C
21
1A
20
CD
FD
0F
C3
F6
0F
21
17
20
7E
A7
C2
41
10
36
01
CD
73
4F
2A
23
20
7D
FE
30
C9
2A
1D
20
01
F8
03
09
22
23
20
C9
21
17
20
7E
A7
C2
5E
10
CD
48
10
00
00
00
00
00
00
CD
20
10
CD
48
10
00
00
00
00
00
00
00
00
21
98
20
CD
12
10
CA
95
10
E5
21
1B
20
36
02
E1
C3
FC
0F
00
00
00
00
00
00
00
00
00
00
00
00
00
00
98
00
E5
23
34
7E
E6
01
21
1B
20
C2
AB
10
36
01
E1
34
7E
E6
04
C3
00
10
36
00
C3
A3
10
CD
22
17
2E
AD
7E
21
FB
19
A7
C4
C1
10
22
A7
20
C9
21
03
1A
C9
21
A2
20
7E
A7
C2
D6
10
CD
8B
1D
CD
B0
10
CD
FB
10
CD
FB
10
CD
22
17
2E
AD
7E
A7
C2
29
11
3A
A5
20
FE
19
DC
04
11
21
1E
20
3A
A6
20
BE
DA
0B
11
21
A3
20
CD
1C
05
21
A5
20
CD
0D
0B
C3
C8
09
21
00
FF
22
A3
20
C9
21
01
00
22
A3
20
21
1D
20
3A
A5
20
BE
D2
1E
11
C3
F5
10
21
00
00
22
A0
20
AF
32
A2
20
C9
21
AD
20
7E
A7
C2
3C
11
3A
A5
20
FE
19
DA
3C
11
C3
F5
10
36
01
21
00
01
22
A3
20
21
1E
20
3A
A6
20
BE
D2
51
11
C3
F5
10
21
01
00
22
A3
20
21
1D
20
3A
A5
20
BE
D2
64
11
C3
F5
10
CD
22
17
2E
AD
36
00
C3
1E
11
CD
22
17
2E
2D
4E
E5
2B
2B
2B
23
CD
32
12
36
00
CD
37
0D
22
A5
20
06
08
CD
E8
09
E1
7E
A7
C8
35
7E
FE
03
DA
95
11
C9
2E
AD
36
01
C9
3A
16
20
A7
CC
17
16
21
29
20
7E
A7
C4
46
12
CD
EB
48
00
00
00
21
88
20
7E
A7
C8
23
7E
A7
C2
00
12
36
01
2A
8A
20
4E
7D
FE
37
D4
21
12
22
8A
20
CD
22
17
2E
72
CD
3B
12
C2
ED
11
2A
8A
20
23
22
8A
20
CD
22
17
2E
8C
7E
FE
04
C2
2C
12
21
00
00
C3
6F
1E
E5
2A
8A
20
23
22
8A
20
E1
CD
37
0D
01
00
09
09
22
8E
20
21
8E
20
CD
0D
0B
CD
55
0C
21
8E
20
7E
FE
40
DA
24
12
21
8C
20
CD
1C
05
21
8E
20
CD
0D
0B
C3
C8
09
2E
27
C9
2A
8E
20
06
03
CD
79
17
21
89
20
36
00
C9
11
03
00
19
0D
C2
35
12
C9
79
A7
CA
43
12
CD
32
12
7E
A7
C9
11
2E
20
CD
D8
0A
D8
21
2D
20
CD
0D
0B
CD
18
0C
3A
2E
20
FE
28
DC
9C
12
FE
C8
D4
A2
12
3A
16
20
A7
CC
76
12
21
2B
20
CD
1C
05
21
27
20
36
01
C9
2A
2D
20
01
00
10
09
11
F7
17
01
02
10
CD
2C
0A
C5
E5
1A
B6
77
23
13
0D
C2
88
12
E1
01
20
00
09
C1
05
C2
86
12
C9
21
2C
20
36
02
C9
21
2C
20
36
FE
21
28
20
34
C9
3A
16
20
A7
C8
3A
1D
20
FE
B8
D0
CD
12
10
C2
CC
12
21
0D
20
7E
A7
C2
C8
12
36
01
C9
23
36
01
C9
21
0E
20
7E
A7
C8
36
00
2B
36
00
21
00
20
36
01
C9
21
00
20
7E
A7
C8
23
7E
A7
C2
F5
12
36
01
2A
1D
20
01
08
05
09
22
06
20
11
07
20
CD
D8
0A
D0
21
06
20
CD
0D
0B
CD
57
17
21
06
20
7E
FE
B8
D2
4D
13
21
04
20
CD
1C
05
CD
90
1D
CD
2C
0A
C5
E5
1A
D3
04
DB
03
A6
CA
2A
13
3E
01
32
0C
20
DB
03
AE
77
23
13
AF
D3
04
DB
03
A6
CA
3E
13
3E
01
32
0C
20
DB
03
AE
77
E1
01
20
00
09
C1
05
C2
1A
13
C9
2A
06
20
06
03
CD
79
17
21
00
00
22
00
20
C9
3A
16
20
A7
CC
33
16
CD
22
17
2E
40
7E
A7
C2
5D
14
2E
70
7E
A7
C8
C3
27
1F
C5
E5
7E
F5
E6
80
CA
BD
13
F1
F5
07
07
22
34
20
21
7B
19
DC
49
14
22
3A
20
F1
00
00
00
00
00
00
00
00
2A
34
20
CD
37
0D
22
38
20
21
38
20
CD
0D
0B
CD
FD
09
21
39
20
7E
FE
E0
D4
4D
14
21
36
20
CD
1C
05
2A
38
20
EB
F5
F1
E1
23
73
23
72
23
C1
0D
C2
75
13
21
70
20
7E
A7
C8
23
7E
A7
C2
1A
14
36
01
2A
72
20
4E
7D
FE
56
D4
5A
14
22
72
20
CD
22
17
2E
7E
CD
3B
12
C2
07
14
2A
72
20
23
22
72
20
CD
22
17
2E
8A
7E
FE
04
C2
43
14
21
00
00
C3
73
1E
E5
2A
72
20
23
22
72
20
E1
CD
37
0D
01
00
09
09
22
76
20
21
76
20
CD
0D
0B
CD
55
0C
21
76
20
7E
FE
40
DA
3B
14
21
74
20
CD
1C
05
21
76
20
CD
0D
0B
C3
C8
09
2A
76
20
06
03
CD
79
17
21
71
20
36
00
C9
21
8E
19
C9
E5
2A
38
20
06
13
CD
E8
09
E1
36
28
C9
2E
47
C9
CD
A5
14
22
65
20
21
F7
18
22
69
20
CD
22
17
2E
41
4E
23
C5
E5
CD
38
0D
22
67
20
CD
9B
1D
CD
FD
09
21
68
20
7E
FE
EA
D4
98
14
21
65
20
CD
1C
05
2A
67
20
EB
C3
A1
1D
C2
70
14
C9
E5
2A
67
20
06
0B
CD
E8
09
E1
36
28
C9
CD
22
17
2E
AB
7E
A7
21
00
01
C8
FE
01
21
00
01
C8
C3
7B
1E
C9
00
73
23
72
23
00
00
C9
3A
16
20
A7
CC
3F
16
CD
22
17
2E
56
7E
A7
C2
B7
15
2E
90
7E
A7
C8
E5
CD
59
15
22
36
20
21
A1
19
22
3A
20
E1
23
4E
23
C5
E5
7E
A7
CA
12
15
CD
37
0D
22
38
20
21
38
20
CD
0D
0B
CD
FD
09
21
39
20
7E
FE
28
DC
6E
15
21
36
20
CD
1C
05
2A
38
20
EB
C3
B3
1D
C2
E9
14
21
7C
20
7E
A7
C8
23
7E
A7
C2
97
15
36
01
2A
7E
20
4E
7D
FE
47
D4
56
15
22
7E
20
CD
22
17
2E
92
CD
3B
12
C2
89
15
2A
7E
20
23
22
7E
20
CD
22
17
2E
8B
7E
FE
04
C2
83
15
21
00
00
C3
77
1E
2E
37
C9
CD
22
17
2E
AB
7E
A7
21
00
FF
C8
FE
01
21
00
FE
C8
C3
62
1F
C9
E5
2A
38
20
06
13
CD
E8
09
E1
36
E0
C9
2A
82
20
06
03
CD
79
17
21
7D
20
36
00
C9
E5
2A
7E
20
C3
BE
1D
01
00
09
09
22
82
20
21
82
20
CD
0D
0B
CD
55
0C
3A
82
20
FE
40
DA
7B
15
21
80
20
CD
1C
05
21
82
20
CD
0D
0B
C3
C8
09
CD
02
16
22
65
20
21
39
19
22
69
20
CD
22
17
2E
57
4E
23
C5
E5
CD
38
0D
22
67
20
21
67
20
CD
0D
0B
CD
FD
09
21
68
20
7E
FE
28
DC
F5
15
21
65
20
CD
1C
05
2A
67
20
EB
C3
AA
1D
C2
CA
15
C9
E5
2A
67
20
06
0B
CD
E8
09
E1
36
ED
C9
CD
22
17
2E
AB
7E
A7
21
00
FF
C8
FE
01
21
00
FE
C8
C3
91
1E
C9
21
11
27
0E
05
E5
21
94
20
34
7E
A1
06
03
C2
2F
16
E1
11
DF
19
C3
00
0A
E1
C3
34
0A
21
0F
3B
0E
01
E5
21
95
20
C3
20
16
21
08
36
0E
04
E5
21
96
20
C3
20
16
31
00
24
AF
D3
03
D3
04
21
00
20
11
A3
1A
06
00
CD
04
0B
21
00
21
11
A3
1B
06
C0
D5
CD
04
0B
21
00
22
D1
06
C0
CD
04
0B
AF
D3
03
D3
05
CD
A9
01
00
00
00
00
FB
C3
B5
46
CD
CB
05
21
F7
18
22
63
20
00
00
00
21
39
19
22
61
20
06
06
CD
22
17
2E
41
4E
23
C5
E5
CD
38
0D
22
67
20
2A
63
20
C3
CB
1D
C2
9E
16
2A
63
20
11
0B
00
19
22
63
20
C5
CD
47
0C
CD
22
17
2E
57
4E
23
C5
E5
CD
38
0D
22
67
20
2A
61
20
C3
D6
1D
C2
C4
16
2A
61
20
11
0B
00
19
22
61
20
C1
05
C2
97
16
CD
D6
4F
CD
F1
1E
CD
22
17
2E
41
7E
FE
0A
D2
F6
16
34
2E
57
7E
FE
0B
D2
FF
16
34
CD
F6
1D
CD
0E
17
21
08
36
CD
0E
17
21
0F
3B
06
03
C3
34
0A
EB
2A
67
20
06
0B
C3
FD
09
00
00
00
00
00
00
3A
C6
20
67
C9
00
01
02
03
00
01
02
03
00
01
02
03
00
01
02
03
00
01
02
03
00
01
02
03
00
01
02
03
01
01
02
03
00
01
02
03
00
01
02
03
00
01
02
03
00
01
02
03
CD
2C
0A
C5
E5
1A
D3
04
DB
03
2F
A6
77
23
13
AF
D3
04
DB
03
2F
A6
77
E1
01
20
00
09
C1
05
C2
5A
17
C9
CD
2C
0A
C5
E5
AF
D3
04
DB
03
77
23
00
AF
D3
04
DB
03
77
E1
01
20
00
09
C1
05
C2
7C
17
C9
00
00
00
00
80
01
C0
03
E0
47
E0
47
F0
4F
F0
4F
F8
5D
F8
5D
FC
7F
FC
5F
FE
5D
FF
5D
FF
0F
FF
0F
01
1C
01
18
01
38
01
70
01
70
01
70
01
F0
01
F0
01
F0
01
F0
01
70
01
70
01
70
01
30
01
38
01
1C
FF
0F
FF
0F
FF
5D
FE
5D
FC
5F
FC
7F
F8
5D
F8
5D
F0
4F
F0
4F
E0
47
E0
47
C0
03
80
01
00
00
00
00
00
00
00
00
02
01
9E
03
E2
