  F0
  F0
  F0
  87
  87
   F
  2D
  78
33B7
FFFF
88AD
888F
33B7
FFFF
88AD
FFFF
33B7
FFFF
88AD
FFFF
33B7
FFFF
  78
777F
33B7
FFFF
   F
777F
33B7
FFFF
  78
777F
33B7
FFFF
88AD
FFFF
33B7
FFFF
88AD
FFFF
33B7
FFFF
88AD
777F
33B7
FFFF
889E
333F
33B7
FFFF
CCCF
  C3
33B7
FFFF
EEEF
  F0
33B7
FFFF
FFFF
  69
33B7
FFFF
FFFF
  5A
FFFF
FFFF
FFFF
FFFF
333F
FFFF
FFFF
FFFF
  C3
777F
FFFF
FFFF
  3C
1197
FFFF
FFFF
CCCF
  69
333F
FFFF
FFFF
889E
  C3
FFFF
FFFF
EEEF
  3C
111F
FFFF
FFFF
CCCF
  E1
FFFF
FFFF
FFFF
  1E
FFFF
FFFF
FFFF
EEEF
FFFF
FFFF
FFFF
FFFF
FFFF
CCCF
333F
FFFF
FFFF
  3F
  CF
FFFF
444F
  CF
  3F
333F
  3F
333F
CCDF
  CF
  EF
FFFF
CCDF
  3F
FFFF
FFFF
FFFF
FFFF
FFFF
FFFF
FFFF
FFFF
FFFF
FFFF
FFFF
FFFF
FFFF
FFFF
FFFF
FFFF
FFFF
FFFF
FFFF
FFFF
FFFF
FFFF
FFFF
FFFF
FFFF
FFFF
FFFF
FFFF
777F
FFFF
FFFF
FFFF
  87
FFFF
FFFF
FFFF
  78
   F
   F
   F
888F
  F0
  F0
  F0
EEEF
  B4
  87
   F
CCDE
444F
  69
FFFF
88AD
FFFF
889E
777F
115B
FFFF
CCDE
777F
33B7
FFFF
CCDE
777F
33B7
FFFF
FFFF
889F
33B7
FFFF
FFFF
CCDF
33B7
FFFF
FFFF
88BF
33B7
FFFF
FFFF
88AF
  87
333F
FFFF
115F
 285
1917
FFFF
115F
 483
 A05
666F
33BF
  F0
 285
2A27
33BF
  F0
 285
2A27
33BF
 483
 A05
666F
33BF
 285
1917
FFFF
115F
  87
333F
FFFF
115F
1197
FFFF
FFFF
88AF
33B7
FFFF
FFFF
88BF
33B7
FFFF
FFFF
CCDF
33B7
FFFF
FFFF
889F
  AF
FFFF
CCDF
445F
445F
777F
88AF
AAAF
  AF
33BF
88AF
555F
  7F
11DF
  4F
AAAF
88AF
  AF
119F
  1F
CCDF
  DF
22AF
  6F
EEEF
  BF
  CF
119F
FFFF
  6F
  7F
777F
FFFF
  6F
  7F
777F
EEEF
  BF
  CF
119F
CCDF
  DF
22AF
  6F
88AF
  AF
119F
  1F
  7F
  CF
  4F
AAAF
  AF
33BF
88AF
555F
445F
777F
88AF
AAAF
  AF
FFFF
CCDF
445F
33BF
FFFF
CCDE
777F
33BF
FFFF
CCDE
777F
115F
FFFF
CCDE
   F
115F
FFFF
CCCE
   A
  EF
FFFF
888F
   2
  2F
FFFF
888C
   2
CCDF
777F
888F
   A
CCDF
777F
888C
   2
CCDF
777F
888F
   A
CCDF
777F
888C
   2
  2F
FFFF
888F
   2
  EF
FFFF
CCCE
   A
115F
FFFF
CCDE
   F
115F
FFFF
CCDE
777F
33BF
FFFF
CCDE
777F
33BF
FFFF
CCDE
777F
33B7
FFFF
FFFF
  5A
33B7
FFFF
FFFF
  69
33B7
FFFF
EEEF
  F0
33B7
FFFF
EEEF
  C3
33B7
FFFF
CCDE
333F
33B7
FFFF
88AD
FFFF
33B7
FFFF
88AD
FFFF
33B7
FFFF
88AD
FFFF
33B7
FFFF
  78
777F
33B7
FFFF
   F
777F
33B7
FFFF
  78
777F
33B7
FFFF
88AD
FFFF
33B7
FFFF
88AD
FFFF
33B7
FFFF
88AD
888F
  87
   F
  2D
  78
  F0
  F0
  F0
  87
  EF
FFFF
CCDF
  3F
  3F
333F
CCDF
  CF
444F
  CF
  3F
333F
777F
  3F
  CF
FFFF
FFFF
CCCF
333F
FFFF
FFFF
FFFF
FFFF
FFFF
FFFF
FFFF
FFFF
EEEF
FFFF
FFFF
FFFF
  1E
FFFF
FFFF
CCCF
  E1
FFFF
EEEF
  3C
111F
FFFF
889E
  C3
FFFF
CCCF
  69
333F
FFFF
  3C
1197
FFFF
FFFF
  C3
777F
FFFF
FFFF
333F
FFFF
FFFF
FFFF
FFFF
FFFF
FFFF
FFFF
33B7
FFFF
CCDE
777F
115B
FFFF
CCDE
777F
88AD
FFFF
889E
777F
CCDE
444F
  69
FFFF
EEEF
  B4
  87
   F
888F
  F0
  F0
  F0
  78
   F
   F
   F
  87
FFFF
FFFF
FFFF
777F
FFFF
FFFF
FFFF
FFFF
FFFF
FFFF
FFFF
FFFF
FFFF
FFFF
FFFF
FFFF
FFFF
FFFF
FFFF
FFFF
FFFF
FFFF
FFFF
FFFF
FFFF
FFFF
FFFF
FFFF
FFFF
FFFF
FFFF
FFFF
FFFF
FFFF
FFFF
FFFF
FFFF
FFFF
FFFF
FFFF
FFFF
FFFF
FFFF
FFFF
FFFF
FFFF
FFFF
FFFF
FFFF
FFFF
FFFB
FFFF
FFFF
FFFD
FFFD
FFFF
FFFF
FFFE
FFFE
FFFF
FFFF
FFFF
FFF6
FFFF
FFFF
FFFF
FFE0
FFFF
FFFF
FFFC
32B8
FFFF
FFFF
DDC8
5DB2
FFFF
FFFF
AA90
708F
FFFF
FFFE
6017
21DE
FFFF
EEEC
7098
C0B4
FFFF
CCD9
F076
F003
FFFF
98A2
F0EE
  DD
FFFE
34BC
E0FD
2631
FFFF
FFFF
FFFF
FFFF
FFFF
FFFF
F305
DCEF
FFFF
DCDC
4300
 4CB
FFEE
5015
C080
1830
CECC
3244
C1B5
  BA
E768
2A51
A070
6084
64D3
  30
C0B6
53E0
CCB3
30F8
80F0
7780
74C8
90D6
B84B
10CB
70F0
8187
7087
9807
40B1
160E
42F3
D11C
1AB6
405A
1584
8460
128E
 43C
A2D3
E660
F032
   F
6692
6768
E1CD
120F
EF1E
3DD2
F0F1
C383
 778
1DD0
FFFF
FFFF
FFFF
FFFF
D016
D0F0
F7F7
FFFF
3CFC
F0F0
3CDD
FFFF
B0D4
F0F0
4BFF
F777
10E0
F0D0
3CFC
F1FF
 4F1
508A
F070
F0B3
17F0
10F0
F0E0
70F3
1461
B8C2
F0F0
F0F3
4016
5CF0
5A1A
E1C1
5007
2670
  3C
343C
BCA1
FF21
  D2
 887
B8B0
719E
8578
4EA5
DA86
80B7
8DF0
 CE1
A8F0
  FF
9FE1
19D3
ADC2
3300
FE03
DD3F
CC08
1100
CF30
BB7F
EEFD
E175
C1EE
6771
DCC8
E1FF
2FA8
EEF1
F884
B4FF
8788
EFE0
B891
F0FF
8588
7F70
9A93
E1FD
 F88
FFF0
F8A6
78FF
1F98
CFC0
B8F4
F0FF
5798
CFD1
B8E4
F0FF
4788
9CA2
B880
F076
 699
3C11
FCCA
F0EE
2F00
7851
DCD8
F0EE
1910
7862
FEED
787E
81C4
7870
EEEC
70FF
C0B3
20ED
FFFE
B815
E099
43DA
FFFF
B895
F060
  C3
FFFF
CCF9
F020
 20F
D213
C2CF
1769
8910
F051
D2CF
FF08
C816
70EA
B344
DD08
9C43
3976
FF83
EF10
3FC2
3F30
FF07
FF00
EF1E
73B8
FF0F
FF0B
CF3C
F176
EF92
EF1E
8C78
68EF
7700
FF03
112D
E1EF
778A
CF3C
 33C
E1EF
7786
EF16
6149
D29A
B7C0
EF10
787F
8207
 B3C
BB00
7088
510F
1DE1
3FC2
 C00
 22D
1FE1
2884
7BF0
4269
DF2D
8B5A
111E
 10F
FF0F
 DD2
7679
8F78
11E0
2310
BB7F
 CE1
203D
EFD0
BB7F
8F70
1DF2
BA41
7FFF
8378
FFE0
  F7
FFFF
 1F0
CE38
 3C4
FFFF
  B4
BB00
D915
FFFF
  F0
AA00
D915
FFFF
10E1
2312
5195
FFFF
 DD2
FFE1
  D5
FFFF
 469
751A
3CC3
FFFF
8025
D0C3
CCD0
FFFF
383C
  1F
3301
7FF7
3DC2
B10B
BB01
FF7F
9D50
8D90
FF03
BF7B
8EC3
53A5
FF0F
9D79
DA86
82B4
2FD2
1DD3
FFFF
EFDA
7008
8007
FFFF
FFFC
70A2
F0B0
FFFF
FFFE
F880
41CB
FFFF
FFFF
9CF0
E0E1
FFFF
FFFF
FEE8
6AE1
FFFF
FFFF
FFFE
A679
FFFF
FFFF
FFFF
CCD1
FFFF
FFFF
FFFF
FEC1
FFFF
FFFF
FFFF
FFF4
FFFF
FFFF
FFFE
FEEC
FFFF
FFFF
FFFF
FFF9
FFFF
FFFF
FFFF
FFF7
FFFF
FFFF
FFFF
FFFF
FFFF
FFFF
FFFF
FFFF
FFFF
FFFF
FFFF
FFFF
FFFF
FFFF
FFFF
FFFF
 70F
19E1
CC12
7678
E0C9
5369
CC0B
 896
E167
275A
8F61
8E60
F066
 578
CF25
 16A
F0D0
865A
56A1
1D0F
C034
60E1
33C2
1187
8CE1
 60F
2358
EF1C
8987
1E1E
132D
EC0B
9086
C283
1168
4621
1E1E
C0C3
4E80
A02D
 33C
6196
BB01
 896
8FF8
6C92
4FB4
19D3
FFEF
4FB4
 6E1
333F
FFFF
FFFF
FFFF
FFFF
FFFF
FFFF
FFFF
FFFF
FFFF
FFFF
FFFF
FFFF
ACA1
1A0F
 FF0
1DF1
8A93
 1F0
 BB4
1DD3
E8A5
9669
  1E
8087
AC34
1FF0
F8F0
F0E0
202D
1778
F0F0
F0D0
 23C
232D
F0B0
78D9
 13C
F4F0
4BFF
2DCD
   F
B884
78FF
B4FF
101E
F090
F0E6
F0DD
302C
5A0A
B4F7
F0DD
70C0
E1CD
3CFF
F177
FCFC
F0F8
2DFF
7BFF
FCDC
F070
78FF
B7FF
EEEF
7878
C3F7
7FFF
FFFF
3C1D
F0F0
FFFF
FFFF
FFFF
FFFF
FFFF
FFFF
 FF0
1FF1
3FF3
FFFF
 FF0
C33C
1FF1
EFFE
6196
4996
 F30
CFFC
8778
4BB6
 F50
CFFC
C33C
C33E
2D10
8EE9
2DD2
C32C
 F30
8FE8
 F30
 FE0
 F50
 FC0
 F00
 B64
 D12
 FC0
 F00
 B74
 B34
8DCA
 F00
 1FE
3FF3
8FC8
 F10
2DE9
3FF3
 FE4
 F31
 ECB
 BF0
2DC6
 B75
 FDA
 7F4
 DF0
83B0
 EB4
1FF9
 FF3
 FC3
 F78
1FF1
CFFC
4FF4
7FF7
FFFF
FFFF
FFFF
FFFF
FFFF
FEEE
F777
FFFF
FFFF
FCCC
F333
FFFF
FFFF
FCCC
FA22
F777
FFFF
FCCC
F666
F777
FEEE
FCCC
F000
F777
ECCD
FFEE
F000
F777
E9CD
FFFF
FEEE
F777
CB8B
FECC
F133
FFFF
8707
FDDD
FCDD
FEEE
870F
FDDD
FEEE
EDDC
 F0F
FDDD
FCCC
CBA9
1E0E
FECC
F111
8343
2C1C
FFEE
FE66
 F87
4928
FFFF
ECCD
 F0E
8250
FFFF
C98B
1E2C
 4B0
FEEE
B333
EEEE
7777
EDCD
6911
F000
F000
CB8B
1E0E
 F88
3C00
8707
3C0C
 F00
D2C0
 F0F
681C
8564
5860
 F0F
4139
30C0
1E22
 E0F
8373
146C
E010
1C0E
82EA
  86
81A8
6908
3095
F0FF
188C
4928
1E00
A022
   F
8340
 F00
7800
1011
 780
 F00
7870
D011
 F00
 F00
F0F0
F0C0
 F00
1E10
F0F0
E1E0
 F00
1E10
F0F0
F0F0
 3C0
7870
F0F0
F0F0
F888
F333
FFFF
FFFF
8011
7088
FFFF
FFFF
 115
10EE
F777
FFFF
8227
 19B
7333
FFFF
8227
 EEE
7044
FFFF
 1B5
3033
F0FF
F777
 3F3
38BB
F0FF
F777
 66E
7044
7077
F777
8666
E022
1011
FB33
  87
 23F
38BB
F3BB
  34
  A5
5899
F3BB
 666
 99B
9455
F199
C2EF
122E
 44C
3111
8223
 66F
 EFF
71DD
F080
 33F
 44C
71DD
F0F0
8445
 33F
3999
FFFF
8307
290C
  F0
FEEE
 F8F
4218
 960
ECCD
 F1E
8070
 870
C989
1C2C
 1E0
 872
ECCD
2C5C
 1E0
 962
FEEE
F000
 780
25C4
F8CD
7088
8340
4018
CB8B
7888
C030
49AA
FCCC
F000
8061
C012
FFFF
FCCC
8070
C322
FFFF
FFFF
E898
48B8
FFFF
FFFF
FEEE
8744
FFFF
FFFF
FFFF
E898
FFFF
FFFF
FFFF
FCCC
FFFF
FFFF
FFFF
FFFF
FFFF
FFFF
FFFF
FFFF
4308
5A50
F0F0
F0F0
 F00
3C30
F0F0
D0F0
 F00
3C30
D2C0
4168
 F00
3C30
D0E0
8430
 F00
3C30
E0F0
9420
 D20
3C30
B4E0
D042
3C44
34B0
1EC0
7840
5820
A530
 FC0
E0D0
4380
2D30
1EF0
F0D0
C300
6970
 FF0
F0F0
8340
2D20
 F70
F0F0
8034
F000
B034
92D0
7800
 780
C300
8340
8700
 F00
5028
8700
F000
F000
F000
F000
FFFF
FFFF
FFFF
FFFF
F0F0
E191
 FFF
B155
F0F0
F0E0
1066
31DD
F0F0
F0E0
 177
79DD
F0F0
F0E0
 666
7155
F0F0
F0E0
6044
5333
F0F0
B420
C088
7333
F0F0
E000
1666
7333
F0F0
C2A3
2CCC
F3BB
78F0
C080
  33
F333
F0F0
E0C0
 333
F777
F0F0
E1D1
 CCE
F777
F0F0
C0B3
9226
FFFF
E1E0
9002
388C
FFFF
1E00
 4CF
7999
FFFF
C133
122E
F777
FFFF
B8CC
F111
FFFF
FFFF
FFFF
FFFF
FFFF
FFFF
88FF
  FF
11FF
FFFF
8888
   0
  33
FFFF
8888
   0
  11
77FF
8888
   0
   0
33FF
8888
   0
   0
3377
8888
   0
   0
1177
8888
   0
   0
1133
88FF
  CC
   0
1133
888F
  6E
   0
1133
8F8F
 C3F
  FF
11FF
888F
   F
   F
113F
8F8F
 F0F
 F0F
1D3F
888F
   F
   F
113F
8F8F
 F0F
 F0F
1D3F
888F
   F
  FF
  FF
FFFF
FFFF
FFFF
FFFF
FFFF
FFFF
FFFF
FFFF
FFFF
FFFF
FFFF
FFFF
FFFF
FFFF
FFFF
FFFF
FFFF
FFFF
FFFF
EEFF
FFFF
FFFF
FFFF
CCEE
FFFF
FFFF
FFFF
88EE
FFFF
FFFF
FFFF
  FF
FFFF
FFFF
CCFF
  FF
FFFF
FFFF
CCFF
 1EF
FFFF
FFFF
  FF
 3CF
FFFF
CCFF
  FF
 3CF
FFFF
CCFF
  FF
 3CF
FFFF
88FF
  FF
 3CF
FFFF
88FF
  FF
 38B
EEFF
  FF
  FF
 303
FFFF
FFFF
FFFF
FFFF
FFFF
FFFF
FFFF
FFFF
FFFF
FFFF
FFFF
FFFF
FFFF
FFFF
FFFF
FFFF
  FF
33FF
FFFF
FFFF
   0
  33
  FF
11FF
   0
  33
  FF
11FF
  FF
 2DF
  FF
11FF
  FF
 2DF
   0
1177
 F0F
 F0F
   0
1111
 F0F
 F0F
   0
1111
   0
 303
  44
1111
   0
 30F
  44
1111
   0
 30F
  44
1111
   0
 3CF
  88
1111
   0
 3CF
  88
1111
8F8F
 E1F
  88
  33
888F
  3F
   0
  11
8F8F
 C2E
   0
  11
888F
  2E
   0
   0
8F8F
 C2E
   0
   0
888F
  2E
   0
   0
8F8F
 C2E
   0
   0
888F
  2E
   0
   0
8F8F
 C2E
   0
   0
888F
  2E
   0
   0
8F8F
 C2E
   0
   0
888F
  2E
   0
   0
8F8F
 C2E
   0
   0
888F
  2E
   0
  11
8F8F
 C3F
   0
  11
888F
  1F
  88
  33
EEFF
  FF
  FF
 303
EEFF
  EE
  FF
 303
  FF
  EE
  77
 303
  11
  EE
  11
 38B
  33
  EE
  11
 1CD
  33
  EE
  55
  EE
  77
  EE
  44
  FF
  77
  EE
  CC
  44
  77
  FF
  CC
  44
  77
  EE
  CC
  FF
  33
  EE
  55
  EE
  33
  EE
  55
 1CD
  11
  EE
  11
 38B
  FF
  EE
  77
 303
EEFF
  EE
  FF
 303
EEFF
  FF
  FF
 303
   0
 30F
  88
1111
   0
 30F
   0
1111
   0
 303
   0
1111
   0
 303
   0
1111
 F0F
 F0F
   0
1111
 F0F
 F0F
   0
1111
   0
 B0B
   0
1111
  88
 B0B
   0
1111
  88
 B0B
   0
1111
   0
 B0B
   0
1111
 F0F
 F0F
   0
1111
 F0F
 F0F
   0
1111
   0
 303
   0
1111
   0
 303
   0
1111
   0
 30F
   0
1111
   0
 30F
  88
1111
8F8F
 F0F
  FF
  FF
888F
   F
   F
113F
8F8F
 F0F
 F0F
1D3F
888F
   F
   F
113F
8F8F
 F0F
 F0F
1D3F
888F
  3F
  FF
11FF
8F8F
 86E
   0
1133
88FF
  CC
   0
1133
8B88
 E00
   0
1133
8F88
 700
   0
1177
8E88
 300
   0
3377
8A88
 200
   0
33FF
88B8
 C00
  11
77FF
88A8
 400
  33
FFFF
88FF
  FF
11FF
FFFF
FFFF
FFFF
FFFF
FFFF
EEFF
  FF
  FF
 303
FFFF
88FF
  FF
 38B
FFFF
88FF
  FF
 3CF
FFFF
CCFF
  FF
 3CF
FFFF
CCFF
  FF
 3CF
FFFF
FFFF
  FF
 3CF
FFFF
FFFF
CCFF
 1EF
FFFF
FFFF
CCFF
  FF
FFFF
FFFF
FFFF
  FF
FFFF
FFFF
FFFF
88EE
FFFF
FFFF
FFFF
CCEE
FFFF
FFFF
FFFF
EEFF
FFFF
FFFF
FFFF
FFFF
FFFF
FFFF
FFFF
FFFF
FFFF
FFFF
FFFF
FFFF
FFFF
FFFF
FFFF
FFFF
   0
 3CF
  88
1111
   0
 3CF
  88
1111
   0
 30F
  44
1111
   0
 30F
  44
1111
   0
 303
  44
1111
 F0F
 F0F
   0
1111
 F0F
 F0F
   0
1111
  FF
 2DF
   0
1177
  FF
 2DF
  FF
11FF
   0
  33
  FF
11FF
   0
  33
  FF
11FF
  FF
33FF
FFFF
FFFF
FFFF
FFFF
FFFF
FFFF
FFFF
FFFF
FFFF
FFFF
FFFF
FFFF
FFFF
FFFF
FFFF
FFFF
FFFF
FFFF
FFFF
FFFF
FFFF
FFFF
FFFF
FFFF
FFFF
FFFF
FFFF
FFFF
FFFF
FEEF
FFFF
FFFF
FFFF
FEEF
FFFF
FFFF
FFFF
FDDE
FFFF
FFFF
FFFF
ECDF
FFFF
FFFF
FFFF
CBAC
FFFF
FFFF
FFFF
E9AC
FFFF
FFFF
FFFF
874C
FFFF
FFFF
FFFF
C34C
FFFF
FFFF
FFFF
 348
FFFF
FFFF
FEEF
8F00
FFFF
FFFF
FEEF
 780
FFFF
FFFF
FDDE
 F00
FFFF
FFFF
ECDF
 F00
FFFF
FFFF
CB8E
 F00
B88F
F33F
FFFF
FFFF
1078
9C07
FFFF
FFFF
8700
1E11
F77F
FFFF
 788
1F10
F77F
FFFF
 F00
1C23
FFFF
FFFF
 F00
3C01
FFFF
FFFF
 F00
3953
FFFF
FFFF
 F00
7D13
FFFF
FFFF
 F00
3193
FFFF
FFFF
 F00
F3BF
FFFF
FFFF
 F00
7BB7
FFFF
FFFF
1E10
F77F
FFFF
FFFF
 F01
F77F
FFFF
FFFF
1C23
FFFF
FFFF
FFFF
3C03
F11F
FFFF
FFFF
 E11
D2A1
F00F
FFFF
FFFF
FFFF
FFFF
FFFF
FFFF
FFFF
FFFF
FFFF
FFFF
FFFF
FFFF
FFFF
FFFF
FFFF
FFFF
FFFF
FFFF
FFFF
FFFF
FFFF
FFFF
FFFF
FFFF
FFFF
FFFF
FFFF
FFFF
FFFF
FFFF
FFFF
FFFF
FFFF
FFFF
FFFF
FFFF
FFFF
FFFF
FFFF
FFFF
FFFF
FFFF
FFFF
FFFF
FFFF
FFFF
FFFF
FFFF
FFFF
FFFF
FFFF
FFFF
FFFF
FFFF
FFFF
FFFF
FFFF
FFFF
FFFF
FFFF
FFFF
FFFF
FFFF
FFFF
FFFF
FFFF
FFFF
E9AC
 F00
FFFF
FFFF
874C
 F00
FFFF
FFFF
C34C
 F00
FFFF
FFFF
8348
 F00
FFFF
FFFF
B23D
83C0
FFFF
FFFF
FCCF
D22E
FFFF
FFFF
FFFF
FCCF
FFFF
FFFF
FFFF
FEEF
FFFF
FFFF
FFFF
ECCF
FFFF
FFFF
FFFF
FCCE
FFFF
FFFF
FFFF
ECDF
FFFF
FFFF
FFFF
EBAC
FFFF
FFFF
FFFF
E9AC
FFFF
FFFF
FFFF
8748
FFFF
FFFF
FFFF
C34C
FFFF
FFFF
FEEF
 700
 F00
 E10
63FD
F00F
 F00
 F00
 F00
63C1
 F00
 F00
 F00
 F00
 F00
 F00
 F00
 F00
 F00
 F00
 F00
 F00
83C8
 F00
 F00
 F00
 700
 F00
 F00
 F00
8F00
1E10
ECB0
 F00
 780
 F10
F00F
68BB
 F00
1C23
FFFF
F00F
 F00
3E21
FFFF
FFFF
 F00
3957
FFFF
FFFF
 F00
7D13
FFFF
FFFF
 F00
3197
FFFF
FFFF
 F00
F3BF
FFFF
FFFF
 F00
7337
FFFF
FFFF
F77F
FFFF
FFFF
FFFF
700F
F77F
FFFF
FFFF
3866
7887
F77F
FFFF
 F00
1873
F337
FFFF
 F00
 F00
73BF
FFFF
 F00
 F00
FB37
FFFF
 F00
 E10
F77F
FFFF
 F00
1E11
F77F
FFFF
 780
 E00
F77F
FFFF
BE58
34A9
FFFF
FFFF
F00F
900F
FFFF
FFFF
FFFF
FFFF
FFFF
FFFF
FFFF
FFFF
FFFF
FFFF
FFFF
FFFF
FFFF
FFFF
FFFF
FFFF
FFFF
FFFF
FFFF
FFFF
FFFF
FFFF
FFFF
FFFF
FEEF
8F00
FFFF
FFFF
ECCF
 780
FFFF
FFFF
FCCE
 F00
FFFF
FFFF
ECDF
 F00
FFFF
FFFF
EBAC
 F00
FFFF
FFFF
C9AE
 F00
FFFF
FFFF
8748
 F00
FFFF
FFFF
C348
 F00
FFFF
FFFF
834C
 F00
FFFF
FFFF
D88C
81EC
FFFF
FFFF
FCCF
E11E
FFFF
FFFF
FFFF
FEEF
FFFF
FFFF
FFFF
FFFF
FFFF
FFFF
FFFF
FFFF
FFFF
FFFF
FFFF
FFFF
FFFF
FFFF
FFFF
FFFF
1E10
F77F
FFFF
FFFF
 F10
F77F
FFFF
FFFF
1C23
FFFF
FFFF
FFFF
3C01
F00F
FFFF
FFFF
 E10
61DD
F00F
F77F
 F00
 F00
33D4
7007
 F00
 F00
 F00
3960
 F00
 F00
 F00
 F00
 F00
 F00
 F00
 F00
 F00
 F00
 F00
 F00
C166
 F00
 F00
 F00
E00F
6C38
 F00
 F00
FEEF
F00F
6CFB
 780
FFFF
FFFF
F00F
BC59
FFFF
FFFF
FFFF
F00F
FFFF
FFFF
FFFF
FFFF
FFFF
FFFF
FFFF
FFFF
FFFF
FFFF
FFFF
FFFF
FFFF
FFFF
FFFF
FFFF
FFFF
FFFF
FFFF
FFFF
FFFF
FFFF
FFFF
FFFF
F33F
FFFF
FFFF
FFFF
380F
F33F
FFFF
FFFF
1C33
B443
F77F
FFFF
 F00
1C30
FB37
FFFF
 F00
 F00
73BF
FFFF
 F00
 F00
FBB7
FFFF
 F00
 E10
F77F
FFFF
 F00
1F00
F77F
FFFF
 3C8
 C21
F77F
FFFF
930E
B0E3
FFFF
FFFF
F88F
F11F
FFFF
FFFF
FFFF
FFFF
FFFF
FFFF
FFFF
FFFF
FFFF
FFFF
FFFF
FFFF
FFFF
CCCF
FFFF
FFFF
FFFF
8BBC
FFFF
FFFF
EEEF
 778
FFFF
FFFF
899E
4AA4
FFFF
FFFF
1669
 CD0
FFFF
EEEF
4BB4
49A4
FFFF
CDDE
8778
69A4
FFFF
8BBC
 FF0
1FE0
FFFF
 778
8778
7A87
EEEF
1EE1
1FE0
 4BB
CCCF
5AA5
 B82
 943
8BBC
5AA5
 788
  96
9AAD
8548
 E10
203C
166D
C12C
5C31
216B
FFFF
CCCF
E2DD
777F
EEEF
 12F
  F2
119F
 11E
 CC3
  3F
 86B
F07D
83C6
 E11
 3C8
 F08
 F00
 843
434C
 F00
 F01
121F
8B0C
 F00
 E03
 C30
 92C
 F00
 D02
 C30
4902
 F00
 D02
 C31
4947
 780
 D02
 A53
40C5
8704
 D02
 863
40C5
49E4
 942
 843
4481
CE1E
 942
 843
4089
8F4A
 1C2
2871
6089
E83E
 1C2
 C31
5D0E
2CE3
 E03
 E18
80B6
FFFF
FFFF
FFFF
FFFF
FFFF
FFFF
FFFF
FFFF
   F
FFFF
FFFF
FFFF
 C30
111F
FFFF
FFFF
 F00
 863
FFFF
FFFF
 F00
 E10
333F
FFFF
 F00
 F00
1957
FFFF
 F00
 F00
 E03
FFFF
 F00
 F00
 E11
777F
 F00
 F00
 F00
777F
 F00
 F00
 F00
3B37
 F00
 F00
 F00
1953
 780
 F00
 F00
1953
 780
 F00
 F00
1D13
 F00
 F00
 F00
 E03
 F00
 F00
 F00
 E03
 778
4B84
CA07
  59
166D
8658
CE0F
B0F3
9AAD
4A94
864B
B0FA
8BBC
8568
4A0F
8589
8BBE
A56A
1B40
252B
CDDE
5BA4
 F01
207C
CCCF
4BB4
 700
2B0E
FFFF
255A
2DE0
 852
FFFF
8BBC
8778
B5AC
FFFF
CDDE
C33C
 FF0
FFFF
CDDE
D22D
4AA4
FFFF
EEEF
1EE1
 EF0
FFFF
FFFF
 778
4BA5
FFFF
FFFF
888F
1EE1
FFFF
FFFF
FFFF
 33C
FFFF
FFFF
FFFF
CCCF
 CD2
 A50
303E
 34C
 B84
 F00
 843
8F08
 9A4
 F00
 C23
8700
 9A4
 F00
2C07
8708
4D87
1C12
101E
434A
A469
2825
 693
A0B5
8478
 14A
3870
 80A
CA1C
 582
1872
40C5
4CB0
 D02
2C23
686F
870C
 D02
 C03
60E3
 780
 D02
 843
4081
 F00
 D02
2961
4807
 F00
 D02
 962
 187
 F08
 E03
 E10
829E
8524
 E11
   F
 128
122D
6521
 485
 21B
 F00
 F00
 F00
 E01
 F00
 F00
 F00
 C21
 F00
 F00
 F00
 C21
 F00
 F00
 F00
 C21
 F00
 F00
 F00
1D13
 F00
 F00
 F00
1953
 F00
 F00
 F00
1D17
 780
 F00
 F00
3B37
 F08
 F00
 F00
777F
 788
 F00
 F01
777F
 1E0
 F00
 E03
FFFF
 1E0
 F00
1D17
FFFF
 1E0
 E10
333F
FFFF
 780
 E03
FFFF
FFFF
 C30
111F
FFFF
FFFF
   F
FFFF
FFFF
FFFF
FFFF
FFFF
FFFF
FFFF
FFFF
FFFF
FFFF
FFFF
FFFF
FFFF
FFFF
FFFF
FFFF
FFFF
FFFF
FFFF
FFFF
FFFF
FFFF
FFFF
FFFF
FFFF
FFFF
FFFF
FFFF
FFFF
FFFF
FFFF
FFFF
FFFF
FEEF
F00F
FFFF
FFFF
F89E
FF0F
FFFF
FFFF
F34B
FF0F
FFFF
FCCF
BB0B
FE1E
FFFF
F9AD
B929
D858
FFFF
B30B
D858
3021
FFFF
B038
9090
F84B
FFFF
D89C
E0E0
C33C
FFFF
FCCF
F00F
8778
FFFF
FFFF
FBBF
FFFF
FFFF
FFFF
F11B
FFFF
FFFF
FEEF
F001
FFFF
FFFF
F88E
F001
FFFF
FFFF
F008
F001
FFFF
FFFF
F88C
F007
FFFF
FFFF
F88C
F337
FFFF
F77F
F88C
F337
FFFF
F80F
F00F
7B3F
FFFF
C196
3EC1
F00F
F00F
6314
 FF0
 FF0
1FE0
C3B4
 FF0
 FF0
 FF0
8778
 FF0
 FF0
 FF0
 FF0
 FF0
 FF0
 FF0
 FF0
 FF0
 FF0
 FF0
 FF0
4FB0
 FF0
 FF0
FFFF
FFFF
FFFF
FFFF
FEEF
F77F
FFFF
FFFF
FDDF
FBBF
FFFF
FFFF
FDDF
FBBF
FFFF
FFFF
FFFF
FBBF
FFFF
FFFF
FFFF
FBBF
FFFF
FFFF
FFFF
F77F
FFFF
FFFF
FFFF
F77F
FFFF
FFFF
FEEF
FFFF
FFFF
FFFF
F33F
FFFF
FFFF
FFFF
F807
F11F
FFFF
FFFF
 FF0
3EC1
FFFF
FFFF
 FF0
3EC1
FFFF
FFFF
8F70
7D93
FFFF
FFFF
877C
7BB7
FFFF
FFFF
4BB6
7BB7
FFFF
FFFF
FFFF
FFFF
D8AC
8778
FFFF
FFFF
ECDE
8778
FFFF
FFFF
FEEF
8778
FFFF
FFFF
FFFF
8778
FFFF
FFFF
FFFF
9768
FFFF
FFFF
FFFF
F629
FFFF
FFFF
FFFF
B54F
FFFF
F88F
FFFF
B10F
FFFF
FB8F
F11F
B45A
FFFF
FB8F
FC2D
9669
FFFF
FB8F
DC0C
8778
FFFF
FB8F
5404
8778
FFFF
FB8F
5404
8778
FFFF
FB8F
7043
8778
FFFF
FB8F
F11F
8778
FFFF
FB8F
F77F
8778
 FF0
 9D6
 FF0
 FF0
 FF0
E956
 FF0
 FF0
 FF0
21DE
 FF0
 FF0
 FF0
639C
 FF0
 FF0
 FF0
1FE0
388F
8E61
E31C
1FE0
F887
8EE1
FC0F
 FF0
3FC0
1FE0
DE0D
 778
 FF0
 FF0
E1C3
8F70
6F90
 FF0
E31C
1FE0
7087
 669
 FF0
6F90
344F
8E61
 FF0
29D6
 FF0
 FF0
 FF0
1AE7
 FF0
 FF0
 FF0
1AE7
 FF0
 FF0
 FF0
 BF4
 FF0
 FF0
 FF0
 FF0
 FF0
 FF0
3DC2
7BB7
FFFF
FFFF
2CC3
7BB7
FFFF
FFFF
3DC2
7BB7
FFFF
FFFF
C916
3997
FFFF
FFFF
833C
3EC1
FFFF
FFFF
 FF0
3EC1
FFFF
FFFF
CFF3
3A8D
FFFF
FFFF
70F0
B6C5
FFFF
FFFF
 FFF
3A8D
FFFF
FFFF
8F70
3EC1
FFFF
FFFF
833C
3DD7
FFFF
FFFF
EB14
7BB7
FFFF
FFFF
6D92
7BB7
FFFF
FFFF
3DC2
7BB7
FFFF
FFFF
2CC3
7BB7
FFFF
FFFF
3DC2
7BB7
FFFF
FFFF
FFFF
EA8E
F77F
8778
FFFF
FA8F
FFFF
8778
FFFF
F99F
FFFF
8778
FFFF
FFFF
FFFF
8778
FFFF
FFFF
FFFF
8778
FFFF
FFFF
FFFF
8778
FFFF
FFFF
FFFF
F00F
FFFF
FFFF
FFFF
FFFF
FFFF
FFFF
FFFF
FFFF
FFFF
FFFF
FFFF
FFFF
FFFF
FFFF
FFFF
FFFF
FFFF
FFFF
FFFF
FFFF
FFFF
FFFF
FFFF
FFFF
FFFF
FFFF
FFFF
FFFF
FFFF
FFFF
FFFF
FFFF
FFFF
FFFF
FFFF
FFFF
 FF0
 FF0
C31E
8F70
 FF0
1EE1
 F00
8669
 FF0
3EC1
3C03
 FF0
 FF0
 EE1
C33C
 FF0
 FF0
 FF0
 FF0
 FF0
 FF0
 FF0
 FF0
 FF0
F00F
F00F
F00F
F00F
FEEF
F66F
F113
FFFF
F88E
F227
F113
FFFF
F008
F007
F113
FFFF
F88C
F000
F113
FFFF
F88C
F000
F337
FFFF
F88C
F000
F77F
FFFF
FCCE
F007
FFFF
FFFF
FEEF
F77F
FFFF
FFFF
FFFF
FFFF
FFFF
FFFF
CB36
7BB7
FFFF
FFFF
833C
3DD7
FFFF
FFFF
 FF0
1CC3
FFFF
FFFF
 FF0
3EC1
FFFF
FFFF
 FF0
3EC1
FFFF
FFFF
1FE0
DC03
FFFF
FFFF
F00F
F11F
FFFF
FFFF
FFFF
FFFF
FFFF
FFFF
FEEF
FFFF
FFFF
FFFF
FFFF
F77F
FFFF
FFFF
FFFF
FBBF
FFFF
FFFF
FEEF
FBBF
FFFF
FFFF
FEEF
FDDF
FFFF
FFFF
FEEF
FDDF
FFFF
FFFF
FFFF
F55F
FFFF
FFFF
FFFF
FBBF
FFFF
FFFF
 F00
 F00
 F00
 F00
 F66
 F00
C74C
 F00
 FFF
 F00
8748
1E01
 FFF
 F88
8FC8
3D13
 8FF
 FEE
BCCB
6B14
 8BF
 FEE
BFFB
4F30
 89F
 7EE
C738
C738
 88F
 7EE
 F30
7F80
 807
 7EE
2F32
7DD7
 89F
 7EE
3D13
4BC0
 8BF
 FEE
 F00
8708
 8FF
 FEE
 F00
 F00
  FF
 FEE
 F00
 F00
 BFF
 F00
 F00
 F00
 FFF
 F00
 F00
 F00
 FFF
 F00
 F00
 F00
FFC3
FF0F
FF0F
FF0F
EEF8
FF0F
EE1E
77F0
F8FF
7787
EE1E
F2FD
3033
91E9
DC3D
8088
 CC0
7374
E0EE
3BB3
 FF0
7077
   0
7CC7
 FF0
38B3
 770
CB04
 FF0
3FC0
FE10
87E6
F99F
BFC8
F010
3CFC
1E01
BEC8
 F0F
34CC
 F00
48FB
 78F
 B4F
 F00
 CFF
2D0D
 16F
 F00
 8FF
E101
  3F
 F11
 8EF
6909
 80F
 F00
 8EF
7808
 C0F
 F00
 8FF
F380
8407
FF0F
FF0F
FF0F
FF0F
7787
FF0F
FF0F
FF0F
33C3
FF0F
FF0F
FF0F
D5E9
11E1
FF0F
FF0F
F0FF
  F0
7787
FF0F
C44C
C0FC
7787
FF0F
E66E
E2FC
33C3
FF0F
4B84
BAB9
99E1
FF0F
CB04
F47F
BBC3
FF0F
CF44
5815
BBC3
FF0F
87E6
 C00
99E1
FF0F
78F8
2EAA
91E9
EE1E
79C8
B493
1161
EE1E
215C
9F99
4470
FF0F
 3FE
9F99
4470
FF0F
17FF
9719
4470
FF0F
 F77
 F00
 F00
 F00
 F77
 F00
 F00
 F00
 F00
 F00
3E23
 F00
 F00
 F00
3F33
 F00
 F00
 F00
3E23
 F00
 F00
 F00
 F00
 F00
 F00
 F00
 F00
 F00
 F00
 F00
 F00
 F00
 F00
 F00
 F00
 F00
 F00
 F00
 F00
 F00
 F00
 F00
 F00
 F00
 F00
 F00
 F00
 F00
 F00
 F00
 F00
 F00
 F00
 F00
 F00
 F00
 F00
 F00
 F00
 F00
 F77
 F00
 F00
 F00
 F00
 9EF
CF30
CA13
 F00
 FCF
FF00
4E93
 F00
 F47
F000
C003
 F00
 D67
 F0F
 C0F
 F00
 E77
   F
   F
 F00
 F77
   F
   F
 F00
 F77
   F
   F
 F00
 F77
   F
   F
 F00
 F00
1EFE
F0F0
 F00
 F00
3CFC
F5F5
 F00
 F00
3DEC
FF00
 F00
 F00
2F32
 FF0
 F00
 F00
E33E
 FF0
 F00
 F00
E33E
 FF0
 F00
 F00
8FF8
 FF0
 F00
 F00
8FF8
 FF0
 7CC
1F11
4470
FF0F
 7CC
1F11
4470
FF0F
 3EE
2E22
4470
FF0F
 16E
4804
4470
FF0F
161E
E66E
4470
FF0F
6318
3DD3
4470
FF0F
6B18
 CC0
C4F8
FF0F
6B18
 EE0
C4F8
FF0F
8F70
D8D9
7787
FF0F
1FE0
FCFF
33C3
FF0F
3ED0
B3B0
B3CB
FF0F
1FF1
BBB8
7787
FF0F
 FF0
7275
BBC3
FF0F
 FF0
7176
88F0
FF0F
 FF0
3033
E6F8
7787
 FF0
   0
7770
33C3
 8FF
 FEE
 F00
 F00
 8FF
 7FF
 F00
 F00
  9F
 3FF
 F00
 F00
  8F
10FE
F087
F00F
  8F
116E
3FC0
EF10
  8F
117F
CFFC
8F70
 88F
 11F
 FB8
 FF0
 8CF
  1F
3D9B
 FF0
 8EF
  1F
3DDF
 FF0
 C67
   F
 7CC
F00F
 E77
   F
 7CC
 F00
 E77
  1F
 7CC
 F00
 F33
 1FF
 FCC
 F00
 F11
 1FF
 F88
 F00
 F11
 7EE
 F00
 F00
 F11
 FCC
 F00
 F00
 F00
1E01
 FF0
 FF0
 F00
3D13
 FF0
 FF0
 F00
F77F
 FF0
 FF0
F00F
8FF8
 FF0
3FC0
 FF0
 FF0
 FF0
3033
 FF0
 FF0
 EE0
3033
 FF0
 880
3033
EEF0
 EE0
   0
F1FE
CCF0
 CC0
7176
F3FC
  F0
F8FF
88F0
  F0
33C3
CCF0
  F0
11E1
FF0F
CCF0
  F0
FF0F
FF0F
DDE1
8878
FF0F
FF0F
BBC3
8878
33C3
FF0F
BBC3
8878
11E1
FF0F
BBC3
8878
11E1
FF0F
 FF0
 110
   0
99E1
 FF0
 330
4EA0
C4F8
 FF0
 FF0
 EE0
C0FC
FF00
3300
CF30
6076
7787
F8F7
8088
1110
33C3
FFF0
8088
3132
11E1
  F0
99F0
EEF0
33C3
  F0
  F0
  F0
FF0F
  F0
  F0
  F0
FF0F
FF0F
FF0F
CC3C
FF0F
FF0F
FF0F
FF0F
FF0F
FF0F
FF0F
FF0F
FF0F
FF0F
FF0F
FF0F
FF0F
FF0F
FF0F
FF0F
FF0F
FF0F
FF0F
FF0F
FF0F
FF0F
FF0F
FF0F
FFFF
FFFF
FFFF
FFFF
FFFF
FFFF
FFFF
FFFF
FFFF
FFFF
FFFF
FFFF
FFFF
FFFF
FFFF
FFFF
FFFF
FFFF
FFFF
FFFF
FFFF
FFFF
FFFF
FFFF
FFFF
FFFF
FFFF
FFFF
FFFF
FFFF
FFFF
FFFF
FFFF
FFFF
FFFF
FFFF
FFFF
FFFF
FFFF
FFFF
FFFF
FFFF
FFFF
FFFF
FFFF
FFFF
FFFF
FFFF
FFFF
FFFF
FFFF
FFFF
FFFF
FFFF
FFFF
FFFF
FFFF
FFFF
FFFF
FFFF
FFFF
FFFF
FFFF
FFFF
FFFF
FFFF
FFFF
FFFF
FFFF
FFFF
FFFF
FFFF
FFFF
FFFF
FFFF
FFFF
FFFF
FFFF
FFFF
FFFF
FFFF
FFFF
FFFF
FFFF
FFFF
FFFF
FFFF
FFFF
FFFF
FFFF
FFFF
FFFF
FFFF
FFFF
FFFF
FFFF
FFFF
FFFF
FFFF
FFFF
FFFF
FFFF
FFFF
FFFF
FFFF
FFFF
FFFF
FFFF
FFFF
FFFF
FFFF
FFFF
FFFF
FFFF
FFFF
FFFF
FFFF
FFFF
FFFF
FFFF
FFFF
FFFF
FFFF
FFFF
FFFF
FFFF
FFFF
FFFF
FFFF
FFFF
FFFF
FFFF
FFFF
FFFF
FFFF
FFFF
FFFF
FFFF
FFFF
FFFF
FFFF
FFFF
FFFF
FFFF
FFFF
FFFF
FFFF
FFFF
FFFF
FFFF
FFFF
FFFF
FFFF
FFFF
FFFF
FFFF
FFFF
FFFF
FFFF
FFFF
FFFF
FFFF
FFFF
FFFF
FFFF
FFFF
FFFF
FFFF
FFFF
FFFF
FFFF
FFFF
FFFF
FFFF
FFFF
FFFF
FFFF
FFFF
FFFF
FFFF
FFFF
FFFF
FFFF
FFFF
FFFF
FFFF
FFFF
FFFF
FFFF
FFFF
FFFF
FFFF
FFFF
FFFF
FFFF
FFFF
FFFF
FFFF
FFFF
FFFF
FFFF
FFFF
FFFF
FFFF
FFFF
FFFF
FFFF
FFFF
FFFF
FFFF
FFFF
FFFF
FFFF
FFFF
FFFF
FFFF
FFFF
FFFF
FFFF
FFFF
FFFF
FFFF
FFFF
FFFF
FFFF
FFFF
FFFF
FFFF
FFFF
FFFF
FFFF
FFFF
FFFF
FFFF
FFFF
FFFF
FFFF
FFFF
FFFF
FFFF
FFFF
FFFF
FFFF
FFFF
FFFF
FFFF
FFFF
FFFF
FFFF
FFFF
FFFF
FFFF
FFFF
FFFF
FFFF
FFFF
FFFF
FFFF
FFFF
FFFF
FFFF
FFFF
FFFF
FFFF
FFFF
FFFF
FFFF
FFFF
FFFF
FFFF
FFFF
FFFF
FFFF
FFFF
FFFF
FFFF
FFFF
FFFF
FFFF
FFFF
FFFF
FFFF
FFFF
FFFF
FFFF
FFFF
FFFF
FFFF
FFFF
FFFF
FFFF
FFFF
FFFF
FFFF
FFFF
FFFF
FFFF
FFFF
FFFF
FFFF
FFFF
FFFF
FFFF
FFFF
FFFF
FFFF
FFFF
FFFF
FFFF
FFFF
FFFF
FFFF
FFFF
FFFF
FFFF
FFFF
FFFF
FFFF
FFFF
FFFF
FFFF
FFFF
FFFF
FFFF
FFFF
FFFF
FFFF
FFFF
FFFF
FFFF
FFFF
FFFF
FFFF
FFFF
FFFF
FFFF
FFFF
FFFF
FFFF
FFFF
FFFF
FFFF
FFFF
FFFF
FFFF
FFFF
FFFF
FFFF
FFFF
FFFF
FFFF
FFFF
FFFF
FFFF
FFFF
FFFF
FFFF
FFFF
FFFF
FFFF
FFFF
FFFF
FFFF
FFFF
FFFF
FFFF
FFFF
FFFF
FFFF
FFFF
FFFF
FFFF
FFFF
FFFF
FFFF
FFFF
FFFF
FFFF
FFFF
FFFF
FFFF
FFFF
FFFF
FFFF
FFFF
FFFF
FFFF
FFFF
FFFF
FFFF
FFFF
FFFF
FFFF
FFFF
FFFF
FFFF
FFFF
FFFF
FFFF
FFFF
FFFF
FFFF
FFFF
FFFF
FFFF
FFFF
FFFF
FFFF
FFFF
FFFF
FFFF
FFFF
FFFF
FFFF
FFFF
FFFF
FFFF
FFFF
FFFF
FFFF
FFFF
FFFF
FFFF
FFFF
FFFF
FFFF
FFFF
FFFF
FFFF
FFFF
FFFF
FFFF
FFFF
FFFF
FFFF
FFFF
FFFF
FFFF
FFFF
FFFF
FFFF
FFFF
FFFF
FFFF
FFFF
FFFF
FFFF
FFFF
FFFF
FFFF
FFFF
FFFF
FFFF
FFFF
FFFF
FFFF
FFFF
FFFF
FFFF
FFFF
FFFF
FFFF
FFFF
FFFF
FFFF
FFFF
FFFF
FFFF
FFFF
FFFF
FFFF
FFFF
FFFF
FFFF
FFFF
FFFF
FFFF
FFFF
FFFF
FFFF
FFFF
FFFF
FFFF
FFFF
FFFF
FFFF
FFFF
FFFF
FFFF
FFFF
FFFF
FFFF
FFFF
FFFF
FFFF
FFFF
FFFF
FFFF
FFFF
FFFF
FFFF
FFFF
FFFF
FFFF
FFFF
FFFF
FFFF
FFFF
FFFF
FFFF
FFFF
FFFF
FFFF
FFFF
FFFF
FFFF
FFFF
FFFF
FFFF
FFFF
FFFF
FFFF
FFFF
FFFF
FFFF
FFFF
FFFF
FFFF
FFFF
FFFF
FFFF
FFFF
FFFF
FFFF
FFFF
FFFF
FFFF
FFFF
FFFF
FFFF
FFFF
FFFF
FFFF
FFFF
FFFF
FFFF
FFFF
FFFF
FFFF
FFFF
FFFF
FFFF
FFFF
FFFF
FFFF
FFFF
FFFF
FFFF
FFFF
FFFF
FFFF
FFFF
FFFF
FFFF
FFFF
FFFF
FFFF
FFFF
FFFF
FFFF
FFFF
FFFF
FFFF
FFFF
FFFF
FFFF
FFFF
FFFF
FFFF
FFFF
FFFF
FFFF
FFFF
FFFF
FFFF
FFFF
FFFF
FFFF
FFFF
FFFF
FFFF
FFFF
FFFF
FFFF
FFFF
FFFF
FFFF
FFFF
FFFF
FFFF
FFFF
FFFF
FFFF
FFFF
FFFF
FFFF
FFFF
FFFF
FFFF
FFFF
FFFF
FFFF
FFFF
FFFF
FFFF
FFFF
FFFF
FFFF
FFFF
FFFF
FFFF
FFFF
FFFF
FFFF
FFFF
FFFF
FFFF
FFFF
FFFF
FFFF
FFFF
FFFF
FFFF
FFFF
FFFF
FFFF
FFFF
FFFF
FFFF
FFFF
FFFF
FFFF
FFFF
FFFF
FFFF
FFFF
FFFF
FFFF
FFFF
FFFF
FFFF
FFFF
FFFF
FFFF
FFFF
FFFF
FFFF
FFFF
FFFF
FFFF
FFFF
FFFF
FFFF
FFFF
FFFF
FFFF
FFFF
FFFF
FFFF
FFFF
FFFF
FFFF
FFFF
FFFF
FFFF
FFFF
FFFF
FFFF
FFFF
FFFF
FFFF
FFFF
FFFF
FFFF
FFFF
FFFF
FFFF
FFFF
FFFF
FFFF
FFFF
FFFF
FFFF
FFFF
FFFF
FFFF
FFFF
FFFF
FFFF
FFFF
FFFF
FFFF
FFFF
FFFF
FFFF
FFFF
FFFF
FFFF
FFFF
FFFF
FFFF
FFFF
FFFF
FFFF
FFFF
FFFF
FFFF
FFFF
FFFF
FFFF
FFFF
FFFF
FFFF
FFFF
FFFF
FFFF
FFFF
FFFF
FFFF
FFFF
FFFF
FFFF
FFFF
FFFF
FFFF
FFFF
FFFF
FFFF
FFFF
FFFF
FFFF
FFFF
FFFF
FFFF
FFFF
FFFF
FFFF
FFFF
FFFF
FFFF
FFFF
FFFF
FFFF
FFFF
FFFF
FFFF
FFFF
FFFF
FFFF
FFFF
FFFF
FFFF
FFFF
FFFF
FFFF
FFFF
FFFF
FFFF
FFFF
FFFF
FFFF
FFFF
FFFF
FFFF
FFFF
FFFF
FFFF
FFFF
FFFF
FFFF
FFFF
FFFF
FFFF
FFFF
FFFF
FFFF
FFFF
FFFF
FFFF
FFFF
FFFF
FFFF
FFFF
FFFF
FFFF
FFFF
FFFF
FFFF
FFFF
FFFF
FFFF
FFFF
FFFF
FFFF
FFFF
FFFF
FFFF
FFFF
FFFF
FFFF
FFFF
FFFF
FFFF
FFFF
FFFF
FFFF
FFFF
FFFF
FFFF
FFFF
FFFF
FFFF
FFFF
FFFF
FFFF
FFFF
FFFF
FFFF
FFFF
FFFF
FFFF
FFFF
FFFF
FFFF
FFFF
FFFF
FFFF
FFFF
FFFF
FFFF
FFFF
FFFF
FFFF
FFFF
FFFF
FFFF
FFFF
FFFF
FFFF
FFFF
FFFF
FFFF
FFFF
FFFF
FFFF
FFFF
FFFF
FFFF
FFFF
FFFF
FFFF
FFFF
FFFF
FFFF
FFFF
FFFF
FFFF
FFFF
FFFF
FFFF
FFFF
FFFF
FFFF
FFFF
FFFF
FFFF
FFFF
FFFF
FFFF
FFFF
FFFF
FFFF
FFFF
FFFF
FFFF
FFFF
FFFF
FFFF
FFFF
FFFF
FFFF
FFFF
FFFF
FFFF
FFFF
FFFF
FFFF
FFFF
FFFF
FFFF
FFFF
FFFF
FFFF
FFFF
FFFF
FFFF
FFFF
FFFF
FFFF
FFFF
FFFF
FFFF
FFFF
FFFF
FFFF
FFFF
FFFF
FFFF
FFFF
FFFF
FFFF
FFFF
FFFF
FFFF
FFFF
FFFF
FFFF
FFFF
FFFF
FFFF
FFFF
FFFF
FFFF
FFFF
FFFF
FFFF
FFFF
FFFF
FFFF
FFFF
FFFF
FFFF
FFFF
FFFF
FFFF
FFFF
FFFF
FFFF
FFFF
FFFF
FFFF
FFFF
FFFF
FFFF
FFFF
FFFF
FFFF
FFFF
FFFF
FFFF
FFFF
FFFF
FFFF
FFFF
FFFF
FFFF
FFFF
FFFF
FFFF
FFFF
FFFF
FFFF
FFFF
FFFF
FFFF
FFFF
FFFF
FFFF
FFFF
FFFF
FFFF
FFFF
FFFF
FFFF
FFFF
FFFF
FFFF
FFFF
FFFF
FFFF
FFFF
FFFF
FFFF
FFFF
FFFF
FFFF
FFFF
FFFF
FFFF
FFFF
FFFF
FFFF
FFFF
FFFF
FFFF
FFFF
FFFF
FFFF
FFFF
FFFF
FFFF
FFFF
FFFF
FFFF
FFFF
FFFF
FFFF
FFFF
FFFF
FFFF
FFFF
FFFF
FFFF
FFFF
FFFF
FFFF
FFFF
FFFF
FFFF
FFFF
FFFF
FFFF
FFFF
FFFF
FFFF
FFFF
FFFF
FFFF
FFFF
FFFF
FFFF
FFFF
FFFF
FFFF
FFFF
FFFF
FFFF
FFFF
FFFF
FFFF
FFFF
FFFF
FFFF
FFFF
FFFF
FFFF
FFFF
FFFF
FFFF
FFFF
FFFF
FFFF
FFFF
FFFF
FFFF
FFFF
FFFF
FFFF
FFFF
FFFF
FFFF
FFFF
FFFF
FFFF
FFFF
FFFF
FFFF
FFFF
FFFF
FFFF
FFFF
FFFF
FFFF
FFFF
FFFF
FFFF
FFFF
FFFF
FFFF
FFFF
FFFF
FFFF
FFFF
FFFF
FFFF
FFFF
FFFF
FFFF
FFFF
FFFF
FFFF
FFFF
FFFF
FFFF
FFFF
FFFF
FFFF
FFFF
FFFF
FFFF
FFFF
FFFF
FFFF
FFFF
FFFF
FFFF
FFFF
FFFF
FFFF
FFFF
FFFF
FFFF
FFFF
FFFF
FFFF
FFFF
FFFF
FFFF
FFFF
FFFF
FFFF
FFFF
FFFF
FFFF
FFFF
FFFF
FFFF
FFFF
FFFF
FFFF
FFFF
FFFF
FFFF
FFFF
FFFF
FFFF
FFFF
FFFF
FFFF
FFFF
FFFF
FFFF
FFFF
FFFF
FFFF
FFFF
FFFF
FFFF
FFFF
FFFF
FFFF
FFFF
FFFF
FFFF
FFFF
FFFF
FFFF
FFFF
FFFF
FFFF
FFFF
FFFF
FFFF
FFFF
FFFF
FFFF
FFFF
FFFF
FFFF
FFFF
FFFF
FFFF
FFFF
FFFF
FFFF
FFFF
FFFF
FFFF
FFFF
FFFF
FFFF
FFFF
FFFF
FFFF
FFFF
FFFF
FFFF
FFFF
FFFF
FFFF
FFFF
FFFF
FFFF
FFFF
FFFF
FFFF
FFFF
FFFF
FFFF
FFFF
FFFF
FFFF
FFFF
FFFF
FFFF
FFFF
FFFF
FFFF
FFFF
FFFF
FFFF
FFFF
FFFF
FFFF
FFFF
FFFF
FFFF
FFFF
FFFF
FFFF
FFFF
FFFF
FFFF
FFFF
FFFF
FFFF
FFFF
FFFF
FFFF
FFFF
FFFF
FFFF
FFFF
FFFF
FFFF
FFFF
FFFF
FFFF
FFFF
FFFF
FFFF
FFFF
FFFF
FFFF
FFFF
FFFF
FFFF
FFFF
FFFF
FFFF
FFFF
FFFF
FFFF
FFFF
FFFF
FFFF
FFFF
FFFF
FFFF
FFFF
FFFF
FFFF
FFFF
FFFF
FFFF
FFFF
FFFF
FFFF
FFFF
FFFF
FFFF
FFFF
FFFF
FFFF
FFFF
FFFF
FFFF
FFFF
FFFF
FFFF
FFFF
FFFF
FFFF
FFFF
FFFF
FFFF
FFFF
FFFF
FFFF
FFFF
FFFF
FFFF
FFFF
FFFF
FFFF
FFFF
FFFF
FFFF
FFFF
FFFF
FFFF
FFFF
FFFF
FFFF
FFFF
FFFF
FFFF
FFFF
FFFF
FFFF
FFFF
FFFF
FFFF
FFFF
FFFF
FFFF
FFFF
FFFF
FFFF
FFFF
FFFF
FFFF
FFFF
FFFF
FFFF
FFFF
FFFF
FFFF
FFFF
FFFF
FFFF
FFFF
FFFF
FFFF
FFFF
FFFF
FFFF
FFFF
FFFF
FFFF
FFFF
FFFF
FFFF
FFFF
FFFF
FFFF
FFFF
FFFF
FFFF
FFFF
FFFF
FFFF
FFFF
FFFF
FFFF
FFFF
FFFF
FFFF
FFFF
FFFF
FFFF
FFFF
FFFF
FFFF
FFFF
FFFF
FFFF
FFFF
FFFF
FFFF
FFFF
FFFF
FFFF
FFFF
FFFF
FFFF
FFFF
FFFF
FFFF
FFFF
FFFF
FFFF
FFFF
FFFF
FFFF
FFFF
FFFF
FFFF
FFFF
FFFF
FFFF
FFFF
FFFF
FFFF
FFFF
FFFF
FFFF
FFFF
FFFF
FFFF
FFFF
FFFF
FFFF
FFFF
FFFF
FFFF
FFFF
FFFF
FFFF
FFFF
FFFF
FFFF
FFFF
FFFF
FFFF
FFFF
FFFF
FFFF
FFFF
FFFF
FFFF
FFFF
FFFF
FFFF
FFFF
FFFF
FFFF
FFFF
FFFF
FFFF
FFFF
FFFF
FFFF
FFFF
FFFF
FFFF
FFFF
FFFF
FFFF
FFFF
FFFF
FFFF
FFFF
FFFF
FFFF
FFFF
FFFF
FFFF
FFFF
FFFF
FFFF
FFFF
FFFF
FFFF
FFFF
FFFF
FFFF
FFFF
FFFF
FFFF
FFFF
FFFF
FFFF
FFFF
FFFF
FFFF
FFFF
FFFF
FFFF
FFFF
FFFF
FFFF
FFFF
FFFF
FFFF
FFFF
FFFF
FFFF
FFFF
FFFF
FFFF
FFFF
FFFF
FFFF
FFFF
FFFF
FFFF
FFFF
FFFF
FFFF
FFFF
FFFF
FFFF
FFFF
FFFF
FFFF
FFFF
FFFF
FFFF
FFFF
FFFF
FFFF
FFFF
FFFF
FFFF
FFFF
FFFF
FFFF
FFFF
FFFF
FFFF
FFFF
FFFF
FFFF
FFFF
FFFF
FFFF
FFFF
FFFF
FFFF
FFFF
FFFF
FFFF
FFFF
FFFF
FFFF
FFFF
FFFF
FFFF
FFFF
FFFF
FFFF
FFFF
FFFF
FFFF
FFFF
FFFF
FFFF
FFFF
FFFF
FFFF
FFFF
FFFF
FFFF
FFFF
FFFF
FFFF
FFFF
FFFF
FFFF
FFFF
FFFF
FFFF
FFFF
FFFF
FFFF
FFFF
FFFF
FFFF
FFFF
FFFF
FFFF
FFFF
FFFF
FFFF
FFFF
FFFF
FFFF
FFFF
FFFF
FFFF
FFFF
FFFF
FFFF
FFFF
FFFF
FFFF
FFFF
FFFF
FFFF
FFFF
FFFF
FFFF
FFFF
FFFF
FFFF
FFFF
FFFF
FFFF
FFFF
FFFF
FFFF
FFFF
FFFF
FFFF
FFFF
FFFF
FFFF
FFFF
FFFF
FFFF
FFFF
FFFF
FFFF
FFFF
FFFF
FFFF
FFFF
FFFF
FFFF
FFFF
FFFF
FFFF
FFFF
FFFF
FFFF
FFFF
FFFF
FFFF
FFFF
FFFF
FFFF
FFFF
FFFF
FFFF
FFFF
FFFF
FFFF
FFFF
FFFF
FFFF
FFFF
FFFF
FFFF
FFFF
FFFF
FFFF
FFFF
FFFF
FFFF
FFFF
FFFF
FFFF
FFFF
FFFF
FFFF
FFFF
FFFF
FFFF
FFFF
FFFF
FFFF
FFFF
FFFF
FFFF
FFFF
FFFF
FFFF
FFFF
FFFF
FFFF
FFFF
FFFF
FFFF
FFFF
FFFF
FFFF
FFFF
FFFF
FFFF
FFFF
FFFF
FFFF
FFFF
FFFF
FFFF
FFFF
FFFF
FFFF
FFFF
FFFF
FFFF
FFFF
FFFF
FFFF
FFFF
FFFF
FFFF
FFFF
FFFF
FFFF
FFFF
FFFF
FFFF
FFFF
FFFF
FFFF
FFFF
FFFF
FFFF
FFFF
FFFF
FFFF
FFFF
FFFF
FFFF
FFFF
FFFF
FFFF
FFFF
FFFF
FFFF
FFFF
FFFF
FFFF
FFFF
FFFF
FFFF
FFFF
FFFF
FFFF
FFFF
FFFF
FFFF
FFFF
FFFF
FFFF
FFFF
FFFF
FFFF
FFFF
FFFF
FFFF
FFFF
FFFF
FFFF
FFFF
FFFF
FFFF
FFFF
FFFF
FFFF
FFFF
FFFF
FFFF
FFFF
FFFF
FFFF
FFFF
FFFF
FFFF
FFFF
FFFF
FFFF
FFFF
FFFF
FFFF
FFFF
FFFF
FFFF
FFFF
FFFF
FFFF
FFFF
FFFF
FFFF
FFFF
FFFF
FFFF
FFFF
FFFF
FFFF
FFFF
FFFF
FFFF
FFFF
FFFF
FFFF
FFFF
FFFF
FFFF
FFFF
FFFF
FFFF
FFFF
FFFF
FFFF
FFFF
FFFF
FFFF
FFFF
FFFF
FFFF
FFFF
FFFF
FFFF
FFFF
FFFF
FFFF
FFFF
FFFF
FFFF
FFFF
FFFF
FFFF
FFFF
FFFF
FFFF
FFFF
FFFF
FFFF
FFFF
FFFF
FFFF
FFFF
FFFF
FFFF
FFFF
FFFF
FFFF
FFFF
FFFF
FFFF
FFFF
FFFF
FFFF
FFFF
FFFF
FFFF
FFFF
FFFF
FFFF
FFFF
FFFF
FFFF
FFFF
FFFF
FFFF
FFFF
FFFF
FFFF
FFFF
FFFF
FFFF
FFFF
FFFF
FFFF
FFFF
FFFF
FFFF
FFFF
FFFF
FFFF
FFFF
FFFF
FFFF
FFFF
FFFF
FFFF
FFFF
FFFF
FFFF
FFFF
FFFF
FFFF
FFFF
FFFF
FFFF
FFFF
FFFF
FFFF
FFFF
FFFF
FFFF
FFFF
FFFF
FFFF
FFFF
FFFF
FFFF
FFFF
FFFF
FFFF
FFFF
FFFF
FFFF
FFFF
FFFF
FFFF
FFFF
FFFF
FFFF
FFFF
FFFF
FFFF
FFFF
FFFF
FFFF
FFFF
FFFF
FFFF
FFFF
FFFF
FFFF
FFFF
FFFF
FFFF
FFFF
FFFF
FFFF
FFFF
FFFF
FFFF
FFFF
FFFF
FFFF
FFFF
FFFF
FFFF
FFFF
FFFF
FFFF
FFFF
FFFF
FFFF
FFFF
FFFF
FFFF
FFFF
FFFF
FFFF
FFFF
FFFF
FFFF
FFFF
FFFF
FFFF
FFFF
FFFF
FFFF
FFFF
FFFF
FFFF
FFFF
FFFF
FFFF
FFFF
FFFF
FFFF
FFFF
FFFF
FFFF
FFFF
FFFF
FFFF
FFFF
FFFF
FFFF
FFFF
FFFF
FFFF
FFFF
FFFF
FFFF
FFFF
FFFF
FFFF
FFFF
FFFF
FFFF
FFFF
FFFF
FFFF
FFFF
FFFF
FFFF
FFFF
FFFF
FFFF
FFFF
FFFF
FFFF
FFFF
FFFF
FFFF
FFFF
FFFF
FFFF
FFFF
FFFF
FFFF
FFFF
FFFF
FFFF
FFFF
FFFF
FFFF
FFFF
FFFF
FFFF
FFFF
FFFF
FFFF
FFFF
FFFF
FFFF
FFFF
FFFF
FFFF
FFFF
FFFF
FFFF
FFFF
FFFF
FFFF
FFFF
FFFF
FFFF
FFFF
FFFF
FFFF
FFFF
FFFF
FFFF
FFFF
FFFF
FFFF
FFFF
FFFF
FFFF
FFFF
FFFF
FFFF
FFFF
FFFF
FFFF
FFFF
FFFF
FFFF
FFFF
FFFF
FFFF
FFFF
FFFF
FFFF
FFFF
FFFF
FFFF
FFFF
FFFF
FFFF
FFFF
FFFF
FFFF
FFFF
FFFF
FFFF
FFFF
FFFF
FFFF
FFFF
FFFF
FFFF
FFFF
FFFF
FFFF
FFFF
FFFF
FFFF
FFFF
FFFF
FFFF
FFFF
FFFF
FFFF
FFFF
FFFF
FFFF
FFFF
FFFF
FFFF
FFFF
FFFF
FFFF
FFFF
FFFF
FFFF
FFFF
FFFF
FFFF
FFFF
FFFF
FFFF
FFFF
FFFF
FFFF
FFFF
FFFF
FFFF
FFFF
FFFF
FFFF
FFFF
FFFF
FFFF
FFFF
FFFF
FFFF
FFFF
FFFF
FFFF
FFFF
FFFF
FFFF
FFFF
FFFF
FFFF
FFFF
FFFF
FFFF
FFFF
FFFF
FFFF
FFFF
FFFF
FFFF
FFFF
FFFF
FFFF
FFFF
FFFF
FFFF
FFFF
FFFF
FFFF
FFFF
FFFF
FFFF
FFFF
FFFF
FFFF
FFFF
FFFF
FFFF
FFFF
FFFF
FFFF
FFFF
FFFF
FFFF
FFFF
FFFF
FFFF
FFFF
FFFF
FFFF
FFFF
FFFF
FFFF
FFFF
FFFF
FFFF
FFFF
FFFF
FFFF
FFFF
FFFF
FFFF
FFFF
FFFF
FFFF
FFFF
FFFF
FFFF
FFFF
FFFF
FFFF
FFFF
FFFF
FFFF
FFFF
FFFF
FFFF
FFFF
FFFF
FFFF
FFFF
FFFF
FFFF
FFFF
FFFF
FFFF
FFFF
FFFF
FFFF
FFFF
FFFF
FFFF
FFFF
FFFF
FFFF
FFFF
FFFF
FFFF
FFFF
FFFF
FFFF
FFFF
FFFF
FFFF
FFFF
FFFF
FFFF
FFFF
FFFF
FFFF
FFFF
FFFF
FFFF
FFFF
FFFF
FFFF
FFFF
FFFF
FFFF
FFFF
FFFF
FFFF
FFFF
FFFF
FFFF
FFFF
FFFF
FFFF
FFFF
FFFF
FFFF
FFFF
FFFF
FFFF
FFFF
FFFF
FFFF
FFFF
FFFF
FFFF
FFFF
FFFF
FFFF
FFFF
FFFF
FFFF
FFFF
FFFF
FFFF
FFFF
FFFF
FFFF
FFFF
FFFF
FFFF
FFFF
FFFF
FFFF
FFFF
FFFF
FFFF
FFFF
FFFF
FFFF
FFFF
FFFF
FFFF
FFFF
FFFF
FFFF
FFFF
FFFF
FFFF
FFFF
FFFF
FFFF
FFFF
FFFF
FFFF
FFFF
FFFF
FFFF
FFFF
FFFF
FFFF
FFFF
FFFF
FFFF
FFFF
FFFF
FFFF
FFFF
FFFF
FFFF
FFFF
FFFF
FFFF
FFFF
FFFF
FFFF
FFFF
FFFF
FFFF
FFFF
FFFF
FFFF
FFFF
FFFF
FFFF
FFFF
FFFF
FFFF
FFFF
FFFF
FFFF
FFFF
FFFF
FFFF
FFFF
FFFF
FFFF
FFFF
FFFF
FFFF
FFFF
FFFF
FFFF
FFFF
FFFF
FFFF
FFFF
FFFF
FFFF
FFFF
FFFF
FFFF
FFFF
FFFF
FFFF
FFFF
FFFF
FFFF
FFFF
FFFF
FFFF
FFFF
FFFF
FFFF
FFFF
FFFF
FFFF
FFFF
FFFF
FFFF
FFFF
FFFF
FFFF
FFFF
FFFF
FFFF
FFFF
FFFF
FFFF
FFFF
FFFF
FFFF
FFFF
FFFF
FFFF
FFFF
FFFF
FFFF
FFFF
FFFF
FFFF
FFFF
FFFF
FFFF
FFFF
FFFF
FFFF
FFFF
FFFF
FFFF
FFFF
FFFF
FFFF
FFFF
FFFF
FFFF
FFFF
FFFF
FFFF
FFFF
FFFF
FFFF
FFFF
FFFF
FFFF
FFFF
FFFF
FFFF
FFFF
FFFF
FFFF
FFFF
FFFF
FFFF
FFFF
FFFF
FFFF
FFFF
FFFF
FFFF
FFFF
FFFF
FFFF
FFFF
FFFF
FFFF
FFFF
FFFF
FFFF
FFFF
FFFF
FFFF
FFFF
FFFF
FFFF
FFFF
FFFF
FFFF
FFFF
FFFF
FFFF
FFFF
FFFF
FFFF
FFFF
FFFF
FFFF
FFFF
FFFF
FFFF
FFFF
FFFF
FFFF
FFFF
FFFF
FFFF
FFFF
FFFF
FFFF
FFFF
FFFF
FFFF
FFFF
FFFF
FFFF
FFFF
FFFF
FFFF
FFFF
FFFF
FFFF
FFFF
FFFF
FFFF
FFFF
FFFF
FFFF
FFFF
FFFF
FFFF
FFFF
FFFF
FFFF
FFFF
FFFF
FFFF
FFFF
FFFF
FFFF
FFFF
FFFF
FFFF
FFFF
FFFF
FFFF
FFFF
FFFF
FFFF
FFFF
FFFF
FFFF
FFFF
FFFF
FFFF
FFFF
FFFF
FFFF
FFFF
FFFF
FFFF
FFFF
FFFF
FFFF
FFFF
FFFF
FFFF
FFFF
FFFF
FFFF
FFFF
FFFF
FFFF
FFFF
FFFF
FFFF
FFFF
FFFF
FFFF
FFFF
FFFF
FFFF
FFFF
FFFF
FFFF
FFFF
FFFF
FFFF
FFFF
FFFF
FFFF
FFFF
FFFF
FFFF
FFFF
FFFF
FFFF
FFFF
FFFF
FFFF
FFFF
FFFF
FFFF
FFFF
FFFF
FFFF
FFFF
FFFF
FFFF
FFFF
FFFF
FFFF
FFFF
FFFF
FFFF
FFFF
FFFF
FFFF
FFFF
FFFF
FFFF
FFFF
FFFF
FFFF
FFFF
FFFF
FFFF
FFFF
FFFF
FFFF
FFFF
FFFF
FFFF
FFFF
FFFF
FFFF
FFFF
FFFF
FFFF
FFFF
FFFF
FFFF
FFFF
FFFF
FFFF
FFFF
FFFF
FFFF
FFFF
FFFF
FFFF
FFFF
FFFF
FFFF
FFFF
FFFF
FFFF
FFFF
FFFF
FFFF
FFFF
FFFF
FFFF
FFFF
FFFF
FFFF
FFFF
FFFF
FFFF
FFFF
FFFF
FFFF
FFFF
FFFF
FFFF
FFFF
FFFF
FFFF
FFFF
FFFF
FFFF
FFFF
FFFF
FFFF
FFFF
FFFF
FFFF
FFFF
FFFF
FFFF
FFFF
FFFF
FFFF
FFFF
FFFF
FFFF
FFFF
FFFF
FFFF
FFFF
FFFF
FFFF
FFFF
FFFF
FFFF
FFFF
FFFF
FFFF
FFFF
FFFF
FFFF
FFFF
FFFF
FFFF
FFFF
FFFF
FFFF
FFFF
FFFF
FFFF
FFFF
FFFF
FFFF
FFFF
FFFF
FFFF
FFFF
FFFF
FFFF
FFFF
FFFF
FFFF
FFFF
FFFF
FFFF
FFFF
FFFF
FFFF
FFFF
FFFF
FFFF
FFFF
FFFF
FFFF
FFFF
FFFF
FFFF
FFFF
FFFF
FFFF
FFFF
FFFF
FFFF
FFFF
FFFF
FFFF
FFFF
FFFF
FFFF
FFFF
FFFF
FFFF
FFFF
FFFF
FFFF
FFFF
FFFF
FFFF
FFFF
FFFF
FFFF
FFFF
FFFF
FFFF
FFFF
FFFF
FFFF
FFFF
FFFF
FFFF
FFFF
FFFF
FFFF
FFFF
FFFF
FFFF
FFFF
FFFF
FFFF
FFFF
FFFF
FFFF
FFFF
FFFF
FFFF
FFFF
FFFF
FFFF
FFFF
FFFF
FFFF
FFFF
FFFF
FFFF
FFFF
FFFF
FFFF
FFFF
FFFF
FFFF
FFFF
FFFF
FFFF
FFFF
FFFF
FFFF
FFFF
FFFF
FFFF
FFFF
FFFF
FFFF
FFFF
FFFF
FFFF
FFFF
FFFF
FFFF
FFFF
FFFF
FFFF
FFFF
FFFF
FFFF
FFFF
FFFF
FFFF
FFFF
FFFF
FFFF
FFFF
FFFF
FFFF
FFFF
FFFF
FFFF
FFFF
FFFF
FFFF
FFFF
FFFF
FFFF
FFFF
FFFF
FFFF
FFFF
FFFF
FFFF
FFFF
FFFF
FFFF
FFFF
FFFF
FFFF
FFFF
FFFF
FFFF
FFFF
FFFF
FFFF
FFFF
FFFF
FFFF
FFFF
FFFF
FFFF
FFFF
FFFF
FFFF
FFFF
FFFF
FFFF
FFFF
FFFF
FFFF
FFFF
FFFF
FFFF
FFFF
FFFF
FFFF
FFFF
FFFF
FFFF
FFFF
FFFF
FFFF
FFFF
FFFF
FFFF
FFFF
FFFF
FFFF
FFFF
FFFF
FFFF
FFFF
FFFF
FFFF
FFFF
FFFF
FFFF
FFFF
FFFF
FFFF
FFFF
FFFF
FFFF
FFFF
FFFF
FFFF
FFFF
FFFF
FFFF
FFFF
FFFF
FFFF
FFFF
FFFF
FFFF
FFFF
FFFF
FFFF
FFFF
FFFF
FFFF
FFFF
FFFF
FFFF
FFFF
FFFF
FFFF
FFFF
FFFF
FFFF
FFFF
FFFF
FFFF
FFFF
FFFF
FFFF
FFFF
FFFF
FFFF
FFFF
FFFF
FFFF
FFFF
FFFF
FFFF
FFFF
FFFF
FFFF
FFFF
FFFF
FFFF
FFFF
FFFF
FFFF
FFFF
FFFF
FFFF
FFFF
FFFF
FFFF
FFFF
FFFF
FFFF
FFFF
FFFF
FFFF
FFFF
FFFF
FFFF
FFFF
FFFF
FFFF
FFFF
FFFF
FFFF
FFFF
FFFF
FFFF
FFFF
FFFF
FFFF
FFFF
FFFF
FFFF
FFFF
FFFF
FFFF
FFFF
FFFF
FFFF
FFFF
FFFF
FFFF
FFFF
FFFF
FFFF
FFFF
FFFF
FFFF
FFFF
FFFF
FFFF
FFFF
FFFF
FFFF
FFFF
FFFF
FFFF
FFFF
FFFF
FFFF
FFFF
FFFF
FFFF
FFFF
FFFF
FFFF
FFFF
FFFF
FFFF
FFFF
FFFF
FFFF
FFFF
FFFF
FFFF
FFFF
FFFF
FFFF
FFFF
FFFF
FFFF
FFFF
FFFF
FFFF
FFFF
FFFF
FFFF
FFFF
FFFF
FFFF
FFFF
FFFF
FFFF
FFFF
FFFF
FFFF
FFFF
FFFF
FFFF
FFFF
FFFF
FFFF
FFFF
FFFF
FFFF
FFFF
FFFF
FFFF
FFFF
FFFF
FFFF
FFFF
FFFF
FFFF
FFFF
FFFF
FFFF
FFFF
FFFF
FFFF
FFFF
FFFF
FFFF
FFFF
FFFF
FFFF
FFFF
FFFF
FFFF
FFFF
FFFF
FFFF
FFFF
FFFF
FFFF
FFFF
FFFF
FFFF
FFFF
FFFF
FFFF
FFFF
FFFF
FFFF
FFFF
FFFF
FFFF
FFFF
FFFF
FFFF
FFFF
FFFF
FFFF
FFFF
FFFF
FFFF
FFFF
FFFF
FFFF
FFFF
FFFF
FFFF
FFFF
FFFF
FFFF
FFFF
FFFF
FFFF
FFFF
FFFF
FFFF
FFFF
FFFF
FFFF
FFFF
FFFF
FFFF
FFFF
FFFF
FFFF
FFFF
FFFF
FFFF
FFFF
FFFF
FFFF
FFFF
FFFF
FFFF
FFFF
FFFF
FFFF
FFFF
FFFF
FFFF
FFFF
FFFF
FFFF
FFFF
FFFF
FFFF
FFFF
FFFF
FFFF
FFFF
FFFF
FFFF
FFFF
FFFF
FFFF
FFFF
FFFF
FFFF
FFFF
FFFF
FFFF
FFFF
FFFF
FFFF
FFFF
FFFF
FFFF
FFFF
FFFF
FFFF
FFFF
FFFF
FFFF
FFFF
FFFF
FFFF
FFFF
FFFF
FFFF
FFFF
FFFF
FFFF
FFFF
FFFF
FFFF
FFFF
FFFF
FFFF
FFFF
FFFF
FFFF
FFFF
FFFF
FFFF
FFFF
FFFF
FFFF
FFFF
FFFF
FFFF
FFFF
FFFF
FFFF
FFFF
FFFF
FFFF
FFFF
FFFF
FFFF
FFFF
FFFF
FFFF
FFFF
FFFF
FFFF
FFFF
FFFF
FFFF
FFFF
FFFF
FFFF
FFFF
FFFF
FFFF
FFFF
FFFF
FFFF
FFFF
FFFF
FFFF
FFFF
FFFF
FFFF
FFFF
FFFF
FFFF
FFFF
FFFF
FFFF
FFFF
FFFF
FFFF
FFFF
FFFF
FFFF
FFFF
FFFF
FFFF
FFFF
FFFF
FFFF
FFFF
FFFF
FFFF
FFFF
FFFF
FFFF
FFFF
FFFF
FFFF
FFFF
FFFF
FFFF
FFFF
FFFF
FFFF
FFFF
FFFF
FFFF
FFFF
FFFF
FFFF
FFFF
FFFF
FFFF
FFFF
FFFF
FFFF
FFFF
FFFF
FFFF
FFFF
FFFF
FFFF
FFFF
FFFF
FFFF
FFFF
FFFF
FFFF
FFFF
FFFF
FFFF
FFFF
FFFF
FFFF
FFFF
FFFF
FFFF
FFFF
FFFF
FFFF
FFFF
FFFF
FFFF
FFFF
FFFF
FFFF
FFFF
FFFF
FFFF
FFFF
FFFF
FFFF
FFFF
FFFF
FFFF
FFFF
FFFF
FFFF
FFFF
FFFF
FFFF
FFFF
FFFF
FFFF
FFFF
FFFF
FFFF
FFFF
FFFF
FFFF
FFFF
FFFF
FFFF
FFFF
FFFF
FFFF
FFFF
FFFF
FFFF
FFFF
FFFF
FFFF
FFFF
FFFF
FFFF
FFFF
FFFF
FFFF
FFFF
FFFF
FFFF
FFFF
FFFF
FFFF
FFFF
FFFF
FFFF
FFFF
FFFF
FFFF
FFFF
FFFF
FFFF
FFFF
FFFF
FFFF
FFFF
FFFF
FFFF
FFFF
FFFF
FFFF
FFFF
FFFF
FFFF
FFFF
FFFF
FFFF
FFFF
FFFF
FFFF
FFFF
FFFF
FFFF
FFFF
FFFF
FFFF
FFFF
FFFF
FFFF
FFFF
FFFF
FFFF
FFFF
FFFF
FFFF
FFFF
FFFF
FFFF
FFFF
FFFF
FFFF
FFFF
FFFF
FFFF
FFFF
FFFF
FFFF
FFFF
FFFF
FFFF
FFFF
FFFF
FFFF
FFFF
FFFF
FFFF
FFFF
FFFF
FFFF
FFFF
FFFF
FFFF
FFFF
FFFF
FFFF
FFFF
FFFF
FFFF
FFFF
FFFF
FFFF
FFFF
FFFF
FFFF
FFFF
FFFF
FFFF
FFFF
FFFF
FFFF
FFFF
FFFF
FFFF
FFFF
FFFF
FFFF
FFFF
FFFF
FFFF
FFFF
FFFF
FFFF
FFFF
FFFF
FFFF
FFFF
FFFF
FFFF
FFFF
FFFF
FFFF
FFFF
FFFF
FFFF
FFFF
FFFF
FFFF
FFFF
FFFF
FFFF
FFFF
FFFF
FFFF
FFFF
FFFF
FFFF
FFFF
FFFF
FFFF
FFFF
FFFF
FFFF
FFFF
FFFF
FFFF
FFFF
FFFF
FFFF
FFFF
FFFF
FFFF
FFFF
FFFF
FFFF
FFFF
FFFF
FFFF
FFFF
FFFF
FFFF
FFFF
FFFF
FFFF
FFFF
FFFF
FFFF
FFFF
FFFF
FFFF
FFFF
FFFF
FFFF
FFFF
FFFF
FFFF
FFFF
FFFF
FFFF
FFFF
FFFF
FFFF
FFFF
FFFF
FFFF
FFFF
FFFF
FFFF
FFFF
FFFF
FFFF
FFFF
FFFF
FFFF
FFFF
FFFF
FFFF
FFFF
FFFF
FFFF
FFFF
FFFF
FFFF
FFFF
FFFF
FFFF
FFFF
FFFF
FFFF
FFFF
FFFF
FFFF
FFFF
FFFF
FFFF
FFFF
FFFF
FFFF
FFFF
FFFF
FFFF
FFFF
FFFF
FFFF
FFFF
FFFF
FFFF
FFFF
FFFF
FFFF
FFFF
FFFF
FFFF
FFFF
FFFF
FFFF
FFFF
FFFF
FFFF
FFFF
FFFF
FFFF
FFFF
FFFF
FFFF
FFFF
FFFF
FFFF
FFFF
FFFF
FFFF
FFFF
FFFF
FFFF
FFFF
FFFF
FFFF
FFFF
FFFF
FFFF
FFFF
FFFF
FFFF
FFFF
FFFF
FFFF
FFFF
FFFF
FFFF
FFFF
FFFF
FFFF
FFFF
FFFF
FFFF
FFFF
FFFF
FFFF
FFFF
FFFF
FFFF
FFFF
FFFF
FFFF
FFFF
FFFF
FFFF
FFFF
FFFF
FFFF
FFFF
FFFF
FFFF
FFFF
FFFF
FFFF
FFFF
FFFF
FFFF
FFFF
FFFF
FFFF
FFFF
FFFF
FFFF
FFFF
FFFF
FFFF
FFFF
FFFF
FFFF
FFFF
FFFF
FFFF
FFFF
FFFF
FFFF
FFFF
FFFF
FFFF
FFFF
FFFF
FFFF
FFFF
FFFF
FFFF
FFFF
FFFF
FFFF
FFFF
FFFF
FFFF
FFFF
FFFF
FFFF
FFFF
FFFF
FFFF
FFFF
FFFF
FFFF
FFFF
FFFF
FFFF
FFFF
FFFF
FFFF
FFFF
FFFF
FFFF
FFFF
FFFF
FFFF
FFFF
FFFF
FFFF
FFFF
FFFF
FFFF
FFFF
FFFF
FFFF
FFFF
FFFF
FFFF
FFFF
FFFF
FFFF
FFFF
FFFF
FFFF
FFFF
FFFF
FFFF
FFFF
FFFF
FFFF
FFFF
FFFF
FFFF
FFFF
FFFF
FFFF
FFFF
FFFF
FFFF
FFFF
FFFF
FFFF
FFFF
FFFF
FFFF
FFFF
FFFF
FFFF
FFFF
FFFF
FFFF
FFFF
FFFF
FFFF
FFFF
FFFF
FFFF
FFFF
FFFF
FFFF
FFFF
FFFF
FFFF
FFFF
FFFF
FFFF
FFFF
FFFF
FFFF
FFFF
FFFF
FFFF
FFFF
FFFF
FFFF
FFFF
FFFF
FFFF
FFFF
FFFF
FFFF
FFFF
FFFF
FFFF
FFFF
FFFF
FFFF
FFFF
FFFF
FFFF
FFFF
FFFF
FFFF
FFFF
FFFF
FFFF
FFFF
FFFF
FFFF
FFFF
FFFF
FFFF
FFFF
FFFF
FFFF
FFFF
FFFF
FFFF
FFFF
FFFF
FFFF
FFFF
FFFF
FFFF
FFFF
FFFF
FFFF
FFFF
FFFF
FFFF
FFFF
FFFF
FFFF
FFFF
FFFF
FFFF
FFFF
FFFF
FFFF
FFFF
FFFF
FFFF
FFFF
FFFF
FFFF
FFFF
FFFF
FFFF
FFFF
FFFF
FFFF
FFFF
FFFF
FFFF
FFFF
FFFF
FFFF
FFFF
FFFF
FFFF
FFFF
FFFF
FFFF
FFFF
FFFF
FFFF
FFFF
FFFF
FFFF
FFFF
FFFF
FFFF
FFFF
FFFF
FFFF
FFFF
FFFF
FFFF
FFFF
FFFF
FFFF
FFFF
FFFF
FFFF
FFFF
FFFF
FFFF
FFFF
FFFF
FFFF
FFFF
FFFF
FFFF
FFFF
FFFF
FFFF
FFFF
FFFF
FFFF
FFFF
FFFF
FFFF
FFFF
FFFF
FFFF
FFFF
FFFF
FFFF
FFFF
FFFF
FFFF
FFFF
FFFF
FFFF
FFFF
FFFF
FFFF
FFFF
FFFF
FFFF
FFFF
FFFF
FFFF
FFFF
FFFF
FFFF
FFFF
FFFF
FFFF
FFFF
FFFF
FFFF
FFFF
FFFF
FFFF
FFFF
FFFF
FFFF
FFFF
FFFF
FFFF
FFFF
FFFF
FFFF
FFFF
