-- http://srecord.sourceforge.net/
--
-- Generated automatically by srec_cat -o --mif
--
DEPTH = 16384;
WIDTH = 8;
ADDRESS_RADIX = HEX;
DATA_RADIX = HEX;
CONTENT BEGIN
0000: C3 63 C0 C3 D6 CE C3 1B C3 C3 47 C3 C3 97 C8 C3 62 C1 C3 B7 C4 C3 88 C1;
0018: C3 DE C0 C3 54 C1 C3 C9 DA C3 CE C7 C3 5F C5 C3 7F C3 C3 6E C4 C3 83 C4;
0030: C3 61 CB C3 64 CB C3 6D CB C3 7D CB C3 8A CB C3 8D CB C3 AD CB C3 D5 CB;
0048: C3 0E C3 C3 95 CD C3 6E CE C3 BA CC C3 D7 CC C3 8F CB C3 CB C0 C3 DA C0;
0060: C3 FC C0 3E C3 32 38 00 21 5F C5 22 39 00 ED 56 31 00 02 3E 01 D3 80 32;
0078: F5 00 CD C0 C0 FB 32 2F 01 32 0F 00 3C 32 58 01 CD 30 C1 CD FC C0 3E C9;
0090: 32 20 01 32 30 01 CD 39 C3 3E 0F D3 10 D3 11 DB 11 FE 0F 3E 00 C2 AA C0;
00A8: 3E 02 32 2D 01 3E C3 32 30 01 21 E9 C0 22 31 01 3E 5A 32 5E 01 C3 95 CE;
00C0: AF 32 39 01 32 42 01 32 4B 01 C9 F5 CD DA C0 DA CC C0 79 D3 05 AF D3 04;
00D8: F1 C9 DB 04 0F C9 7E B7 C8 4F CD 97 C8 23 C3 DE C0 3A 33 01 3D 32 33 01;
00F0: C0 CD 55 CB 3A 2F 01 3C 32 2F 01 C9 E5 C5 F5 21 1F C1 0E 04 F3 7E D3 20;
0108: 23 7E D3 60 23 0D C2 05 C1 01 30 00 CD 0E C3 CD 27 C1 FB F1 C1 E1 C9 04;
0120: 20 07 7B 0A 1F 0D 0D 3E 07 D3 20 3E 7F D3 60 C9 CD 27 C1 32 50 01 C9 D5;
0138: 16 00 3E 0F D3 20 DB 40 07 DA 3E C1 DB 40 07 D2 44 C1 14 DB 40 07 DA 4A;
0150: C1 7A D1 C9 31 00 02 3E 01 32 06 01 21 00 01 22 FB 00 F3 3E 01 D3 80 32;
0168: F5 00 32 58 01 CD 58 C2 16 0E 21 7F 01 CD 6E C2 77 FE 0D CA 83 C1 23 15;
0180: C2 75 C1 3A 06 01 3C C8 CD 6E C2 6F CD 6E C2 67 CD 6E C2 5F CD 6E C2 57;
0198: EB 7D 93 5F 7C 9A 57 2A FB 00 19 22 FD 00 EB 2A FB 00 CD 6E C2 77 23 CD;
01B0: E6 C2 C2 AA C1 3A 06 01 3C 3E 01 D3 80 32 F5 00 C8 21 00 02 31 00 02 3E;
01C8: C9 32 30 01 AF 32 5E 01 32 06 01 32 1B 01 E9 7E 07 07 07 07 E6 70 B0 77;
01E0: C9 3E 80 32 6E 01 32 74 01 32 7A 01 3E 0F 32 70 01 32 76 01 32 7C 01 AF;
01F8: 21 39 01 B6 CA 0C C2 06 4D CD D7 C1 21 6D 01 22 37 01 36 0F 21 42 01 AF;
0210: B6 CA 21 C2 06 49 CD D7 C1 21 73 01 22 40 01 36 0D 21 4B 01 AF B6 CA 36;
0228: C2 06 49 CD D7 C1 21 79 01 22 49 01 36 0D CD 5F C5 C9 21 00 00 06 40 CD;
0240: 37 C1 BA DA 3A C2 BB D2 3A C2 D5 16 00 5F 19 D1 05 C2 3F C2 29 29 4C C9;
0258: 11 44 25 CD 3A C2 C5 11 81 45 CD 3A C2 79 C1 81 A7 1F 32 FF 00 C9 C5 D5;
0270: 3A FF 00 57 CD 37 C1 FE 25 DA 74 C2 FE 44 D2 74 C2 06 08 CD 37 C1 BA 79;
0288: 1F 4F 05 C2 83 C2 CD 37 C1 BA 78 1F 81 B7 EA 9D C2 79 D1 C1 C9 F1 F1 F1;
02A0: 3A 06 01 3C C4 CE C7 21 B5 C2 CD DE C0 3A 06 01 3C C8 C3 62 C1 0D 0A 52;
02B8: 45 42 4F 42 49 4E 45 20 41 20 46 49 54 41 20 45 0D 0A 52 45 41 50 45 52;
02D0: 54 45 20 4F 20 42 4F 54 41 4F 20 50 4C 41 59 20 20 20 20 0D 0A 00 7D BB;
02E8: C0 3A 58 01 D6 02 FE 01 CA F5 C2 3E 03 32 58 01 D3 80 7C BA C9 23 7C B5;
0300: CA 0C C3 7E 47 2F 77 BE 70 CA FD C2 2B C9 3E D2 3D C2 10 C3 0B 78 B1 C2;
0318: 0E C3 C9 3A 2E 01 B7 CA 33 C3 3A 06 01 3C C2 2C C3 CD FC C0 3A 1C 01 CD;
0330: 39 C3 C9 CD 47 C3 C3 1B C3 F5 AF 32 2E 01 CD 47 C3 B7 C2 3A C3 F1 C9 D5;
0348: C5 3A 2E 01 B7 C2 7C C3 CD 7F C3 B7 CA 77 C3 3A 1B 01 5F 01 07 00 CD 0E;
0360: C3 CD 7F C3 B7 CA 77 C3 3A 1B 01 BB C2 77 C3 32 1C 01 3E FF C3 79 C3 3E;
0378: 00 32 2E 01 C1 D1 C9 E5 D5 C5 CD 20 01 CD 30 01 2A 07 01 11 E7 B2 19 22;
0390: 07 01 01 00 FE F3 3E 0E D3 20 78 D3 60 CD 65 C4 16 00 0F 5F D4 CF C3 14;
03A8: 7A FE 06 7B DA A2 C3 78 07 47 DA 95 C3 79 B7 CA 5F C4 3A 06 01 3C 3E FF;
03C0: CA 61 C4 3A 1B 01 CD D5 CB 79 0F 07 C3 61 C4 CD 65 C4 07 D2 56 C4 7A FE;
03D8: 04 D2 DE C3 C6 06 C6 02 87 87 87 6F CD 65 C4 E6 40 C2 F8 C3 7A FE 04 3E;
03F0: F0 D2 F6 C3 3E 20 85 6F 26 00 C5 78 0F 47 D2 05 C4 24 C3 FB C3 C1 7C 85;
0408: F5 3A 06 01 3C CA 21 C4 79 21 1B 01 85 6F F1 77 0C 79 FE 04 D8 F1 C3 B5;
0420: C3 F1 D1 26 00 6F E6 FC FE 2C C2 2F C4 26 10 FE 3C C2 36 C4 26 F0 7D 84;
0438: FE 5B 06 0D CA 4D C4 FE 5C 06 20 CA 4D C4 FE 5D C2 4E C4 06 7F 78 32 1B;
0450: 01 3E FF C3 61 C4 7A FE 04 DA E0 C3 C3 DC C3 3E 00 C1 D1 E1 C9 F3 3E 0F;
0468: D3 20 DB 40 FB C9 C5 D5 21 00 00 44 16 08 29 07 D2 7C C4 09 15 C2 76 C4;
0480: D1 C1 C9 7C B9 D0 C5 06 08 29 7C DA 9B C4 91 DA 94 C4 23 67 05 C2 89 C4;
0498: 37 C1 C9 91 C3 92 C4 5D 0D 9C 0C E7 0B 3C 0B 9B 0A 02 0A 73 09 EB 08 6B;
04B0: 08 F2 07 80 07 14 07 F3 3E 01 D3 80 32 F5 00 CD FE C4 21 8D 01 16 0E 4E;
04C8: CD 1E C5 3E 0D BE CA D6 C4 23 15 C2 C7 C4 21 FB 00 16 04 4E CD 1E C5 23;
04E0: 15 C2 DB C4 2A FD 00 EB 2A FB 00 4E CD 1E C5 CD E6 C2 23 C2 EB C4 3E 01;
04F8: D3 80 32 F5 00 C9 3E 0E D3 20 3E FF D3 60 01 10 00 37 CD 39 C5 05 C2 09;
0510: C5 0D C2 09 C5 B7 CD 39 C5 05 C2 15 C5 C9 37 CD 39 C5 C5 06 08 79 0F 4F;
0528: CD 39 C5 05 C2 25 C5 B7 E4 39 C5 3F EC 39 C5 C1 C9 F5 3E 0E D3 20 3E 7F;
0540: D3 60 CD 4E C5 3E FF D3 60 CD 4E C5 F1 C9 3E 57 DA 54 C5 07 3D C2 54 C5;
0558: C9 7D BB C0 7C BA C9 F3 F5 E5 D5 C5 01 FE 00 21 00 01 11 09 08 CD B1 C5;
0570: 3A 3C 01 32 72 01 01 FD 09 21 02 03 11 12 09 CD B1 C5 3A 45 01 32 78 01;
0588: 01 FB 12 11 24 0A 21 04 05 CD B1 C5 3A 4E 01 32 7E 01 3E 07 D3 20 3A 50;
05A0: 01 F6 40 E6 7F 32 50 01 D3 60 C1 D1 E1 F1 FB ED 4D 22 52 01 EB 22 55 01;
05B8: 79 32 54 01 7C 32 51 01 21 39 01 58 16 00 19 7E A7 FE 1F DA D2 C5 0F DA;
05D0: DD C5 2A 55 01 45 21 50 01 7E B0 77 C9 0F DA 69 C6 E5 2B 56 2B 5E 13 13;
05E8: 13 13 2B 72 2B 73 CD F7 C5 E1 7E F6 02 77 C9 E5 47 E6 03 11 05 00 19 77;
0600: FE 03 E5 CA 0C C6 CD 11 C7 C3 0F C6 CD 4B C7 78 0F 0F 47 E6 03 3C E1 23;
0618: 77 23 23 36 00 78 0F 0F E1 5E 23 56 E6 03 FE 02 CA 42 C6 3D CA 36 C6 E5;
0630: D5 CD 42 C6 D1 E1 CD AB C7 21 50 01 3A 54 01 A6 77 C9 1B 3E 06 D3 20 1A;
0648: D3 60 13 3A 51 01 D3 20 1A D3 60 13 72 2B 73 1A 11 07 00 19 77 21 50 01;
0660: 3A 54 01 07 07 07 A6 77 C9 EB 2A 55 01 4D EB 23 46 23 CB 7E C2 94 C6 E5;
0678: 23 23 34 D1 1A BE C0 36 00 2B 35 C2 85 C7 2B 3A 5E 01 FE 5A C2 98 C6 7E;
0690: 07 CB FE D0 7E E6 7F 77 11 FA FF 19 5E 23 56 EB 3A 5E 01 FE 5A C2 AC C6;
06A8: 2B C3 AD C6 23 7E FE EE 13 13 13 C2 BC C6 4F 1A E6 FD 12 C9 FE FF C2 DF;
06C0: C6 3A 5E 01 FE 5A CA D9 C6 AF 12 21 50 01 7E B1 77 FE 7F C0 AF 32 02 00;
06D8: C9 1A E6 FC C3 CA C6 1A E6 C0 FE 40 EB CA 03 C7 FE 80 E5 CA F3 C6 D5 CD;
06F0: 03 C7 D1 2A 55 01 7C D3 20 1A D3 60 E1 2B 2B 2B;
0700: C3 98 C7 2B 2B 2B CD AB C7 2B 2B 7E FE 03 CA 4B C7 3A 51 01 D3 20 2B 2B;
0718: 56 2B 5E 1A E6 0F D3 60 C9 11 9F C4 7E E6 0F 07 83 4F 3E 00 8A 47 7E 0F;
0730: 0F 0F 0F E6 0F 57 0A 5F 03 0A 47 4B 15 C8 78 1F F5 E6 0F 47 F1 79 1F 4F;
0748: C3 3C C7 3A 51 01 D3 20 3E 1F D3 60 3E 0D D3 20 2B 2B 2B 5E 23 56 1A 0F;
0760: 0F 0F 0F E6 0F D3 60 3E 0B D3 20 13 1A D3 60 3E 0C D3 20 13 1A D3 60 C9;
0778: 7D D3 20 79 D3 60 7C D3 20 78 D3 60 C9 78 FE 02 C0 3A 51 01 D3 20 DB 40;
0790: B7 CA 95 C7 3D D3 60 C9 D5 13 1A 72 2B 73 11 07 00 19 77 A7 C2 A9 C7 36;
07A8: 02 D1 C9 E5 EB CD 21 C7 EB E1 CD 98 C7 E5 2A 52 01 CD 78 C7 E1 C9 00 00;
07C0: 00 00 0B 4B 0B A0 19 18 02 1A 6D 5C 50 6D 3A 0F 00 B7 CA 33 C8 21 BE C7;
07D8: 06 10 05 78 D3 10 7E D3 11 23 C2 DA C7 CD EC C7 CD 18 C8 C9 21 50 00 22;
07F0: 13 01 21 80 27 22 65 01 21 3F CB 22 F7 00 21 3F CB 22 F9 00 21 00 20 22;
0808: 63 01 22 5B 01 22 59 01 AF 32 5D 01 CD 3F CB C9 2A 65 01 11 50 00 19 EB;
0820: 2A 63 01 CD 90 C8 36 20 23 CD 0B DC C2 26 C8 CD 79 C8 C9 3E 01 32 F5 00;
0838: D3 80 CD 6D C8 CD 41 C8 C9 21 20 00 22 13 01 21 00 80 22 63 01 22 5B 01;
0850: 22 59 01 AF 32 5D 01 21 00 82 22 65 01 21 1D CB 22 F7 00 21 2D CB 22 F9;
0868: 00 CD 1D CB C9 21 00 80 11 FF 97 CD 86 C8 C3 26 C8 F5 AF D3 12 3A F5 00;
0880: F6 01 D3 80 F1 C9 F5 3A F5 00 E6 FE D3 80 F1 C9 F5 3E 01 D3 12 F1 C9 E5;
0898: D5 C5 F5 21 A9 C8 E5 3A 0F 00 B7 CA 86 C8 C3 90 C8 21 2D 01 7E 07 DA 58;
08B0: C9 79 FE 1B CA 50 C9 FE 20 DA C7 C8 FE 3D C2 F9 C8 7E 0F D2 F9 C8 79 FE;
08C8: 07 CA 08 CA FE 08 CA 3F CA FE 0C CA 62 CA FE 0A CA 8C CA FE 0D CA 79 CA;
08E0: FE 1E CA D4 C9 FE 0B CA B1 CA FE 1A CA ED C9 FE 3D CA 58 C9 FE 7F CA DF;
08F8: CA F5 2A 5B 01 79 77 F1 3A 13 01 47 3A 5D 01 3C B8 C2 0D C9 AF 32 5D 01;
0910: 23 F5 EB 2A 65 01 EB 7C BA C2 21 C9 7D BB D2 3E C9 F1 CC 42 C9 22 5B 01;
0928: CD 55 CB AF 32 2F 01 21 2D 01 7E E6 02 77 F1 C1 D1 E1 CD 79 C8 C9 F1 C3;
0940: 0E CA E5 2A 13 01 EB 2A 59 01 19 22 59 01 E1 C9 21 2D 01 CB C6 C3 36 C9;
0958: 21 2D 01 CB 7E C2 65 C9 CB FE C3 36 C9 CB 76 79 C2 73 C9 32 15 01 CB F6;
0970: C3 36 C9 32 16 01 2A 15 01 7D B4 CA D4 C9 3A 0F 00 B7 06 10 CA 89 C9 06;
0988: 18 7D B8 D2 2F C9 7C FE 20 D2 BF C9 C6 20 67 EB 1C 3A 13 01 4F 06 00 CD;
09A0: 5B CB 2A 63 01 1D CA AD C9 09 C3 A5 C9 22 59 01 4A 09 22 5B 01 CD 55 CB;
09B8: 7A 32 5D 01 C3 2F C9 FE 70 D2 2F C9 D6 20 67 3A 13 01 BC CA 2F C9 DA 2F;
09D0: C9 C3 97 C9 CD 5B CB 2A 63 01 3A 0F 00 B7 C2 E7 C9 CD 4D C8 C3 F7 C9 CD;
09E8: 0A C8 C3 F7 C9 3A 0F 00 B7 C2 FA C9 CD 6D C8 C3 2F C9 3A 2D 01 E6 02 CA;
0A00: F7 C9 CD 18 C8 C3 F7 C9 CD FC C0 C3 2F C9 C5 2A 63 01 E5 ED 5B 13 01 19;
0A18: D1 3A 0F 00 B7 CA 29 CA 01 80 07 CD 90 C8 C3 2F CA 01 00 02 CD 86 C8 ED;
0A30: B0 2A 59 01 EB 2A 5D 01 26 00 19 C1 C3 25 C9 2A 63 01 EB 2A 5B 01 CD 0B;
0A48: DC CC FC C0 CA 2F C9 CD 5B CB 2A 5B 01 2B 22 5B 01 CD 5B CB CD 11 CB C3;
0A60: 2F C9 2A 5B 01 ED 5B 65 01 2B CD 0B DC CC FC C0 CA 2F C9 CD 5B CB C3 00;
0A78: C9 CD 5B CB 2A 59 01 22 5B 01 CD 55 CB AF 32 5D 01 C3 2F C9 CD 5B CB 2A;
0A90: 5B 01 ED 4B 13 01 09 ED 5B 65 01 7C BA C2 A5 CA 7D BB D2 0E CA E5 2A 59;
0AA8: 01 09 22 59 01 E1 C3 25 C9 2A 63 01 ED 5B 13 01 19 EB 2A 5B 01 CD 0B DC;
0AC0: DC FC C0 DA 2F C9 ED 5B 13 01 2A 59 01 AF ED 52 22 59 01 CD 5B CB AF 2A;
0AD8: 5B 01 ED 52 C3 25 C9 ED 5B 63 01 2A 5B 01 CD 0B DC CA 2F C9 CD 11 CB 2A;
0AF0: 5B 01 36 20 2B 36 20 CD 55 CB 22 5B 01 C3 2F C9 2A 59 01 ED 4B 13 01 AF;
0B08: ED 42 22 59 01 3A 13 01 C9 3A 5D 01 B7 CC 00 CB 3D 32 5D 01 C9 CD 86 C8;
0B20: E5 2A 5B 01 7E EE 80 77 E1 CD 79 C8 C9 F5 3A 2F 01 E6 01 C2 39 CB CD 1D;
0B38: CB AF 32 2F 01 F1 C9 E5 2A 5B 01 3E 0E D3 10 7C D6 20 D3 11 3E 0F D3 10;
0B50: 7D D3 11 E1 C9 E5 2A F7 00 E3 C9 E5 2A F9 00 E3 C9 21 00 80 70 23 7C FE;
0B68: 88 C2 64 CB C9 06 05 1A 77 13 D5 11 20 00 19 D1 05 C2 6F CB C9 3E 88 D3;
0B80: 80 01 00 00 CD 61 CB 3A 04 01 11 40 80 26 00 06 00 D6 0A DA 9A CB 04 C3;
0B98: 91 CB C6 0A F5 78 B4 C2 A4 CB 06 0E D5 CD AD CB D1 13 13 F1 47 3E F6 04;
0BB0: C6 0A 05 C2 B0 CB C5 4F 21 FF CC 09 C1 06 05 7E 81 12 23 13 7E 81 12 23;
0BC8: EB C5 01 1F 00 09 C1 EB 05 C2 BF CB C9 FE 08 CA 00 CC F5 3E 01 32 06 01;
0BE0: 3A 04 01 E5 21 57 01 BE CA FD CB 21 26 01 34 C2 FD CB 36 FD 32 57 01 21;
0BF8: 0B 01 22 09 01 E1 F1 C9 3A 06 01 3C C8 01 F4 01 CD 0E C3 21 04 01 3A 06;
0C10: 01 A7 C2 1F CC 34 3A 05 01 BE D2 1F CC 36 01 7E 87 86 5F 16 00 21 FD 01;
0C28: 19 C3 C4 C1 C5 06 00 E5 21 AA CC E5 FE 45 C8 FE 51 C8 FE 57 C8 FE 52 C8;
0C40: FE 54 C8 E1 21 AF CC E5 FE 49 C8 FE 4F C8 FE 50 C8 FE 5B C8 FE 5D C8 E1;
0C58: E1 FE 41 C2 60 CC 06 04 FE 46 C2 67 CC 06 08 FE 53 C2 6E CC 06 10 FE 43;
0C70: C2 75 CC 06 10 FE 44 C2 7C CC 06 20 FE 4B C2 FB C3 06 05 FE 3A CA B4 CC;
0C88: FE 27 CA B4 CC FE 4E CA B4 CC FE 4C C2 99 CC 06 11 FE 3B C2 A0 CC 06 21;
0CA0: FE 4D C2 A7 CC 06 21 78 C1 C9 E1 3E 02 C1 C9 E1 3E 03 C1 C9 3E 03 C1 C9;
0CB8: C9 C9 E5 D5 C5 1A FE FF CA D3 CC 4F 07 06 FF DA CB CC 04 09 13 1A 77 13;
0CD0: C3 BD CC C1 D1 E1 C9 E5 D5 C5 AF 32 25 01 1A FE FF CA D3 CC 4F 07 06 FF;
0CE8: DA EC CC 04 09 13 1A BE CA F8 CC 3E 01 32 25 01 C1 C5 71 13 C3 DE CC 05;
0D00: 54 04 04 04 04 04 04 05 54 00 40 01 40 00 40 00 40 01 50 05 54 00 04 05;
0D18: 54 04 00 05 54 05 54 00 04 01 54 00 04 05 54 00 50 01 10 04 10 05 54 00;
0D30: 10 05 54 04 00 05 54 00 04 05 54 05 54 04 00 05 54 04 04 05 54 05 54 00;
0D48: 04 00 10 00 40 01 00 05 54 04 04 05 54 04 04 05 54 05 54 04 04 05 54 00;
0D60: 04 05 54 04 00 15 55 55 55 15 55 04 00 00 10 55 54 55 55 55 54 00 10 00;
0D78: 01 40 04 10 10 04 40 01 00 04 04 01 10 00 40 01 10 04 04 00 00 00 00 00;
0D90: 00 00 00 00 00 3E 88 D3 80 01 55 55 CD 61 CB 3A 57 01 21 0B 0A E5 11 20;
0DA8: 80 CD 8D CB E1 E5 44 11 28 80 CD AD CB E1 45 11 34 80 CD AD CB 21 08 87;
0DC0: 3E 00 06 16 77 23 05 C2 C4 CD 11 2C 80 06 08 21 0B 01 3A 09 01 BD CA F7;
0DD8: CD C5 7E 23 E5 CD 0F CE 21 0C 00 19 EB E1 7E 23 E5 CD 0F CE 21 D4 00 19;
0DF0: EB E1 C1 05 C2 D2 CD 21 0B 01 11 48 87 CD 2F CE;
0E00: 21 0C 01 11 54 87 CD 2F CE CD 1B C3 C3 09 CE 06 00 D6 64 04 D2 11 CE C6;
0E18: 64 05 60 CA 29 CE D5 F5 1B 1B CD AD CB F1 D1 26 01 D5 CD 8F CB D1 C9 D5;
0E30: 11 00 00 3A 09 01 47 7D B8 D2 48 CE E5 6E 26 00 19 EB E1 23 23 C3 37 CE;
0E48: 06 00 EB 11 9C FF 19 04 DA 4E CE 11 64 00 19 05 CA 64 CE D1 D5 E5 78 CD;
0E60: 8D CB E1 24 D1 13 13 13 13 7D CD 8F CB C9 2A 09 01 7D FE 1B C2 87 CE 11;
0E78: 0D 01 21 0B 01 06 0E 1A 77 23 13 05 C2 7F CE 3A 23 01 77 23 3A 24 01 77;
0E90: 23 22 09 01 C9 CD BA CE 32 28 01 32 57 03 32 60 03 32 58 03 32 52 03 32;
0EA8: 61 03 3D 32 06 01 32 53 03 CD CE C7 CD FC C0 C3 D6 CE AF 32 72 01 32 78;
0EC0: 01 32 7E 01 32 01 00 3E 0B D3 20 AF D3 60 3E 0C D3 20 AF D3 60 C9 01 4E;
0ED8: 00 11 00 03 21 92 D7 ED B0 EB F9 CD C7 D9 CD C7 E0 32 8D 03 32 D4 03 21;
0EF0: 38 04 CD FD C2 11 00 FF 19 11 2C 03 CD 0B DC DA 3E D8 11 00 FE 22 92 03;
0F08: 19 22 45 03 CD A2 D9 2A 45 03 11 EF FF 19 11 D4 03 AF ED 52 E5 21 42 D5;
0F20: CD 34 E7 E1 CD 8B EE 21 38 D5 CD 34 E7 31 51 03 CD C7 D9 C3 8D D8 2B CD;
0F38: 96 E9 32 42 03 32 43 03 C9 F5 2B CD A0 DD CD 11 DC 23 2B CD A0 DD F1 C9;
0F50: 6F 26 00 29 29 29 C9 CD 11 DC 2C 7E FE BF 28 08 FE BE 20 01 23 C3 99 E9;
0F68: 23 CD 99 E9 2F 3C C9 CD 11 DC 2C C3 99 E9 CD 99 E9 47 C5 CD 11 DC 2C CD;
0F80: 99 E9 C1 4F C5 CD 11 DC 2C CD 99 E9 FE 01 DA F6 DE FE 04 D2 F6 DE FE 02;
0F98: C1 C9 C8 CD 76 CF F5 79 FE 00 DA F6 DE FE 04 D2 F6 DE F1 11 BA CE D5 38;
0FB0: 14 28 09 78 32 7B 01 79 32 4B 01 C9 78 32 75 01 79 32 42 01 C9 78 32 6F;
0FC8: 01 79 32 39 01 C9 C8 E5 3A 01 00 B7 20 07 3C 32 01 00 CD E1 C1 E1 CD 76;
0FE0: CF 38 20 28 0F 3A 7E 01 B7 20 FA 78 32 7D 01 79 32 7E 01 C9 3A 78 01 B7;
0FF8: 20 FA 78 32 77 01 79 32 78 01 C9 3A 72 01 B7 20 FA 78 32 71 01 79 32 72;
1010: 01 C9 AF 18 02 3E 01 32 54 03 3A 58 03 B7 CA AA D3 E5 2A 59 03 E3 2B CD;
1028: A0 DD 7E FE BF 28 36 FE BE 20 01 23 CD 99 E9 E3 84 67 E3 CD 11 DC 2C 7E;
1040: FE BF 28 2B FE BE 20 01 23 CD 99 E9 E3 85 47 7C 2A 59 03 C5 F5 11 5E D0;
1058: D5 F5 78 C3 83 D3 F1 C1 CD 33 D2 E1 C9 23 CD 99 E9 E3 47 7C 90 18 CA 23;
1070: CD 99 E9 E3 47 7D 90 18 D5 CD FB DE E5 EB 11 83 D0 D5 E9 E1 C9 C0 3E 01;
1088: 32 52 03 C9 C0 AF 18 F8 C8 E5 CD FB DE EB 22 47 03 E1 11 00 02 06 01 7E;
10A0: B7 28 06 12 23 13 04 18 F6 78 32 8D 01 EB 22 8E 01 2A 47 03 EB CD 82 D9;
10B8: 1E 0E D2 56 D8 2A 8E 01 03 03 03 03 0A B7 28 26 03 F2 EA D0 C5 D6 7F 4F;
10D0: 11 91 D5 1A 13 B7 F2 D3 D0 0D 20 F7 1B E6 7F 77 23 13 1A B7 F2 DD D0 C1;
10E8: 18 DA 77 23 18 D6 77 E1 2A 47 03 CD 8B EE 3E 20 CD A6 F1 2A 8E 01 E5 D1;
1100: 3A 8D 01 47 CD 06 C0 FE 0D CA 4A D1 FE 20 CA 38 D1 E6 DF FE 58 CA 6B D1;
1118: FE 53 CA C4 D1 FE 49 CA 7E D1 FE 44 CA DB D1 FE 4C CA F2 D1 FE 48 CA 14;
1130: D2 FE 51 CA 8D D8 18 CC 78 FE FF 28 C7 7E B7 28 C3 12 13 23 04 CD A6 F1;
1148: 18 BA 78 FE FF 28 0D 7E 12 23 13 04 B7 28 05 CD A6 F1 18 EE AF 12 21 FF;
1160: FF 22 47 03 21 01 D9 E5 C3 C4 E0 78 FE FF CA 04 D1 7E B7 28 09 12 23 13;
1178: 04 CD A6 F1 18 ED CD 06 C0 FE 03 CA 04 D1 FE 0D CA 4A D1 FE 20 38 EF 4F;
1190: 78 FE FE 79 28 E8 F5 D5 CD 0B DC 20 1C E5 D1 78 3C FE FF 28 14 7E B7 28;
11A8: 03 23 18 F9 7E 23 77 2B CD 0B DC 28 03 2B 18 F4 23 D1 F1 12 13 04 CD A6;
11C0: F1 C3 7E D1 78 FE FF CA 04 D1 CD 06 C0 FE 20 38 F3 12 23 13 04 CD A6 F1;
11D8: C3 04 D1 7E B7 CA 4A D1 3E 2F CD A6 F1 7E CD A6 F1 3E 2F CD A6 F1 23 C3;
11F0: 04 D1 78 FE FF 28 0E 7E 12 13 04 B7 28 09 7E CD A6 F1 23 18 ED AF 12 3E;
1208: 0D CD A6 F1 3E 0A CD A6 F1 C3 F0 D0 7E B7 CA 7E D1 23 18 F8 C0 AF 32 60;
1220: 03 C9 C0 3E 01 2B CD A0 DD 3A 58 03 B7 CA AA D3 C3 77 D3 4F 78 7C 91 CA;
1238: CB D2 30 02 2F 3C 57 7D 90 CA DB D2 30 02 2F 3C 5F BA CA AE D2 30 31 7C;
1250: B9 38 03 CD EB D2 E5 C5 4A 6B 26 00 CD F2 D2 5D 16 00 C1 E1 7D B8 38 06;
1268: 7B 2F 5F 16 FF 13 44 65 2E 80 C5 78 44 CD DA D3 C1 78 B9 C8 04 19 18 F2;
1280: 7D B8 38 03 CD EB D2 E5 C5 4B 6A 26 00 CD F2 D2 5D 16 00 C1 E1 7C B9 38;
1298: 06 7B 2F 5F 16 FF 13 48 45 2E 80 7C CD DA D3 78 B9 C8 04 19 18 F5 7C B9;
12B0: D4 EB D2 7D B8 F5 7C 24 45 2C CD DA D3 F1 F5 38 02 2D 2D 7C B9 28 EF 38;
12C8: ED C1 C9 7D B8 30 02 68 47 7C CD DA D3 78 BD C8 04 18 F6 7C B9 38 02 61;
12E0: 4F 7C CD DA D3 7C B9 C8 24 18 F6 7C 61 4F 7D 68 47 C9 65 2E 00 7C B9 D0;
12F8: 06 08 29 7C 38 0A 91 38 02 23 67 05 20 F4 37 C9 91 18 F6 E5 21 00 00 22;
1310: 5B 03 E1 28 23 CD FB DE E5 21 F6 FF 19 22 5B 03 E1 28 15 7E FE BF 1E 02;
1328: C2 56 D8 23 CD FB DE EB 22 5E 03 1E 02 C2 56 D8 3E 01 32 5D 03 E1 C3 A4;
1340: D8 FE 46 28 0E FE 4E 1E 02 C2 56 D8 3E 01 32 57 03 23 C9 AF 18 F8 E5 F5;
1358: 3A 57 03 B7 28 16 2A 47 03 23 7C B5 28 0E 2B 3E 5B CD 1C DC CD 8B EE 3E;
1370: 5D CD 1C DC F1 E1 C9 CD 99 E9 F5 CD 11 DC 2C CD 99 E9 47 3A 58 03 FE 01;
1388: 78 C2 A1 D3 FE 40 D2 F6 DE F1 FE 80 D2 F6 DE 32 5A 03 F5 78 32 59 03 F1;
13A0: C9 FE C0 D2 F6 DE F1 C3 97 D3 1E 18 C3 56 D8 3E 00 18 02 3E 01 F5 3A 58;
13B8: 03 B7 CA AA D3 F1 32 54 03 C8 2B CD A0 DD FE B7 CA 52 D4 CD 77 D3 E5 CD;
13D0: DA D3 E1 2B CD A0 DD C8 18 EC C5 D5 E5 F5 CD 86 C8 21 00 80 11 20 00 04;
13E8: 05 CA F0 D3 19 C3 E8 D3 3A 58 03 FE 01 C2 2B D4 F1 D6 04 DA 02 D4 23 C3;
1400: F9 D3 C6 04 47 04 C5 3E FC 0F 0F 05 C2 09 D4 A6 77 C1 3A 54 03 B7 CA 24;
1418: D4 3A F6 00 0F 0F 05 C2 1C D4 B6 77 CD 79 C8 E1 D1 C1 C9 F1 D6 08 DA 35;
1430: D4 23 C3 2C D4 C6 08 47 04 3E 01 0F 05 C2 3B D4 47 3A 54 03 B7 78 C2 4E;
1448: D4 2F A6 C3 23 D4 B6 C3 23 D4 E5 2A 59 03 E3 23 CD 77 D3 E3 CD 33 D2 C3;
1460: D2 D3 C0 AF 32 58 03 3C D3 80 32 F5 00 E5 D5 21 00 80 11 00 98 CD 86 C8;
1478: 36 20 23 CD 0B DC C2 78 D4 CD 79 C8 3E C3 32 30 01 D1 E1 C9 C0 E5 CD CE;
1490: C7 E1 C9 FE 03 D2 F6 DE 32 28 01 C9 2B CD A0 DD CD 99 E9 E5 CD 93 D4 E1;
14A8: C9 C0 3E 01 F5 3A 0F 00 B7 C2 AA D3 AF 32 59 03 32 5A 03 F1 32 58 03 FE;
14C0: 01 3E 88 CA C8 D4 3E 9F D3 80 32 F5 00 CD DC D4 3E C9 32 30 01 C9 C0 3E;
14D8: 02 C3 AC D4 E5 D5 CD 86 C8 21 00 80 11 00 98 36 00 23 CD 0B DC C2 E7 D4;
14F0: CD 79 C8 D1 E1 C9 2B CD 96 E9 FE 20 28 18 FE 50;
1500: C2 F6 DE 3A 2D 01 CB 4F CA AA D3 3E 01 32 0F 00 E5 CD CE C7 E1 C9 AF 18;
1518: F4 C0 C3 54 C1 2B CD A0 DD CD 11 DC C6 C3 99 E9 CD 1D D5 B7 FA F6 DE FE;
1530: 04 D2 F6 DE 32 F6 00 C9 20 42 59 54 45 53 0D 0A 0A 00 4D 43 2D 31 30 30;
1548: 30 20 43 43 45 20 43 4F 4C 4F 52 20 43 4F 4D 50 55 54 45 52 20 20 0D 0A;
1560: 00 E2 EC A5 ED F8 EC 03 03 05 E6 59 E9 3C E6 81 EF 5E F0 8E EB CE EF D2;
1578: F0 D8 F0 39 F1 4E F1 D7 ED 9D E8 C1 E6 34 E9 AC E8 BD E8 CD E8 FC E8 05;
1590: E9 C5 4E 44 C6 4F 52 CE 45 58 54 C4 41 54 41 C5 58 49 54 C9 4E 50 55 54;
15A8: C4 49 4D D2 45 41 44 CC 45 54 C7 4F 54 4F D2 55 4E C9 46 D2 45 53 54 4F;
15C0: 52 45 C7 4F 53 55 42 D2 45 54 55 52 4E D2 45 4D D3 54 4F 50 CF 55 54 CF;
15D8: 4E C8 4F 4D 45 D7 41 49 54 C4 45 46 D0 4F 4B 45 D0 52 49 4E 54 D0 52 23;
15F0: D3 4F 55 4E 44 C7 52 C8 47 52 C3 4F 4C 4F 52 D4 45 58 54 D0 4C 4F 54 D4;
1608: 52 4F D5 4E 50 4C 4F 54 D3 45 54 C3 41 4C 4C C4 52 41 57 D5 4E 44 52 41;
1620: 57 D4 45 4D 50 4F D7 49 44 54 48 C3 4F 4E 54 CC 49 53 54 C3 4C 45 41 52;
1638: CC 4F 41 44 D3 41 56 45 CE 45 57 D4 4C 4F 41 44 C3 4F 4C 55 4D 4E C1 55;
1650: 54 4F C6 41 53 54 D3 4C 4F 57 C5 44 49 54 C9 4E 56 45 52 53 45 CE 4F 52;
1668: 4D 41 4C C4 45 42 55 47 D4 41 42 28 D4 4F C6 4E D3 50 43 28 D4 48 45 4E;
1680: CE 4F 54 D3 54 45 50 D6 54 41 42 28 AB AD AA AF DE C1 4E 44 CF 52 BE BD;
1698: BC D3 47 4E C9 4E 54 C1 42 53 D5 53 52 C6 52 45 C9 4E 50 D0 4F 53 D3 51;
16B0: 52 D2 4E 44 CC 4F 47 C5 58 50 C3 4F 53 D3 49 4E D4 41 4E C1 54 4E D0 45;
16C8: 45 4B CC 45 4E D3 54 52 24 D6 41 4C C1 53 43 C3 48 52 24 CC 45 46 54 24;
16E0: D2 49 47 48 54 24 CD 49 44 24 80 21 DE F5 DC 72 E2 C2 DF 03 C0 8A E1 7F;
16F8: E4 B7 E1 D7 DF 80 DF 64 DF 4A E0 AF DD 6F DF 9E DF C4 DF 0D DE 65 E9 2E;
1710: E0 8C D4 6B E9 43 E6 DE ED 6D E0 9C D4 CE CF A9 D4 D6 D4 28 D5 62 D4 B3;
1728: D3 41 D3 AF D3 25 D2 79 D0 15 D0 12 D0 9A CF 36 CF 6E DE 4F DC 1F DF 1D;
1740: EA AA E9 A1 D9 19 D5 F6 D4 0B D3 1C D2 22 D2 90 D0 85 D0 8C D0 F4 F1 79;
1758: 72 EE 79 95 EA 7C CD EB 7C 2B EC 7F 8A EF 50 DA E3 46 D9 E3 4E 46 53 4E;
1770: 52 47 46 44 50 49 53 45 46 4D 4C 49 49 49 4D 52 44 5A 44 49 54 49 46 43;
1788: 43 4C 43 43 4E 43 46 49 46 4F C3 2D CF C3 F6 DE D3 00 C9 D6 00 6F 7C DE;
17A0: 00 67 78 DE 00 47 3E 00 C9 00 00 00 35 4A CA 99 39 1C 76 98 22 95 B3 98;
17B8: 0A DD 47 98 53 D1 99 99 0A 1A 9F 98 65 BC CD 98 D6 77 3E 98 52 C7 4F 80;
17D0: DB 00 C9 01 FF FF 00 38 04 FE FF D5 03 20 45 52 52 4F 07 07 00 20 45 4D;
17E8: 20 00 4F 4B 0D 0A 00 50 41 55 53 41 00 21 04 00 39 7E 23 FE 81 C0 4E 23;
1800: 46 23 E5 69 60 7A B3 EB 28 04 EB CD 0B DC 01 0D 00 E1 C8 09 18 E3 CD 30;
1818: D8 C5 E3 C1 CD 0B DC 7E 02 C8 0B 2B C3 1C D8 E5 2A BB 03 06 00 09 09 3E;
1830: E5 3E D0 95 6F 3E FF 9C 38 04 67 39 E1 D8 1E 0C 18 14 2A AA 03 22 47 03;
1848: 1E 02 01 1E 14 01 1E 00 01 1E 12 01 1E 22 CD C7 D9 32 44 03 CD BB E0 21;
1860: 6C D7 57 3E 3F CD 1C DC 19 7E CD 1C DC CD A0 DD CD 1C DC 21 DD D7 CD 34;
1878: E7 2A 47 03 11 FE FF CD 0B DC CA 95 CE 7C A5 3C C4 83 EE 3E C1 AF 32 44;
1890: 03 32 5D 03 CD BB E0 AF CD 93 D4 CD BB E0 21 EA D7 CD 34 E7 21 FF FF 22;
18A8: 47 03 3A 5D 03 B7 20 14 22 5E 03 3A 61 03 B7 28 43 01 4E DD C5 AF 32 61;
18C0: 03 C3 AD D9 11 0A 00 2A 5B 03 19 22 5B 03 22 00 02 EB 2A 5E 03 CD 0B DC;
18D8: 38 1C EB CD 8B EE 21 02 02 06 03 CD D2 DA 38 BC 2A 5B 03 EB 21 01 02 CD;
18F0: A0 DD 37 F5 18 17 AF 32 5D 03 18 A8 CD C9 DA 38 A3 CD A0 DD 3C 3D CA A4;
1908: D8 F5 CD FB DE D5 CD EE D9 47 D1 F1 D2 7D DD D5 C5 AF 32 AD 03 CD A0 DD;
1920: B7 F5 CD 82 D9 38 06 F1 F5 CA 99 DF B7 C5 30 12 EB 2A B7 03 1A 02 03 13;
1938: CD 0B DC 20 F7 60 69 22 B7 03 D1 F1 28 21 2A B7 03 E3 C1 09 E5 CD 16 D8;
1950: E1 22 B7 03 EB 74 D1 23 23 73 23 72 23 11 00 02 1A 77 23 13 B7 20 F9 CD;
1968: AD D9 23 EB 62 6B 7E 23 B6 CA A4 D8 23 23 23 AF BE 23 20 FC EB 73 23 72;
1980: 18 EA 2A 49 03 44 4D 7E 23 B6 2B C8 23 23 7E 23 66 6F CD 0B DC 60 69 7E;
1998: 23 66 6F 3F C8 3F D0 18 E4 C0 2A 49 03 AF 77 23 77 23 22 B7 03 2A 49 03;
19B0: 2B 22 AF 03 2A 92 03 22 A6 03 AF CD AF DD 2A B7 03 22 B9 03 22 BB 03 C1;
19C8: 2A 45 03 F9 21 96 03 22 94 03 AF 6F 67 22 B5 03 32 AC 03 E5 C5 2A AF 03;
19E0: C9 3E 3F CD 1C DC 3E 20 CD 1C DC C3 C9 DA AF 32 91 03 0E 05 11 00 02 7E;
19F8: FE 20 CA 67 DA 47 FE 22 CA 8C DA B7 CA 92 DA 3A 91 03 B7 7E C2 67 DA FE;
1A10: 30 38 05 FE 3C DA 67 DA D5 11 90 D5 C5 01 63 DA C5 06 7F 7E FE 61 38 07;
1A28: FE 7B 30 03 E6 5F 77 4E EB 23 B6 F2 31 DA 04 7E E6 7F C8 B9 20 F3 EB E5;
1A40: 13 1A B7 FA 5F DA 4F 78 FE 89 20 04 CD A0 DD 2B 23 7E FE 61 38 02 E6 5F;
1A58: B9 28 E5 E1 C3 2F DA 48 F1 EB C9 EB 79 C1 D1 23 12 13 0C D6 3A 28 04 FE;
1A70: 49 20 03 32 91 03 FE 71 28 09 FE 70 28 05 FE 55 C2 F7 D9 06 00 7E B7 28;
1A88: 09 B8 28 DB 23 12 0C 13 18 F3 21 FF 01 12 13 12 13 12 C9 CD C7 E0 AF 32;
1AA0: 5D 03 C9 3E 1A CD 1C DC 3E 1E CD 1C DC C3 D2 DA 3E 08 4F 78 FE 02 DC FC;
1AB8: C0 38 17 79 05 2B CD 1C DC 20 0F CD 1C DC CD C7 E0 21 00 02 06 01 78 32;
1AD0: 51 03 3A 51 03 B8 30 04 78 32 51 03 CD 06 C0 FE 1E CA A3 DA FE 03 CC 9B;
1AE8: DA 37 C8 FE 0D CA C2 E0 FE 15 CA C6 DA FE 40 CA C3 DA FE 7F CA B0 DA FE;
1B00: 08 CA B0 DA FE 0C CA 3C DB FE 0A CA 4C DB FE 0B CA 7A DB 4F 78 FE FF 79;
1B18: D2 D2 DA CD C4 DB B7 20 03 3E 38 4F 71 32 AD 03 23 04 CD 1C DC C3 D2 DA;
1B30: 3E 01 32 52 03 D1 C3 D2 DA AF 18 F6 4F 3A 51 03 3D B8 79 DC FC C0 DA D2;
1B48: DA C3 28 DB F5 3A 13 01 80 4F 3A 51 03 B9 DC FC C0 38 1B 41 F1 4F CD 97;
1B60: C8 3A 8E 03 4F 3A 13 01 81 32 8E 03 ED 5B 13 01 7B 5F 19 C3 D2 DA F1 C3;
1B78: D2 DA F5 3A 13 01 4F 78 91 DC FC C0 38 F0 FE 01 DC FC C0 38 E9 47 F1 4F;
1B90: CD 97 C8 ED 5B 13 01 7B 5F AF ED 52 3A 13 01 4F 3A 8E 03 91 32 8E 03 C3;
1BA8: D2 DA 87 8D A9 83 D7 81 89 93 85 BA 96 A8 86 99 A7 97 90 8A BC AD AB 8C;
1BC0: AA 82 9E 8E FE 61 D8 FE 7B D0 D6 61 D5 E5 21 AA DB 5F 16 00 19 7E E1 D6;
1BD8: 7F 4F 11 91 D5 1A 13 B7 F2 DD DB 0D 20 F7 E6 7F 4F 78 FE FF 79 D2 06 DC;
1BF0: 30 14 71 32 AD 03 23 04 CD 1C DC 1A 13 B7 F2 E6;
1C00: DB D1 F1 C3 D2 DA D1 F1 C3 2A DB 7C 92 C0 7D 93 C9 7E E3 BE 23 E3 CA A0;
1C18: DD C3 48 D8 F5 3A 44 03 B7 C2 67 E7 F1 C5 F5 FE 20 38 1A FE 7F 20 05 3A;
1C30: 8E 03 18 0D 3A 42 03 47 3A 8E 03 B8 CC C7 E0 3C 0E 3D 32 8E 03 F1 C1 F5;
1C48: C5 CD A6 F1 C1 F1 C9 CD FB DE 20 0B 7B B2 28 20 EB 22 5E 03 EB 18 19 D5;
1C60: 7E FE BF 1E 02 C2 56 D8 23 CD FB DE 7B B2 20 03 11 FF FF EB 22 5E 03 D1;
1C78: C1 CD 82 D9 C5 E1 4E 23 46 23 78 B1 CA 8D D8 CD C9 DD C5 CD C7 E0 5E 23;
1C90: 56 E5 2A 5E 03 CD 0B DC E1 30 04 C1 C3 8D D8 23 E5 EB CD 8B EE 3E 20 E1;
1CA8: CD 1C DC 7E FE 22 20 11 CD 1C DC 23 7E FE 22 23 28 EE 2B B7 CA 7D DC 18;
1CC0: EF B7 23 CA 7D DC F2 A8 DC F5 3E 20 CD 1C DC F1 CD DA DC 3E 20 CD 1C DC;
1CD8: 18 D1 D6 7F 4F 11 91 D5 1A 13 B7 F2 E0 DC 0D 20 F7 E6 7F CD 1C DC 1A 13;
1CF0: B7 F2 E9 DC C9 3E 64 32 AC 03 CD D7 DF E3 CD F5 D7 D1 20 02 09 F9 EB 0E;
1D08: 08 CD 27 D8 E5 CD C2 DF E3 E5 2A 47 03 E3 CD BF E2 CD 11 DC B7 CD BC E2;
1D20: E5 CD 1F ED E1 C5 D5 01 00 81 51 5A 7E FE BC 3E 01 20 0E CD A0 DD CD BC;
1D38: E2 E5 CD 1F ED CD D3 EC E1 C5 D5 F5 33 E5 2A AF 03 E3 06 81 C5 33 3A 60;
1D50: 03 B7 28 06 01 80 00 CD 0E C3 CD 09 C0 B7 C4 DC DD 22 AF 03 7E FE 3A 28;
1D68: 14 B7 C2 48 D8 23 7E 23 B6 CA 29 DE 23 5E 23 56 EB 22 47 03 EB CD A0 DD;
1D80: 11 4E DD D5 C8 CD 56 D3 D6 80 DA D7 DF FE 36 D2 48 D8 07 4F 06 00 EB 21;
1D98: EB D6 09 4E 23 46 C5 EB 23 7E FE 3A D0 FE 20 28 F7 FE 30 3F 3C 3D C9 EB;
1DB0: 2A 49 03 28 0E EB CD FB DE E5 CD 82 D9 60 69 D1 D2 99 DF 2B 22 BD 03 EB;
1DC8: C9 3A 60 03 B7 28 08 C5 01 80 00 CD 0E C3 C1 CD 09 C0 B7 C8 CD 06 C0 FE;
1DE0: 13 C2 0B DE E5 D5 C5 21 39 01 11 09 00 3E 7C A6 77 19 3E 7C A6 77 19 3E;
1DF8: 7C A6 77 CD C7 CE CD 06 C0 CD 5F DE 3C 32 01 00 C1 D1 E1 FE 03 28 11 FE;
1E10: 20 C0 3A 60 03 B7 C0 C5 01 80 00 CD 0E C3 C1 C9 F6 C0 22 AF 03 21 F6 FF;
1E28: C1 2A 47 03 F5 7D A4 3C 28 09 22 B3 03 2A AF 03 22 B5 03 AF 32 44 03 3D;
1E40: 32 71 01 32 77 01 32 7D 01 01 06 00 CD 0E C3 CD C7 CE CD BB E0 F1 21 EF;
1E58: D7 C2 76 D8 C3 8D D8 21 39 01 11 09 00 34 19 34 19 34 CD BA CE C9 CD 5F;
1E70: DE 3C 32 01 00 2A B5 03 7C B5 1E 20 CA 56 D8 EB 2A B3 03 22 47 03 EB C9;
1E88: 06 FF CD A0 DD 78 32 AF 03 3E 01 32 AC 03 E5 CD E2 E9 E1 CD 84 E4 E5 32;
1EA0: AC 03 60 69 0B 0B 0B 0B 3A AF 03 B7 F5 EB 19 EB 4E 06 00 09 09 23 CD BF;
1EB8: E2 F1 F5 22 FB 00 EB 22 FD 00 01 D9 DE C5 06 06 F2 B7 C4 C1 CD 62 C1 CD;
1ED0: 6D EA 20 F7 CD 88 C1 20 F2 F1 E1 C9 7E FE 41 D8 FE 5B 3F C9 CD A0 DD CD;
1EE8: BC E2 CD D3 EC FA F6 DE 3A C2 03 C3 7A ED 1E 08 C3 56 D8 2B 11 00 00 CD;
1F00: A0 DD D0 E5 F5 21 99 19 CD 0B DC DA 48 D8 62 6B 19 29 19 29 F1 D6 30 5F;
1F18: 16 00 19 EB E1 18 E0 CA B1 D9 CD E7 DE 2B CD A0 DD E5 2A 92 03 28 12 E1;
1F30: CD 11 DC 2C D5 CD E7 DE 2B CD A0 DD C2 48 D8 E3 EB 7D 93 5F 7C 9A 57 DA;
1F48: 3E D8 E5 2A B7 03 01 28 00 09 CD 0B DC D2 3E D8 EB 22 45 03 E1 22 92 03;
1F60: E1 C3 B1 D9 CA AD D9 CD B1 D9 01 4E DD 18 10 0E 03 CD 27 D8 C1 E5 E5 2A;
1F78: 47 03 E3 3E 8D F5 33 C5 CD FB DE CD C4 DF E5 2A 47 03 CD 0B DC E1 23 DC;
1F90: 85 D9 D4 82 D9 60 69 2B D8 1E 0E C3 56 D8 C0 16 FF CD F5 D7 F9 FE 8D 1E;
1FA8: 04 C2 56 D8 E1 22 47 03 23 7C B5 20 07 3A AD 03 B7 C2 8C D8 21 4E DD E3;
1FC0: 3E E1 01 3A 0E 00 06 00 79 48 47 7E B7 C8 B8 C8 23 FE 22 28 F3 18 F4 CD;
1FD8: 84 E4 CD 11 DC C6 D5 3A 90 03 F5 CD D0 E2 F1 E3 22 AF 03 1F CD C1 E2 CA;
1FF0: 27 E0 E5 2A BF 03 E5 23 23 5E 23 56 2A 49 03 CD 0B DC 30 12 2A 45 03 CD;
2008: 0B DC D1 30 11 2A B7 03 CD 0B DC 30 09 3E D1 CD 8C E8 EB CD D1 E6 CD 8C;
2020: E8 E1 CD 2E ED E1 C9 E5 CD 2B ED D1 E1 C9 CD 99 E9 7E 47 FE 8D 28 05 CD;
2038: 11 DC 89 2B 4B 0D 78 CA 85 DD CD FC DE FE 2C C0 18 F3 CD D0 E2 7E FE 89;
2050: 28 05 CD 11 DC BA 2B CD BF E2 CD D3 EC CA C4 DF CD A0 DD DA 80 DF C3 84;
2068: DD 2B CD A0 DD CA C7 E0 C8 FE B6 CA F5 E0 FE B9 CA F5 E0 FE BD CA F5 E0;
2080: E5 FE 2C CA E1 E0 FE 3B CA 20 E1 CD D0 E2 C1 E5 3A 90 03 B7 20 1E CD 96;
2098: EE CD F5 E6 2A BF 03 3A 42 03 47 3A 8E 03 86 B8 D4 C7 E0 CD 37 E7 3E 20;
20B0: CD 1C DC AF C4 37 E7 E1 C3 69 E0 3A 8E 03 B7 C8 18 05 36 00 21 FF 01 3E;
20C8: 0D CD 1C DC 3E 0A CD 1C DC 3A 41 03 3D 32 8E 03 C8 F5 AF CD 1C DC F1 18;
20E0: F3 3A 43 03 47 3A 8E 03 B8 D4 C7 E0 30 32 D6 0F 30 FC 2F 18 21 F5 CD 96;
20F8: E9 CD 11 DC 29 2B F1 D6 B9 E5 28 0E FE 04 CA 3A E1 7B FE 01 DA F6 DE 3A;
2110: 8E 03 2F 83 30 0A 3C 47 3E 20 CD 1C DC 05 20 FA E1 CD A0 DD C3 70 E0 3A;
2128: 0F 00 B7 78 C2 35 E1 FE 10 D2 F6 DE C9 FE 18 C3 31 E1 43 CD 27 E1 CD 5B;
2140: CB 21 00 80 ED 52 13 01 7B 3D 28 03 09 18 FA 22 59 01 3A 5D 01 4F 06 00;
2158: 09 22 5B 01 CD 55 CB C3 20 E1 3F 52 45 45 4E 54 52 45 20 44 41 44 4F 53;
2170: 20 20 0D 0A 00 3A AE 03 B7 C2 42 D8 C1 21 62 E1 CD 11 DC 2C CD 34 E7 C3;
2188: DD D9 CD A2 E6 7E FE 22 3E 00 32 44 03 20 0C CD F6 E6 CD 11 DC 3B E5 CD;
21A0: 37 E7 3E E5 CD E1 D9 C1 DA 26 DE 23 7E B7 2B C5 CA C1 DF 36 2C 18 05 E5;
21B8: 2A BD 03 F6 AF 32 AE 03 E3 18 04 CD 11 DC 2C CD 84 E4 E3 D5 7E FE 2C 28;
21D0: 1D 3A AE 03 B7 C2 50 E2 3E 3F CD 1C DC CD E1 D9 D1 C1 DA 26 DE 23 7E B7;
21E8: 2B C5 CA C1 DF D5 3A 90 03 B7 28 1A CD A0 DD 57 47 FE 22 28 05 16 3A 06;
2200: 2C 2B CD F9 E6 EB 21 19 E2 E3 D5 C3 F2 DF CD A0 DD CD EF ED E3 CD 2B ED;
2218: E1 2B CD A0 DD 28 05 FE 2C C2 75 E1 E3 2B CD A0 DD C2 C3 E1 D1 3A AE 03;
2230: B7 EB C2 C4 DD D5 B6 21 3F E2 C4 34 E7 E1 C9 3F 49 47 4E 4F 52 4F 55 20;
2248: 45 58 54 52 41 0D 0A 00 CD C2 DF B7 20 12 23 7E 23 B6 1E 06 CA 56 D8 23;
2260: 5E 23 56 EB 22 AA 03 EB CD A0 DD FE 83 20 E1 C3 EE E1 11 00 00 C4 84 E4;
2278: 22 AF 03 CD F5 D7 C2 4E D8 F9 D5 7E 23 F5 D5 CD 11 ED E3 E5 CD 8C EA E1;
2290: CD 2B ED E1 CD 22 ED E5 CD 4D ED E1 C1 90 CD 22 ED 28 09 EB 22 47 03 69;
22A8: 60 C3 4A DD F9 2A AF 03 7E FE 2C C2 4E DD CD A0 DD CD 75 E2 CD D0 E2 F6;
22C0: 37 3A 90 03 8F B7 E8 1E 18 C3 56 D8 CD 11 DC 28 2B 16 00 D5 0E 01 CD 27;
22D8: D8 CD 44 E3 22 B1 03 2A B1 03 C1 78 FE 78 D4 BF E2 7E 16 00 D6 C5 38 15;
22F0: FE 03 30 11 FE 01 17 AA BA 57 DA 48 D8 22 A8 03;
2300: CD A0 DD 18 E7 7A B7 C2 00 E4 7E 22 A8 03 D6 BE D8 FE 07 D0 5F 3A 90 03;
2318: 3D B3 7B CA 23 E8 07 83 5F 21 57 D7 19 78 56 BA D0 23 CD BF E2 C5 01 DF;
2330: E2 C5 43 4A CD 04 ED 58 51 4E 23 46 23 C5 2A A8 03 C3 D3 E2 AF 32 90 03;
2348: CD A0 DD 1E 24 CA 56 D8 DA EF ED CD DC DE D2 92 E3 FE BE 28 E7 FE 2E CA;
2360: EF ED FE BF 28 1B FE 22 CA F6 E6 FE BB CA 5F E4 FE B8 CA 65 E6 D6 C8 30;
2378: 2A CD CC E2 CD 11 DC 29 C9 16 7D CD D3 E2 2A B1 03 E5 CD FC EC CD BF E2;
2390: E1 C9 CD 84 E4 E5 EB 22 BF 03 3A 90 03 B7 CC 11 ED E1 C9 06 00 07 4F C5;
23A8: CD A0 DD 79 FE 29 38 18 CD CC E2 CD 11 DC 2C CD C0 E2 EB 2A BF 03 E3 E5;
23C0: EB CD 99 E9 EB E3 18 08 CD 79 E3 E3 11 8D E3 D5 01 61 D5 09 4E 23 66 69;
23D8: E9 F6 AF F5 CD BF E2 CD F0 DE F1 EB C1 E3 EB CD 14 ED F5 CD F0 DE F1 C1;
23F0: 79 21 2F E6 20 05 A3 4F 78 A2 E9 B3 4F 78 B2 E9 21 12 E4 3A 90 03 1F 7A;
2408: 17 5F 16 64 78 BA D0 C3 2D E3 14 E4 79 B7 1F C1 D1 F5 CD C1 E2 21 55 E4;
2420: E5 CA 4D ED AF 32 90 03 D5 CD 6F E8 7E 23 23 4E 23 46 D1 C5 F5 CD 73 E8;
2438: CD 22 ED F1 57 E1 7B B2 C8 7A D6 01 D8 AF BB 3C D0 15 1D 0A BE 23 03 28;
2450: ED 3F C3 DE EC 3C 8F C1 A0 C6 FF 9F C3 E5 EC 16 5A CD D3 E2 CD BF E2 CD;
2468: F0 DE 7B 2F 4F 7A 2F CD 2F E6 C1 C3 DF E2 2B CD A0 DD C8 CD 11 DC 2C 01;
2480: 76 E4 C5 F6 AF 32 8F 03 46 CD DC DE DA 48 D8 AF 4F 32 90 03 CD A0 DD 38;
2498: 05 CD DC DE 38 0B 4F CD A0 DD 38 FB CD DC DE 30 F6 D6 24 20 0A 3C 32 90;
24B0: 03 0F 81 4F CD A0 DD 3A AC 03 3D CA 4F E5 F2 C7 E4 7E D6 28 CA 28 E5 AF;
24C8: 32 AC 03 E5 2A B9 03 EB 2A B7 03 CD 0B DC 28 10 79 96 23 20 02 78 96 23;
24E0: 28 38 23 23 23 23 18 EB E1 E3 D5 11 95 E3 CD 0B DC D1 28 29 E3 E5 C5 01;
24F8: 06 00 2A BB 03 E5 09 C1 E5 CD 16 D8 E1 22 BB 03 60 69 22 B9 03 2B 36 00;
2510: CD 0B DC 20 F8 D1 73 23 72 23 EB E1 C9 32 C2 03 21 E9 D7 22 BF 03 E1 C9;
2528: E5 2A 8F 03 E3 57 D5 C5 CD E4 DE C1 F1 EB E3 E5 EB 3C 57 7E FE 2C 28 EE;
2540: CD 11 DC 29 22 B1 03 E1 22 8F 03 1E 00 D5 11 E5 F5 2A B9 03 3E 19 EB 2A;
2558: BB 03 EB CD 0B DC 28 24 7E B9 23 20 02 7E B8 23 5E 23 56 23 20 E7 3A 8F;
2570: 03 B7 C2 51 D8 F1 44 4D CA 18 EC 96 CA DE E5 1E 10 C3 56 D8 11 04 00 F1;
2588: CA F6 DE 71 23 70 23 4F CD 27 D8 23 23 22 A8 03 71 23 3A 8F 03 17 79 01;
25A0: 0B 00 30 02 C1 03 71 23 70 23 F5 E5 CD BE ED EB E1 F1 3D 20 EA F5 42 4B;
25B8: EB 19 DA 7F E5 CD 30 D8 22 BB 03 2B 36 00 CD 0B DC 20 F8 03 57 2A A8 03;
25D0: 5E EB 29 09 EB 2B 2B 73 23 72 23 F1 38 23 47 4F 7E 23 16 E1 5E 23 56 23;
25E8: E3 F5 CD 0B DC D2 7F E5 E5 CD BE ED D1 19 F1 3D 44 4D 20 E7 29 29 C1 09;
2600: EB 2A B1 03 C9 2A BB 03 EB 21 00 00 39 3A 90 03 B7 28 0D CD 6F E8 CD 75;
2618: E7 2A 45 03 EB 2A A6 03 7D 93 5F 7C 9A 57 AF 32 90 03 06 98 C3 EA EC 41;
2630: 50 1E 00 21 90 03 73 06 90 C3 EA EC 3A 8E 03 47 AF 18 ED CD B0 E6 CD A2;
2648: E6 01 C2 DF C5 D5 CD 11 DC 28 CD 84 E4 CD BF E2 CD 11 DC 29 CD 11 DC C6;
2660: 44 4D E3 18 38 CD B0 E6 D5 CD 79 E3 CD BF E2 E3 5E 23 56 23 7E 23 66 6F;
2678: CD 0B DC CA 54 D8 4E 23 46 23 C5 4E 23 46 C5 2B 2B 2B E5 D5 CD 2B ED E1;
2690: CD BC E2 2B CD A0 DD C2 48 D8 E1 D1 C1 71 23 70 18 4D E5 2A 47 03 23 7C;
26A8: B5 E1 C0 1E 16 C3 56 D8 CD 11 DC B8 3E 80 32 AC 03 B6 47 CD 89 E4 C3 BF;
26C0: E2 CD BF E2 CD 96 EE CD F5 E6 CD 6F E8 01 C9 E8 C5 7E 23 23 E5 CD 4C E7;
26D8: E1 4E 23 46 CD E9 E6 E5 6F CD 63 E8 D1 C9 CD 4C E7 21 A2 03 E5 77 23 23;
26F0: 73 23 72 E1 C9 2B 06 22 50 E5 0E FF 23 7E 0C B7 28 06 BA 28 03 B8 20 F4;
2708: FE 22 CC A0 DD E3 23 EB 79 CD E9 E6 11 A2 03 2A 94 03 22 BF 03 3E 01 32;
2720: 90 03 CD 2E ED CD 0B DC 22 94 03 E1 7E C0 1E 1E C3 56 D8 23 CD F5 E6 CD;
2738: 6F E8 CD 22 ED 1C 1D C8 0A CD 1C DC FE 0D CC D1 E0 03 18 F2 B7 0E F1 F5;
2750: 2A 45 03 EB 2A A6 03 2F 4F 06 FF 09 23 CD 0B DC 38 07 22 A6 03 23 EB F1;
2768: C9 F1 1E 1A CA 56 D8 BF F5 01 4E E7 C5 2A 92 03 22 A6 03 21 00 00 E5 2A;
2780: 45 03 E5 21 96 03 EB 2A 94 03 EB CD 0B DC 01 86 E7 20 42 2A B7 03 EB 2A;
2798: B9 03 EB CD 0B DC 28 0A 7E 23 23 B7 CD D8 E7 18 ED C1 EB 2A BB 03 EB CD;
27B0: 0B DC 28 4A CD 22 ED 7B E5 09 B7 F2 A9 E7 22 A8 03 E1 4E 06 00 09 09 23;
27C8: EB 2A A8 03 EB CD 0B DC 28 D8 01 C8 E7 C5 F6 80 7E 23 23 5E 23 56 23 F0;
27E0: B7 C8 44 4D 2A A6 03 CD 0B DC 60 69 D8 E1 E3 CD 0B DC E3 E5 60 69 D0 C1;
27F8: F1 F1 E5 D5 C5 C9 D1 E1 7D B4 C8 2B 46 2B 4E E5 2B 2B 6E 26 00 09 50 59;
2810: 2B 44 4D 2A A6 03 CD 19 D8 E1 71 23 70 69 60 2B C3 78 E7 C5 E5 2A BF 03;
2828: E3 CD 44 E3 E3 CD C0 E2 7E E5 2A BF 03 E5 86 1E 1C DA 56 D8 CD E6 E6 D1;
2840: CD 73 E8 E3 CD 72 E8 E5 2A A4 03 EB CD 5A E8 CD 5A E8 21 E2 E2 E3 E5 C3;
2858: 14 E7 E1 E3 7E 23 23 4E 23 46 6F 2C 2D C8 0A 12 03 13 18 F8 CD C0 E2 2A;
2870: BF 03 EB CD 8C E8 EB C0 D5 50 59 1B 4E 2A A6 03 CD 0B DC 20 05 47 09 22;
2888: A6 03 E1 C9 2A 94 03 2B 46 2B 4E 2B 2B CD 0B DC C0 22 94 03 C9 01 3F E6;
28A0: C5 CD 6C E8 AF 57 32 90 03 7E B7 C9 01 3F E6 C5 CD A1 E8 CA F6 DE 23 23;
28B8: 5E 23 56 1A C9 3E 01 CD E6 E6 CD 9C E9 2A A4 03 73 C1 C3 14 E7 CD 4F E9;
28D0: AF E3 4F E5 7E B8 38 02 78 11 0E 00 C5 CD 4C E7 C1 E1 E5 23 23 46 23 66;
28E8: 68 06 00 09 44 4D CD E9 E6 6F CD 63 E8 D1 CD 73 E8 C3 14 E7 CD 4F E9 D1;
2900: D5 1A 90 18 CC EB 7E CD 54 E9 04 05 CA F6 DE C5 1E FF FE 29 28 07 CD 11;
2918: DC 2C CD 99 E9 CD 11 DC 29 F1 E3 01 D3 E8 C5 3D BE 06 00 D0 4F 7E 91 BB;
2930: 47 D8 43 C9 CD A1 E8 CA FD EA 5F 23 23 7E 23 66 6F E5 19 46 72 E3 C5 7E;
2948: CD EF ED C1 E1 70 C9 EB CD 11 DC 29 C1 D1 C5 43 C9 CD 9C E9 32 3F 03 CD;
2960: 3E 03 C3 3F E6 CD 87 E9 C3 06 03 CD 87 E9 F5 1E 00 2B CD A0 DD 28 07 CD;
2978: 11 DC 2C CD 99 E9 C1 CD 3E 03 AB A0 28 F9 C9 CD 99 E9 32 3F 03 32 07 03;
2990: CD 11 DC 2C 18 03 CD A0 DD CD BC E2 CD EA DE 7A B7 C2 F6 DE 2B CD A0 DD;
29A8: 7B C9 FE 2A 20 06 06 01 23 C3 8A DE CD E2 E9 E5 EB 2A 49 03 22 FB 00 01;
29C0: D7 E9 C5 2A B7 03 22 FD 00 EB 2B 23 7E B7 20 FB 36 0D 06 06 C3 B7 C4 E1;
29D8: 2B 23 7E FE 0D 20 FA 36 00 C9 C5 D5 06 05 11 8D 01 2B 23 7E FE 20 28 FA;
29F0: FE 5B 30 18 FE 30 38 14 FE 3A 38 04 FE 41 38 0C;
2A00: 12 23 13 05 20 E5 3E 0D 12 D1 C1 C9 B7 20 F7 3E 20 12 13 05 20 FB 18 EE;
2A18: 1E 08 C3 56 D8 FE 2A 20 04 23 C3 88 DE 22 BF 03 CD A2 D9 2A BF 03 7E CD;
2A30: E2 E9 7E 23 B7 20 FB 36 0D 06 06 2A 49 03 22 FB 00 CD 62 C1 CD 6D EA 20;
2A48: F8 CD 88 C1 20 F3 22 B7 03 CD C7 E0 21 EA D7 CD 34 E7 3A 8D 01 FE 20 C2;
2A60: 67 D9 3E 01 32 61 03 32 44 03 C3 67 D9 E5 D5 C5 21 8D 01 11 7F 01 06 05;
2A78: 1A BE C2 85 EA 05 CA 85 EA 13 23 18 F3 C1 D1 E1 C9 21 66 EF CD 22 ED 18;
2A90: 09 CD 22 ED 21 C1 D1 CD FC EC 78 B7 C8 3A C2 03 B7 CA 14 ED 90 30 0C 2F;
2AA8: 3C EB CD 04 ED EB CD 14 ED C1 D1 FE 19 D0 F5 CD 38 ED 67 F1 CD 5C EB B4;
2AC0: 21 BF 03 F2 D9 EA CD 3C EB D2 1B EB 23 34 CA 37 EB 2E 01 CD 70 EB C3 1B;
2AD8: EB AF 90 47 7E 9B 5F 23 7E 9A 57 23 7E 99 4F DC 48 EB 68 63 AF 47 79 B7;
2AF0: 20 18 4A 54 65 6F 78 D6 08 FE E0 20 F0 AF 32 C2 03 C9 05 29 7A 17 57 79;
2B08: 8F 4F F2 02 EB 78 5C 45 B7 28 08 21 C2 03 86 77 30 E3 C8 78 21 C2 03 B7;
2B20: FC 2D EB 46 23 7E E6 80 A9 4F C3 14 ED 1C C0 14 C0 0C C0 0E 80 34 C0 1E;
2B38: 0A C3 56 D8 7E 83 5F 23 7E 8A 57 23 7E 89 4F C9 21 C3 03 7E 2F 77 AF 6F;
2B50: 90 47 7D 9B 5F 7D 9A 57 7D 99 4F C9 06 00 D6 08 38 07 43 5A 51 0E 00 18;
2B68: F5 C6 09 6F AF 2D C8 79 1F 4F 7A 1F 57 7B 1F 5F 78 1F 47 18 EF 00 00 00;
2B80: 81 03 AA 56 19 80 F1 22 76 80 45 AA 38 82 CD D3 EC B7 EA F6 DE 21 C2 03;
2B98: 7E 01 35 80 11 F3 04 90 F5 70 D5 C5 CD 9A EA C1 D1 04 CD 2D EC 21 7D EB;
2BB0: CD 91 EA 21 81 EB CD 2F F0 01 80 80 11 00 00 CD 9A EA F1 CD 6C EE 01 31;
2BC8: 80 11 18 72 21 C1 D1 CD D3 EC C8 2E 00 CD 92 EC 79 32 D1 03 EB 22 D2 03;
2BE0: 01 00 00 50 58 21 EA EA E5 21 F1 EB E5 E5 21 BF 03 7E 23 B7 28 24 E5 2E;
2BF8: 08 1F 67 79 30 0B E5 2A D2 03 19 EB E1 3A D1 03 89 1F 4F 7A 1F 57 7B 1F;
2C10: 5F 78 1F 47 2D 7C 20 E1 E1 C9 43 5A 51 4F C9 CD 04 ED 01 20 84 11 00 00;
2C28: CD 14 ED C1 D1 CD D3 EC CA 4B D8 2E FF CD 92 EC 34 34 2B 7E 32 12 03 2B;
2C40: 7E 32 0E 03 2B 7E 32 0A 03 41 EB AF 4F 57 5F 32 15 03 E5 C5 7D CD 09 03;
2C58: DE 00 3F 30 07 32 15 03 F1 F1 37 D2 C1 E1 79 3C 3D 1F FA 1C EB 17 7B 17;
2C70: 5F 7A 17 57 79 17 4F 29 78 17 47 3A 15 03 17 32 15 03 79 B2 B3 20 CB E5;
2C88: 21 C2 03 35 E1 20 C3 C3 37 EB 78 B7 28 1F 7D 21 C2 03 AE 80 47 1F A8 78;
2CA0: F2 B4 EC C6 80 77 CA 18 EC CD 38 ED 77 2B C9 CD D3 EC 2F E1 B7 E1 F2 FD;
2CB8: EA C3 37 EB CD 1F ED 78 B7 C8 C6 02 DA 37 EB 47 CD 9A EA 21 C2 03 34 C0;
2CD0: C3 37 EB 3A C2 03 B7 C8 3A C1 03 FE 2F 17 9F C0 3C C9 CD D3 EC 06 88 11;
2CE8: 00 00 21 C2 03 4F 70 06 00 23 36 80 17 C3 E7 EA CD D3 EC F0 21 C1 03 7E;
2D00: EE 80 77 C9 EB 2A BF 03 E3 E5 2A C1 03 E3 E5 EB C9 CD 22 ED EB 22 BF 03;
2D18: 60 69 22 C1 03 EB C9 21 BF 03 5E 23 56 23 4E 23 46 23 C9 11 BF 03 06 04;
2D30: 1A 77 13 23 05 20 F9 C9 21 C1 03 7E 07 37 1F 77 3F 1F 23 23 77 79 07 37;
2D48: 1F 4F 1F AE C9 78 B7 CA D3 EC 21 DC EC E5 CD D3 EC 79 C8 21 C1 03 AE 79;
2D60: F8 CD 67 ED 1F A9 C9 23 78 BE C0 2B 79 BE C0 2B 7A BE C0 2B 7B 96 C0 E1;
2D78: E1 C9 47 4F 57 5F B7 C8 E5 CD 1F ED CD 38 ED AE 67 FC 9E ED 3E 98 90 CD;
2D90: 5C EB 7C 17 DC 2D EB 06 00 DC 48 EB E1 C9 1B 7A A3 3C C0 0B C9 21 C2 03;
2DA8: 7E FE 98 3A BF 03 D0 7E CD 7A ED 36 98 7B F5 79 17 CD E7 EA F1 C9 21 00;
2DC0: 00 78 B1 C8 3E 10 29 DA 7F E5 EB 29 EB 30 04 09 DA 7F E5 3D 20 F0 C9 CD;
2DD8: F0 DE 1A C3 3F E6 CD BC E2 CD F0 DE D5 CD 11 DC 2C CD 99 E9 D1 12 C9 FE;
2DF0: 2D F5 28 05 FE 2B 28 01 2B CD FD EA 47 57 5F 2F 4F CD A0 DD 38 4F FE 2E;
2E08: 28 28 FE 45 20 27 CD A0 DD E5 21 26 EE E3 15 FE BF C8 FE 2D C8 14 FE 2B;
2E20: C8 FE BE C8 F1 2B CD A0 DD 38 4C 14 20 07 AF 93 5F 0C 0C 28 CC E5 7B 90;
2E38: F4 4D EE F2 44 EE F5 CD 1F EC F1 3C 20 F2 D1 F1 CC FC EC EB C9 C8 F5 CD;
2E50: BC EC F1 3D C9 D5 57 78 89 47 C5 E5 D5 CD BC EC F1 D6 30 CD 6C EE E1 C1;
2E68: D1 C3 01 EE CD 04 ED CD E5 EC C1 D1 C3 9A EA 7B 07 07 83 07 86 D6 30 5F;
2E80: C3 26 EE E5 21 E5 D7 CD 34 E7 E1 EB AF 06 98 CD EA EC 21 33 E7 E5 21 C4;
2E98: 03 E5 CD D3 EC 36 20 F2 A4 EE 36 2D 23 36 30 CA 51 EF E5 FC FC EC AF F5;
2EB0: CD 57 EF 01 43 91 11 F8 4F CD 4D ED B7 E2 D0 EE F1 CD 4E EE F5 18 EC CD;
2EC8: 1F EC F1 3C F5 CD 57 EF CD 89 EA 3C CD 7A ED CD 14 ED 01 06 03 F1 81 3C;
2EE0: FA EB EE FE 08 30 04 3C 47 3E 02 3D 3D E1 F5 11 6A EF 05 20 06 36 2E 23;
2EF8: 36 30 23 05 36 2E CC 29 ED C5 E5 D5 CD 1F ED E1 06 2F 04 7B 96 5F 23 7A;
2F10: 9E 57 23 79 9E 4F 2B 2B 30 F0 CD 3C EB 23 CD 14 ED EB E1 70 23 C1 0D 20;
2F28: D2 05 28 0B 2B 7E FE 30 28 FA FE 2E C4 29 ED F1 28 1A 36 45 23 36 2B F2;
2F40: 46 EF 36 2D 2F 3C 06 2F 04 D6 0A 30 FB C6 3A 23 70 23 77 23 71 E1 C9 01;
2F58: 74 94 11 F7 23 CD 4D ED B7 E1 E2 C7 EE E9 00 00 00 80 A0 86 01 10 27 00;
2F70: E8 03 00 64 00 00 0A 00 00 01 00 00 21 FC EC E3 E9 CD 04 ED 21 66 EF CD;
2F88: 11 ED C1 D1 CD D3 EC 78 28 3C F2 99 EF B7 CA 4B D8 B7 CA FE EA D5 C5 79;
2FA0: F6 7F CD 1F ED F2 B6 EF D5 C5 CD A5 ED C1 D1 F5 CD 4D ED E1 7C 1F E1 22;
2FB8: C1 03 E1 22 BF 03 DC 7C EF CC FC EC D5 C5 CD 8E EB C1 D1 CD CF EB CD 04;
2FD0: ED 01 38 81 11 3B AA CD CF EB 3A C2 03 FE 88 D2 AF EC CD A5 ED C6 80 C6;
2FE8: 02 DA AF EC F5 21 7D EB CD 8C EA CD C6 EB F1 C1 D1 F5 CD 97 EA CD FC EC;
3000: 21 0E F0 CD 3E F0 11 00 00 C1 4A C3 CF EB 08 40 2E 94 74 70 4F 2E 77 6E;
3018: 02 88 7A E6 A0 2A 7C 50 AA AA 7E FF FF 7F 7F 00 00 80 81 00 00 00 81 CD;
3030: 04 ED 11 CD EB D5 E5 CD 1F ED CD CF EB E1 CD 04 ED 7E 23 CD 11 ED 06 F1;
3048: C1 D1 3D C8 D5 C5 F5 E5 CD CF EB E1 CD 22 ED E5 CD 9A EA E1 18 E9 CD D3;
3060: EC 21 19 03 FA BE F0 21 3A 03 CD 11 ED 21 19 03 C8 86 E6 07 06 00 77 23;
3078: 87 87 4F 09 CD 22 ED CD CF EB 3A 18 03 3C E6 03 06 00 FE 01 88 32 18 03;
3090: 21 C2 F0 87 87 4F 09 CD 8C EA CD 1F ED 7B 59 EE 4F 4F 36 80 2B 46 36 80;
30A8: 21 17 03 34 7E D6 AB 20 04 77 0C 15 1C CD EA EA 21 3A 03 C3 2B ED 77 2B;
30C0: 77 2B 77 C3 9A F0 68 B1 46 68 99 E9 92 69 10 D1 75 68 21 1C F1 CD 8C EA;
30D8: CD 04 ED 01 49 83 11 DB 0F CD 14 ED C1 D1 CD 2D EC CD 04 ED CD A5 ED C1;
30F0: D1 CD 97 EA 21 20 F1 CD 91 EA CD D3 EC 37 F2 08;
3100: F1 CD 89 EA CD D3 EC B7 F5 F4 FC EC 21 20 F1 CD 8C EA F1 D4 FC EC 21 24;
3118: F1 C3 2F F0 DB 0F 49 81 00 00 00 7F 05 BA D7 1E 86 64 26 99 87 58 34 23;
3130: 87 E0 5D A5 86 DA 0F 49 83 CD 04 ED CD D8 F0 C1 E1 CD 04 ED EB CD 14 ED;
3148: CD D2 F0 C3 2B EC CD D3 EC FC 7C EF FC FC EC 3A C2 03 FE 81 38 0C 01 00;
3160: 81 51 59 CD 2D EC 21 91 EA E5 21 74 F1 CD 2F F0 21 1C F1 C9 09 4A D7 3B;
3178: 78 02 6E 84 7B FE C1 2F 7C 74 31 9A 7D 84 3D 5A 7D C8 7F 91 7E E4 BB 4C;
3190: 7E 6C AA AA 7F 00 00 00 81 3A 52 03 B7 C8 79 FE 20 D8 EE 80 4F C9 4F F5;
31A8: 3A 28 01 B7 28 07 CD CB C0 FE 02 20 06 CD 99 F1 CD 97 C8 F1 C9 EE DD CC;
31C0: BB 00 FB FF AA FF FF FF FF 53 06 EE DD CC BB 00 FB FF AA 00 02 D1 C1 F1;
31D8: F1 DD E1 FD E1 08 D9 E1 D1 C1 F1 F1 08 D9 E1 F9 21 29 00 C3 53 06 00 00;
31F0: 00 00 00 00 E1 21 00 00 39 22 55 03 3E 41 32 03 00 31 C0 00 3E C3 32 30;
3208: 00 21 F2 F4 22 31 00 01 37 00 11 C0 00 21 BD F1 ED B0 18 0E 2A 55 03 F9;
3220: C3 8D D8 31 C0 00 CD 0F F4 23 CD 22 F4 CD 0F F4 3E CD D8 F4 FE 0D 28 F2;
3238: D6 41 FA 23 F2 0E 02 11 2A F2 D5 21 55 F2 FE 1A F2 23 F2 5F 16 00 19 19;
3250: 7E 23 66 6F E9 23 F2 23 F2 23 F2 89 F2 23 F2 B4 F2 C2 F2 23 F2 23 F2 23;
3268: F2 23 F2 23 F2 FF F2 23 F2 23 F2 23 F2 0F F3 46 F3 20 F3 23 F2 23 F2 23;
3280: F2 23 F2 4B F3 23 F2 23 F2 CD 5C F4 D1 E1 CD 8B F4 CD 2B F4 0E 20 CD 15;
3298: F4 7E CD 30 F4 CD 6D F4 DA 8B F4 3A 0F 00 B7 7D 28 04 E6 0F 18 02 E6 07;
32B0: 20 E2 18 DA 0C CD 5C F4 C1 D1 E1 71 CD 6D F4 30 FA C9 21 D8 00 E3 CD C9;
32C8: F4 28 0A CD 9B F4 EB 21 F0 00 72 2B 73 38 25 11 02 00 CD 0F F4 2D CD 95;
32E0: F4 E5 14 38 03 1D 20 F2 D2 23 F2 21 F1 00 C1 71 23 70 23 0A 77 23 3E F7;
32F8: 02 15 20 F2 C3 22 F4 0C CD 5C F4 C1 D1 E1 7E 02 03 CD 6D F4 30 F8 C9 CD;
3310: D8 F4 FE 0D C2 23 F2 CD 22 F4 CD 22 F4 C3 1C F2 CD 95 F4 D0 CD 22 F4 CD;
3328: 77 F4 CD 0F F4 20 7E CD 7C F4 CD 0F F4 20 CD C9 F4 38 08 C8 EB CD 9B F4;
3340: EB 73 D0 23 18 DE 21 CB F3 18 03 21 A0 F3 CD C9 F4 38 37 0E 0E BE 28 09;
3358: 23 23 23 0D 20 F7 C3 23 F2 CD 07 F4 CD 4B F4 CD 0F F4 2D CD C9 F4 D8 28;
3370: 10 E5 C5 CD 9B F4 7D 12 F1 B7 FA 80 F3 13 7C 12 E1 AF B6 F8 78 FE 0D C8;
3388: 18 DA CD 22 F4 CD 07 F4 AF B6 F8 4E CD 09 F4 CD 0F F4 3D CD 4B F4 18 ED;
33A0: 41 C7 00 42 C3 00 43 C2 00 44 C1 00 45 C0 00 46 C6 00 48 ED 00 49 C5 00;
33B8: 4C EC 00 4D ED 01 58 C9 01 59 CB 01 50 F0 01 53 D7 01 FF 41 D5 00 42 D1;
33D0: 00 43 D0 00 44 CF 00 45 CE 00 46 D4 00 48 CD 00 49 D3 00 4C CC 00 4D CD;
33E8: 01 58 C9 01 59 CB 01 50 F0 01 53 D7 01 FF CD 09 C0 C8 CD 06 C0 FE 03 CA;
3400: 23 F2 FE 13 28 F4 C9 0E 20 CD F6 F3 C3 A7 F1 E3 4E 23 E3 18 F4 3A 03 00;
3418: FE 81 20 ED CD F6 F3 C3 CB C0 CD 0F F4 0D CD 0F F4 0A C9 7C CD 30 F4 7D;
3430: F5 0F 0F 0F 0F CD 41 F4 CD 15 F4 F1 CD 41 F4 18 D4 E6 0F C6 90 27 CE 40;
3448: 27 4F C9 23 5E 16 00 23 46 23 1A CD 7C F4 05 F8 1B 1A 18 20 CD 95 F4 E3;
3460: E5 0D 30 04 C2 23 F2 C9 20 F2 C3 23 F2 23 7C B5 37 C8 7B 95 7A 9C C9 7C;
3478: CD 7C F4 7D F5 0F 0F 0F 0F CD 85 F4 F1 CD 41 F4 C3 09 F4 0E 0D CD 15 F4;
3490: 0E 0A C3 15 F4 CD C9 F4 CA 23 F2 21 00 00 47 CD B7 F4 38 0B 29 29 29 29;
34A8: B5 6F CD D8 F4 18 EF 78 CD CC F4 C2 23 F2 C9 D6 30 D8 C6 E9 D8 C6 06 F2;
34C0: C5 F4 C6 07 D8 C6 0A B7 C9 CD D8 F4 FE 20 C8 FE 2C C8 FE 0D 37 C8 3F C9;
34D8: CD 06 C0 C5 CD E9 F4 FE 03 CA 23 F2 CD A6 F1 C1 C9 FE 61 F8 FE 7B F0 E6;
34F0: DF C9 E5 D5 C5 F5 D1 E5 D5 DD E5 FD E5 08 D9 E5 D5 C5 F5 D1 E5 D5 08 D9;
3508: 21 D8 00 EB 21 1A 00 39 06 0C EB 2B 72 2B 73 D1 05 20 F8 C1 0B F9 21 F1;
3520: 00 7E 91 23 20 04 7E 98 28 0C 23 23 7E 91 23 20 04 7E 98 28 01 03 21 EC;
3538: 00 73 23 72 2E EF 71 23 70 C5 CD 0F F4 23 E1 CD 77 F4 21 F1 00 16 02 4E;
3550: AF 77 23 46 77 23 79 B0 28 02 7E 02 23 15 20 EF C3 2A F2 00 00 00 00 00;
3568: 00 00 00 00 00 00 00 00 00 00 00 00 00 00 00 00 00 00 00 00 00 00 00 00;
3580: 00 00 00 00 00 00 00 00 00 00 00 00 00 00 00 00 00 00 00 00 00 00 00 00;
3598: 00 00 00 00 00 00 00 00 00 00 00 00 00 00 00 00 00 00 00 00 00 00 00 00;
35B0: 00 00 00 00 00 00 00 00 00 00 00 00 00 00 00 00 00 00 00 00 00 00 00 00;
35C8: 00 00 00 00 00 00 00 00 00 00 00 00 00 00 00 00 00 00 00 00 00 00 00 00;
35E0: 00 00 00 00 00 00 00 00 00 00 00 00 00 00 00 00 00 00 00 00 00 00 00 00;
35F8: 00 00 00 00 00 00 00 00 00 00 00 00 00 00 00 00 00 00 00 00 00 00 00 00;
3610: 00 00 00 00 00 00 00 00 00 00 00 00 00 00 00 00 00 00 00 00 00 00 00 00;
3628: 00 00 00 00 00 00 00 00 00 00 00 00 00 00 00 00 00 00 00 00 00 00 00 00;
3640: 00 00 00 00 00 00 00 00 00 00 00 00 00 00 00 00 00 00 00 00 00 00 00 00;
3658: 00 00 00 00 00 00 00 00 00 00 00 00 00 00 00 00 00 00 00 00 00 00 00 00;
3670: 00 00 00 00 00 00 00 00 00 00 00 00 00 00 00 00 00 00 00 00 00 00 00 00;
3688: 00 00 00 00 00 00 00 00 00 00 00 00 00 00 00 00 00 00 00 00 00 00 00 00;
36A0: 00 00 00 00 00 00 00 00 00 00 00 00 00 00 00 00 00 00 00 00 00 00 00 00;
36B8: 00 00 00 00 00 00 00 00 00 00 00 00 00 00 00 00 00 00 00 00 00 00 00 00;
36D0: 00 00 00 00 00 00 00 00 00 00 00 00 00 00 00 00 00 00 00 00 00 00 00 00;
36E8: 00 00 00 00 00 00 00 00 00 00 00 00 00 00 00 00 00 00 00 00 00 00 00 00;
3700: 00 00 00 00 00 00 00 00 00 00 00 00 00 00 00 00 00 00 00 00 00 00 00 00;
3718: 00 00 00 00 00 00 00 00 00 00 00 00 00 00 00 00 00 00 00 00 00 00 00 00;
3730: 00 00 00 00 00 00 00 00 00 00 00 00 00 00 00 00 00 00 00 00 00 00 00 00;
3748: 00 00 00 00 00 00 00 00 00 00 00 00 00 00 00 00 00 00 00 00 00 00 00 00;
3760: 00 00 00 00 00 00 00 00 00 00 00 00 00 00 00 00 00 00 00 00 00 00 00 00;
3778: 00 00 00 00 00 00 00 00 00 00 00 00 00 00 00 00 00 00 00 00 00 00 00 00;
3790: 00 00 00 00 00 00 00 00 00 00 00 00 00 00 00 00 00 00 00 00 00 00 00 00;
37A8: 00 00 00 00 00 00 00 00 00 00 00 00 00 00 00 00 00 00 00 00 00 00 00 00;
37C0: 00 00 00 00 00 00 00 00 00 00 00 00 00 00 00 00 00 00 00 00 00 00 00 00;
37D8: 00 00 00 00 00 00 00 00 00 00 00 00 00 00 00 00 00 00 00 00 00 00 00 00;
37F0: 00 00 00 00 00 00 00 00 00 00 00 00 00 00 00 00;
3800: 00 00 00 00 00 00 00 00 00 00 00 00 00 00 00 00 00 00 00 00 00 00 00 00;
3818: 00 00 00 00 00 00 00 00 00 00 00 00 00 00 00 00 00 00 00 00 00 00 00 00;
3830: 00 00 00 00 00 00 00 00 00 00 00 00 00 00 00 00 00 00 00 00 00 00 00 00;
3848: 00 00 00 00 00 00 00 00 00 00 00 00 00 00 00 00 00 00 00 00 00 00 00 00;
3860: 00 00 00 00 00 00 00 00 00 00 00 00 00 00 00 00 00 00 00 00 00 00 00 00;
3878: 00 00 00 00 00 00 00 00 00 00 00 00 00 00 00 00 00 00 00 00 00 00 00 00;
3890: 00 00 00 00 00 00 00 00 00 00 00 00 00 00 00 00 00 00 00 00 00 00 00 00;
38A8: 00 00 00 00 00 00 00 00 00 00 00 00 00 00 00 00 00 00 00 00 00 00 00 00;
38C0: 00 00 00 00 00 00 00 00 00 00 00 00 00 00 00 00 00 00 00 00 00 00 00 00;
38D8: 00 00 00 00 00 00 00 00 00 00 00 00 00 00 00 00 00 00 00 00 00 00 00 00;
38F0: 00 00 00 00 00 00 00 00 00 00 00 00 00 00 00 00 00 00 00 00 00 00 00 00;
3908: 00 00 00 00 00 00 00 00 00 00 00 00 00 00 00 00 00 00 00 00 00 00 00 00;
3920: 00 00 00 00 00 00 00 00 00 00 00 00 00 00 00 00 00 00 00 00 00 00 00 00;
3938: 00 00 00 00 00 00 00 00 00 00 00 00 00 00 00 00 00 00 00 00 00 00 00 00;
3950: 00 00 00 00 00 00 00 00 00 00 00 00 00 00 00 00 00 00 00 00 00 00 00 00;
3968: 00 00 00 00 00 00 00 00 00 00 00 00 00 00 00 00 00 00 00 00 00 00 00 00;
3980: 00 00 00 00 00 00 00 00 00 00 00 00 00 00 00 00 00 00 00 00 00 00 00 00;
3998: 00 00 00 00 00 00 00 00 00 00 00 00 00 00 00 00 00 00 00 00 00 00 00 00;
39B0: 00 00 00 00 00 00 00 00 00 00 00 00 00 00 00 00 00 00 00 00 00 00 00 00;
39C8: 00 00 00 00 00 00 00 00 00 00 00 00 00 00 00 00 00 00 00 00 00 00 00 00;
39E0: 00 00 00 00 00 00 00 00 00 00 00 00 00 00 00 00 00 00 00 00 00 00 00 00;
39F8: 00 00 00 00 00 00 00 00 00 00 00 00 00 00 00 00 00 00 00 00 00 00 00 00;
3A10: 00 00 00 00 00 00 00 00 00 00 00 00 00 00 00 00 00 00 00 00 00 00 00 00;
3A28: 00 00 00 00 00 00 00 00 00 00 00 00 00 00 00 00 00 00 00 00 00 00 00 00;
3A40: 00 00 00 00 00 00 00 00 00 00 00 00 00 00 00 00 00 00 00 00 00 00 00 00;
3A58: 00 00 00 00 00 00 00 00 00 00 00 00 00 00 00 00 00 00 00 00 00 00 00 00;
3A70: 00 00 00 00 00 00 00 00 00 00 00 00 00 00 00 00 00 00 00 00 00 00 00 00;
3A88: 00 00 00 00 00 00 00 00 00 00 00 00 00 00 00 00 00 00 00 00 00 00 00 00;
3AA0: 00 00 00 00 00 00 00 00 00 00 00 00 00 00 00 00 00 00 00 00 00 00 00 00;
3AB8: 00 00 00 00 00 00 00 00 00 00 00 00 00 00 00 00 00 00 00 00 00 00 00 00;
3AD0: 00 00 00 00 00 00 00 00 00 00 00 00 00 00 00 00 00 00 00 00 00 00 00 00;
3AE8: 00 00 00 00 00 00 00 00 00 00 00 00 00 00 00 00 00 00 00 00 00 00 00 00;
3B00: 00 00 00 00 00 00 00 00 00 00 00 00 00 00 00 00 00 00 00 00 00 00 00 00;
3B18: 00 00 00 00 00 00 00 00 00 00 00 00 00 00 00 00 00 00 00 00 00 00 00 00;
3B30: 00 00 00 00 00 00 00 00 00 00 00 00 00 00 00 00 00 00 00 00 00 00 00 00;
3B48: 00 00 00 00 00 00 00 00 00 00 00 00 00 00 00 00 00 00 00 00 00 00 00 00;
3B60: 00 00 00 00 00 00 00 00 00 00 00 00 00 00 00 00 00 00 00 00 00 00 00 00;
3B78: 00 00 00 00 00 00 00 00 00 00 00 00 00 00 00 00 00 00 00 00 00 00 00 00;
3B90: 00 00 00 00 00 00 00 00 00 00 00 00 00 00 00 00 00 00 00 00 00 00 00 00;
3BA8: 00 00 00 00 00 00 00 00 00 00 00 00 00 00 00 00 00 00 00 00 00 00 00 00;
3BC0: 00 00 00 00 00 00 00 00 00 00 00 00 00 00 00 00 00 00 00 00 00 00 00 00;
3BD8: 00 00 00 00 00 00 00 00 00 00 00 00 00 00 00 00 00 00 00 00 00 00 00 00;
3BF0: 00 00 00 00 00 00 00 00 00 00 00 00 00 00 00 00 00 00 00 00 00 00 00 00;
3C08: 00 00 00 00 00 00 00 00 00 00 00 00 00 00 00 00 00 00 00 00 00 00 00 00;
3C20: 00 00 00 00 00 00 00 00 00 00 00 00 00 00 00 00 00 00 00 00 00 00 00 00;
3C38: 00 00 00 00 00 00 00 00 00 00 00 00 00 00 00 00 00 00 00 00 00 00 00 00;
3C50: 00 00 00 00 00 00 00 00 00 00 00 00 00 00 00 00 00 00 00 00 00 00 00 00;
3C68: 00 00 00 00 00 00 00 00 00 00 00 00 00 00 00 00 00 00 00 00 00 00 00 00;
3C80: 00 00 00 00 00 00 00 00 00 00 00 00 00 00 00 00 00 00 00 00 00 00 00 00;
3C98: 00 00 00 00 00 00 00 00 00 00 00 00 00 00 00 00 00 00 00 00 00 00 00 00;
3CB0: 00 00 00 00 00 00 00 00 00 00 00 00 00 00 00 00 00 00 00 00 00 00 00 00;
3CC8: 00 00 00 00 00 00 00 00 00 00 00 00 00 00 00 00 00 00 00 00 00 00 00 00;
3CE0: 00 00 00 00 00 00 00 00 00 00 00 00 00 00 00 00 00 00 00 00 00 00 00 00;
3CF8: 00 00 00 00 00 00 00 00 00 00 00 00 00 00 00 00 00 00 00 00 00 00 00 00;
3D10: 00 00 00 00 00 00 00 00 00 00 00 00 00 00 00 00 00 00 00 00 00 00 00 00;
3D28: 00 00 00 00 00 00 00 00 00 00 00 00 00 00 00 00 00 00 00 00 00 00 00 00;
3D40: 00 00 00 00 00 00 00 00 00 00 00 00 00 00 00 00 00 00 00 00 00 00 00 00;
3D58: 00 00 00 00 00 00 00 00 00 00 00 00 00 00 00 00 00 00 00 00 00 00 00 00;
3D70: 00 00 00 00 00 00 00 00 00 00 00 00 00 00 00 00 00 00 00 00 00 00 00 00;
3D88: 00 00 00 00 00 00 00 00 00 00 00 00 00 00 00 00 00 00 00 00 00 00 00 00;
3DA0: 00 00 00 00 00 00 00 00 00 00 00 00 00 00 00 00 00 00 00 00 00 00 00 00;
3DB8: 00 00 00 00 00 00 00 00 00 00 00 00 00 00 00 00 00 00 00 00 00 00 00 00;
3DD0: 00 00 00 00 00 00 00 00 00 00 00 00 00 00 00 00 00 00 00 00 00 00 00 00;
3DE8: 00 00 00 00 00 00 00 00 00 00 00 00 00 00 00 00 00 00 00 00 00 00 00 00;
3E00: 00 00 00 00 00 00 00 00 00 00 00 00 00 00 00 00 00 00 00 00 00 00 00 00;
3E18: 00 00 00 00 00 00 00 00 00 00 00 00 00 00 00 00 00 00 00 00 00 00 00 00;
3E30: 00 00 00 00 00 00 00 00 00 00 00 00 00 00 00 00 00 00 00 00 00 00 00 00;
3E48: 00 00 00 00 00 00 00 00 00 00 00 00 00 00 00 00 00 00 00 00 00 00 00 00;
3E60: 00 00 00 00 00 00 00 00 00 00 00 00 00 00 00 00 00 00 00 00 00 00 00 00;
3E78: 00 00 00 00 00 00 00 00 00 00 00 00 00 00 00 00 00 00 00 00 00 00 00 00;
3E90: 00 00 00 00 00 00 00 00 00 00 00 00 00 00 00 00 00 00 00 00 00 00 00 00;
3EA8: 00 00 00 00 00 00 00 00 00 00 00 00 00 00 00 00 00 00 00 00 00 00 00 00;
3EC0: 00 00 00 00 00 00 00 00 00 00 00 00 00 00 00 00 00 00 00 00 00 00 00 00;
3ED8: 00 00 00 00 00 00 00 00 00 00 00 00 00 00 00 00 00 00 00 00 00 00 00 00;
3EF0: 00 00 00 00 00 00 00 00 00 00 00 00 00 00 00 00;
3F00: 00 00 00 00 00 00 00 00 00 00 00 00 00 00 00 00 00 00 00 00 00 00 00 00;
3F18: 00 00 00 00 00 00 00 00 00 00 00 00 00 00 00 00 00 00 00 00 00 00 00 00;
3F30: 00 00 00 00 00 00 00 00 00 00 00 00 00 00 00 00 00 00 00 00 00 00 00 00;
3F48: 00 00 00 00 00 00 00 00 00 00 00 00 00 00 00 00 00 00 00 00 00 00 00 00;
3F60: 00 00 00 00 00 00 00 00 00 00 00 00 00 00 00 00 00 00 00 00 00 00 00 00;
3F78: 00 00 00 00 00 00 00 00 00 00 00 00 00 00 00 00 00 00 00 00 00 00 00 00;
3F90: 00 00 00 00 00 00 00 00 00 00 00 00 00 00 00 00 00 00 00 00 00 00 00 00;
3FA8: 00 00 00 00 00 00 00 00 00 00 00 00 00 00 00 00 00 00 00 00 00 00 00 00;
3FC0: 00 00 00 00 00 00 00 00 00 00 00 00 00 00 00 00 00 00 00 00 00 00 00 00;
3FD8: 00 00 00 00 00 00 00 00 00 00 00 00 00 00 00 00 00 00 00 00 00 00 00 00;
3FF0: 00 00 00 00 00 00 00 00 00 00 00 00 00 00 00 00;
END;
